G04 CAM350 V9.0 (Build 156) Date:  Tue Apr 23 15:00:35 2019 *
G04 Database: C:\1\580\100.0000580.cam *
G04 Layer 8: 1000000580-SMT *
%FSLAX25Y25*%
%MOIN*%
%SFA1.000B1.000*%

%MIA0B0*%
%IPPOS*%
%ADD13C,0.03937*%
%ADD14C,0.01969*%
%ADD17C,0.00394*%
%ADD44R,0.05400X0.03800*%
%ADD45R,0.03800X0.05400*%
%ADD47R,0.11811X0.11811*%
%ADD80R,0.04331X0.03543*%
%ADD81R,0.03543X0.04331*%
%ADD82R,0.01969X0.06693*%
%ADD83R,0.06693X0.01969*%
%ADD84R,0.03543X0.05118*%
%ADD85R,0.03150X0.09449*%
%ADD86R,0.09449X0.03150*%
%ADD87R,0.02756X0.06693*%
%ADD88R,0.06693X0.02756*%
%ADD89R,0.06890X0.03150*%
%ADD90R,0.07874X0.06299*%
%ADD91R,0.05906X0.08858*%
%ADD92R,0.07087X0.06693*%
%ADD93C,0.28346*%
%ADD94R,0.11811X0.11811*%
%ADD95C,0.36220*%
%ADD96R,0.10433X0.07677*%
%ADD97C,0.07500*%
%ADD98R,0.07677X0.10433*%
%ADD99C,0.07799*%
%ADD100C,0.06984*%
%ADD101R,0.06890X0.06890*%
%ADD102R,0.07500X0.07500*%
%ADD103R,0.07799X0.07799*%
%ADD104R,0.06984X0.06984*%
%LN1000000580-SMT*%
%LPD*%
G36*
X719154Y833091D02*
G01X715217D01*
X714805Y833109*
X714396Y833162*
X713994Y833252*
X713601Y833375*
X713220Y833533*
X712854Y833723*
X712507Y833945*
X712180Y834196*
X711876Y834474*
X711597Y834778*
X711347Y835105*
X711125Y835453*
X710935Y835818*
X710777Y836199*
X710653Y836592*
X710564Y836995*
X710510Y837403*
X710492Y837815*
X710510Y838227*
X710564Y838635*
X710653Y839038*
X710777Y839431*
X710935Y839812*
X711125Y840177*
X711347Y840525*
X711597Y840852*
X711876Y841156*
X712180Y841434*
X712507Y841685*
X712854Y841906*
X713220Y842097*
X713601Y842254*
X713994Y842378*
X714396Y842468*
X714805Y842521*
X715217Y842539*
X719154*
X719565Y842521*
X719974Y842468*
X720376Y842378*
X720769Y842254*
X721150Y842097*
X721516Y841906*
X721863Y841685*
X722190Y841434*
X722494Y841156*
X722773Y840852*
X723024Y840525*
X723245Y840177*
X723435Y839812*
X723593Y839431*
X723717Y839038*
X723806Y838635*
X723860Y838227*
X723878Y837815*
X723860Y837403*
X723806Y836995*
X723717Y836592*
X723593Y836199*
X723435Y835818*
X723245Y835453*
X723024Y835105*
X722773Y834778*
X722494Y834474*
X722190Y834196*
X721863Y833945*
X721516Y833724*
X721150Y833533*
X720769Y833375*
X720376Y833252*
X719974Y833162*
X719565Y833109*
X719154Y833091*
G37*
G36*
X701654D02*
G01X697717D01*
X697305Y833109*
X696896Y833162*
X696494Y833252*
X696101Y833375*
X695720Y833533*
X695354Y833723*
X695007Y833945*
X694680Y834196*
X694376Y834474*
X694097Y834778*
X693847Y835105*
X693625Y835453*
X693435Y835818*
X693277Y836199*
X693153Y836592*
X693064Y836995*
X693010Y837403*
X692992Y837815*
X693010Y838227*
X693064Y838635*
X693153Y839038*
X693277Y839431*
X693435Y839812*
X693625Y840177*
X693847Y840525*
X694097Y840852*
X694376Y841156*
X694680Y841434*
X695007Y841685*
X695354Y841906*
X695720Y842097*
X696101Y842254*
X696494Y842378*
X696896Y842468*
X697305Y842521*
X697717Y842539*
X701654*
X702065Y842521*
X702474Y842468*
X702876Y842378*
X703269Y842254*
X703650Y842097*
X704016Y841906*
X704363Y841685*
X704690Y841434*
X704994Y841156*
X705273Y840852*
X705524Y840525*
X705745Y840177*
X705935Y839812*
X706093Y839431*
X706217Y839038*
X706306Y838635*
X706360Y838227*
X706378Y837815*
X706360Y837403*
X706306Y836995*
X706217Y836592*
X706093Y836199*
X705935Y835818*
X705745Y835453*
X705524Y835105*
X705273Y834778*
X704994Y834474*
X704690Y834196*
X704363Y833945*
X704016Y833724*
X703650Y833533*
X703269Y833375*
X702876Y833252*
X702474Y833162*
X702065Y833109*
X701654Y833091*
G37*
G36*
X684154D02*
G01X680217D01*
X679805Y833109*
X679396Y833162*
X678994Y833252*
X678601Y833375*
X678220Y833533*
X677854Y833723*
X677507Y833945*
X677180Y834196*
X676876Y834474*
X676597Y834778*
X676347Y835105*
X676125Y835453*
X675935Y835818*
X675777Y836199*
X675653Y836592*
X675564Y836995*
X675510Y837403*
X675492Y837815*
X675510Y838227*
X675564Y838635*
X675653Y839038*
X675777Y839431*
X675935Y839812*
X676125Y840177*
X676347Y840525*
X676597Y840852*
X676876Y841156*
X677180Y841434*
X677507Y841685*
X677854Y841906*
X678220Y842097*
X678601Y842254*
X678994Y842378*
X679396Y842468*
X679805Y842521*
X680217Y842539*
X684154*
X684565Y842521*
X684974Y842468*
X685376Y842378*
X685769Y842254*
X686150Y842097*
X686516Y841906*
X686863Y841685*
X687190Y841434*
X687494Y841156*
X687773Y840852*
X688024Y840525*
X688245Y840177*
X688435Y839812*
X688593Y839431*
X688717Y839038*
X688806Y838635*
X688860Y838227*
X688878Y837815*
X688860Y837403*
X688806Y836995*
X688717Y836592*
X688593Y836199*
X688435Y835818*
X688245Y835453*
X688024Y835105*
X687773Y834778*
X687494Y834474*
X687190Y834196*
X686863Y833945*
X686516Y833724*
X686150Y833533*
X685769Y833375*
X685376Y833252*
X684974Y833162*
X684565Y833109*
X684154Y833091*
G37*
G36*
X666654D02*
G01X662717D01*
X662305Y833109*
X661896Y833162*
X661494Y833252*
X661101Y833375*
X660720Y833533*
X660354Y833723*
X660007Y833945*
X659680Y834196*
X659376Y834474*
X659097Y834778*
X658847Y835105*
X658625Y835453*
X658435Y835818*
X658277Y836199*
X658153Y836592*
X658064Y836995*
X658010Y837403*
X657992Y837815*
X658010Y838227*
X658064Y838635*
X658153Y839038*
X658277Y839431*
X658435Y839812*
X658625Y840177*
X658847Y840525*
X659097Y840852*
X659376Y841156*
X659680Y841434*
X660007Y841685*
X660354Y841906*
X660720Y842097*
X661101Y842254*
X661494Y842378*
X661896Y842468*
X662305Y842521*
X662717Y842539*
X666654*
X667065Y842521*
X667474Y842468*
X667876Y842378*
X668269Y842254*
X668650Y842097*
X669016Y841906*
X669363Y841685*
X669690Y841434*
X669994Y841156*
X670273Y840852*
X670524Y840525*
X670745Y840177*
X670935Y839812*
X671093Y839431*
X671217Y839038*
X671306Y838635*
X671360Y838227*
X671378Y837815*
X671360Y837403*
X671306Y836995*
X671217Y836592*
X671093Y836199*
X670935Y835818*
X670745Y835453*
X670524Y835105*
X670273Y834778*
X669994Y834474*
X669690Y834196*
X669363Y833945*
X669016Y833724*
X668650Y833533*
X668269Y833375*
X667876Y833252*
X667474Y833162*
X667065Y833109*
X666654Y833091*
G37*
G36*
X671713Y672343D02*
G01Y684154D01*
X683524Y684153*
Y672343*
X671713*
G37*
G36*
X600846Y601476D02*
G01X600847Y613287D01*
X612657*
Y601476*
X600846*
G37*
G36*
X434252Y785433D02*
G01X111417D01*
X110799Y785460*
X110185Y785541*
X109582Y785675*
X108992Y785861*
X108420Y786098*
X107871Y786384*
X107350Y786717*
X106859Y787094*
X106403Y787512*
X105985Y787968*
X105609Y788459*
X105276Y788981*
X104991Y789530*
X104754Y790101*
X104568Y790691*
X104435Y791295*
X104354Y791909*
X104331Y792304*
Y800392*
X104272Y801665*
X104102Y802928*
X103823Y804172*
X103437Y805386*
X102946Y806562*
X102354Y807691*
X101667Y808764*
X100888Y809773*
X100025Y810711*
X99083Y811569*
X98070Y812342*
X96993Y813024*
X95861Y813610*
X94682Y814095*
X93466Y814475*
X92221Y814747*
X90957Y814910*
X89952Y814961*
X81888*
X81268Y814989*
X80653Y815072*
X80047Y815207*
X79455Y815396*
X78882Y815634*
X78332Y815922*
X77809Y816257*
X77317Y816636*
X76861Y817057*
X76442Y817516*
X76066Y818009*
X75733Y818534*
X75448Y819085*
X75212Y819659*
X75026Y820252*
X74893Y820858*
X74814Y821474*
X74803Y821613*
Y977993*
X74871Y978610*
X74992Y979219*
X75165Y979815*
X75390Y980394*
X75665Y980951*
X75987Y981482*
X76354Y981982*
X76763Y982449*
X77211Y982879*
X77696Y983267*
X78212Y983612*
X78756Y983911*
X79324Y984161*
X79912Y984361*
X80515Y984509*
X81129Y984603*
X81748Y984644*
X81888Y984646*
X463566*
X463576*
X464196Y984635*
X464813Y984569*
X465422Y984451*
X466018Y984279*
X466597Y984056*
X467154Y983784*
X467685Y983464*
X468187Y983099*
X468655Y982692*
X469085Y982246*
X469475Y981763*
X469821Y981249*
X470122Y980706*
X470374Y980139*
X470575Y979553*
X470725Y978951*
X470821Y978338*
X470864Y977719*
X470866Y977561*
Y822263*
X470867Y822252*
X470857Y821633*
X470793Y821017*
X470676Y820410*
X470507Y819815*
X470286Y819237*
X470016Y818680*
X469698Y818149*
X469335Y817648*
X468930Y817180*
X468486Y816750*
X468005Y816359*
X467493Y816012*
X466952Y815711*
X466388Y815459*
X465803Y815256*
X465203Y815106*
X464592Y815008*
X463975Y814963*
X463780Y814961*
X455509*
X454274Y814907*
X453048Y814745*
X451841Y814478*
X450662Y814106*
X449520Y813633*
X448423Y813062*
X447380Y812398*
X446400Y811645*
X445488Y810810*
X444653Y809898*
X443900Y808917*
X443236Y807875*
X442665Y806778*
X442192Y805636*
X441820Y804457*
X441553Y803249*
X441391Y802024*
X441339Y800976*
Y792304*
X441293Y791688*
X441194Y791077*
X441042Y790478*
X440838Y789895*
X440584Y789331*
X440283Y788792*
X439935Y788281*
X439544Y787802*
X439113Y787359*
X438645Y786955*
X438143Y786594*
X437612Y786278*
X437055Y786009*
X436477Y785790*
X435882Y785622*
X435275Y785507*
X434660Y785445*
X434252Y785433*
G37*
G36*
X1134252Y81890D02*
G01X811417D01*
X811105Y81898*
X810592Y81948*
X810085Y82042*
X809589Y82180*
X809106Y82361*
X808640Y82584*
X808196Y82846*
X807777Y83145*
X807385Y83481*
X807024Y83849*
X806696Y84247*
X806404Y84672*
X806151Y85121*
X805937Y85590*
X805765Y86076*
X805637Y86576*
X805552Y87084*
X805512Y87598*
Y95669*
X805448Y97045*
X805265Y98411*
X804963Y99755*
X804546Y101067*
X804016Y102339*
X803376Y103559*
X802633Y104719*
X801792Y105809*
X800859Y106823*
X799841Y107751*
X798746Y108586*
X797582Y109324*
X796359Y109957*
X795085Y110481*
X793770Y110891*
X792424Y111186*
X791058Y111362*
X789961Y111417*
X781891*
X781811Y111418*
X781294Y111449*
X780782Y111524*
X780278Y111645*
X779787Y111808*
X779312Y112014*
X778856Y112260*
X778424Y112545*
X778018Y112867*
X777642Y113223*
X777298Y113610*
X776989Y114026*
X776718Y114467*
X776486Y114930*
X776296Y115411*
X776148Y115907*
X776044Y116415*
X775984Y116929*
Y273228*
X775990Y273307*
X776057Y273820*
X776167Y274326*
X776322Y274820*
X776519Y275299*
X776757Y275759*
X777034Y276197*
X777348Y276608*
X777697Y276991*
X778078Y277342*
X778488Y277658*
X778924Y277937*
X779383Y278178*
X779860Y278377*
X780354Y278534*
X780859Y278647*
X781372Y278716*
X781890Y278740*
X975591*
X976105Y278762*
X976616Y278829*
X977119Y278940*
X977610Y279095*
X978086Y279291*
X978543Y279529*
X978978Y279805*
X979387Y280119*
X979767Y280466*
X980115Y280846*
X980429Y281254*
X980706Y281688*
X980944Y282145*
X981142Y282621*
X981297Y283112*
X981409Y283615*
X981476Y284125*
X981496Y284449*
Y320374*
X981502Y320452*
X981568Y320966*
X981679Y321472*
X981834Y321966*
X982031Y322445*
X982269Y322905*
X982546Y323342*
X982860Y323754*
X983209Y324137*
X983590Y324487*
X984000Y324804*
X984436Y325083*
X984894Y325323*
X985372Y325523*
X985866Y325680*
X986371Y325793*
X986884Y325862*
X987402Y325886*
X1134311*
X1134826Y325863*
X1135336Y325796*
X1135839Y325685*
X1136331Y325530*
X1136807Y325333*
X1137264Y325095*
X1137698Y324818*
X1138107Y324504*
X1138487Y324156*
X1138835Y323776*
X1139149Y323368*
X1139425Y322933*
X1139663Y322476*
X1139860Y322000*
X1140015Y321509*
X1140127Y321006*
X1140194Y320495*
X1140217Y319980*
Y312106*
X1140276Y310734*
X1140456Y309372*
X1140753Y308030*
X1141166Y306720*
X1141692Y305451*
X1142326Y304232*
X1143065Y303074*
X1143901Y301984*
X1144829Y300971*
X1145842Y300043*
X1146932Y299206*
X1148091Y298468*
X1149309Y297834*
X1150579Y297308*
X1151889Y296895*
X1153230Y296598*
X1154592Y296418*
X1155965Y296358*
X1163839*
X1164348Y296336*
X1164854Y296269*
X1165352Y296159*
X1165838Y296006*
X1166309Y295810*
X1166762Y295575*
X1167192Y295301*
X1167597Y294990*
X1167973Y294646*
X1168317Y294270*
X1168628Y293865*
X1168902Y293435*
X1169137Y292983*
X1169332Y292511*
X1169486Y292025*
X1169596Y291527*
X1169663Y291021*
X1169685Y290512*
Y117520*
X1169688Y117332*
X1169666Y116817*
X1169599Y116305*
X1169487Y115802*
X1169333Y115310*
X1169136Y114833*
X1168898Y114376*
X1168621Y113941*
X1168307Y113531*
X1167959Y113151*
X1167579Y112802*
X1167170Y112488*
X1166735Y112211*
X1166278Y111972*
X1165801Y111775*
X1165309Y111620*
X1164806Y111508*
X1164295Y111440*
X1163780Y111417*
X1155512*
X1154174Y111359*
X1152846Y111185*
X1151538Y110895*
X1150261Y110492*
X1149023Y109980*
X1147835Y109362*
X1146705Y108642*
X1145643Y107827*
X1144655Y106922*
X1143750Y105935*
X1142934Y104873*
X1142214Y103743*
X1141596Y102555*
X1141083Y101318*
X1140680Y100040*
X1140390Y98733*
X1140215Y97405*
X1140157Y96260*
Y87598*
X1140138Y87275*
X1140070Y86764*
X1139958Y86261*
X1139803Y85770*
X1139606Y85295*
X1139367Y84838*
X1139090Y84404*
X1138776Y83995*
X1138428Y83616*
X1138048Y83268*
X1137639Y82955*
X1137205Y82679*
X1136748Y82441*
X1136272Y82244*
X1135780Y82090*
X1135277Y81979*
X1134767Y81912*
X1134252Y81890*
G37*
G36*
X434252Y314961D02*
G01X111417D01*
X111105Y314969*
X110592Y315019*
X110085Y315113*
X109589Y315251*
X109106Y315432*
X108640Y315654*
X108196Y315917*
X107777Y316216*
X107385Y316551*
X107024Y316919*
X106696Y317318*
X106404Y317743*
X106151Y318192*
X105937Y318661*
X105765Y319147*
X105637Y319647*
X105552Y320155*
X105512Y320669*
Y328740*
X105448Y330116*
X105265Y331481*
X104963Y332826*
X104546Y334138*
X104016Y335409*
X103376Y336630*
X102633Y337790*
X101792Y338880*
X100859Y339894*
X99841Y340822*
X98746Y341657*
X97582Y342395*
X96359Y343028*
X95085Y343551*
X93770Y343962*
X92424Y344257*
X91058Y344433*
X89961Y344488*
X81891*
X81811Y344489*
X81294Y344520*
X80782Y344595*
X80278Y344715*
X79787Y344879*
X79312Y345085*
X78856Y345331*
X78424Y345616*
X78018Y345938*
X77642Y346293*
X77298Y346681*
X76989Y347096*
X76718Y347538*
X76486Y348001*
X76296Y348482*
X76148Y348978*
X76044Y349486*
X75984Y350000*
Y506299*
X75990Y506377*
X76057Y506891*
X76167Y507397*
X76322Y507891*
X76519Y508370*
X76757Y508830*
X77034Y509267*
X77348Y509679*
X77697Y510062*
X78078Y510413*
X78488Y510729*
X78924Y511008*
X79383Y511249*
X79860Y511448*
X80354Y511605*
X80859Y511718*
X81372Y511787*
X81890Y511811*
X275591*
X276105Y511833*
X276616Y511900*
X277119Y512011*
X277610Y512166*
X278086Y512362*
X278543Y512600*
X278978Y512876*
X279387Y513189*
X279767Y513537*
X280115Y513917*
X280429Y514325*
X280706Y514759*
X280944Y515216*
X281142Y515692*
X281297Y516183*
X281409Y516686*
X281476Y517196*
X281496Y517520*
Y553445*
X281502Y553523*
X281568Y554037*
X281679Y554543*
X281834Y555037*
X282031Y555516*
X282269Y555976*
X282546Y556413*
X282860Y556825*
X283209Y557207*
X283590Y557558*
X284000Y557875*
X284436Y558154*
X284894Y558394*
X285372Y558594*
X285866Y558750*
X286371Y558864*
X286884Y558933*
X287402Y558957*
X434311*
X434826Y558934*
X435336Y558867*
X435839Y558755*
X436331Y558601*
X436807Y558403*
X437264Y558166*
X437698Y557889*
X438107Y557575*
X438487Y557227*
X438835Y556847*
X439149Y556438*
X439425Y556004*
X439663Y555547*
X439860Y555071*
X440015Y554580*
X440127Y554077*
X440194Y553566*
X440217Y553051*
Y545177*
X440276Y543805*
X440456Y542443*
X440753Y541101*
X441166Y539791*
X441692Y538522*
X442326Y537303*
X443065Y536144*
X443901Y535054*
X444829Y534042*
X445842Y533113*
X446932Y532277*
X448091Y531539*
X449309Y530905*
X450579Y530379*
X451889Y529966*
X453230Y529668*
X454592Y529489*
X455965Y529429*
X463839*
X464348Y529407*
X464854Y529340*
X465352Y529230*
X465838Y529077*
X466309Y528881*
X466762Y528646*
X467192Y528372*
X467597Y528061*
X467973Y527717*
X468317Y527341*
X468628Y526936*
X468902Y526506*
X469137Y526053*
X469332Y525582*
X469486Y525096*
X469596Y524598*
X469663Y524092*
X469685Y523583*
Y350591*
X469688Y350403*
X469666Y349888*
X469599Y349376*
X469487Y348873*
X469333Y348381*
X469136Y347904*
X468898Y347447*
X468621Y347012*
X468307Y346602*
X467959Y346222*
X467579Y345873*
X467170Y345559*
X466735Y345282*
X466278Y345043*
X465801Y344846*
X465309Y344690*
X464806Y344579*
X464295Y344511*
X463780Y344488*
X455512*
X454174Y344430*
X452846Y344255*
X451538Y343966*
X450261Y343563*
X449023Y343051*
X447835Y342433*
X446705Y341713*
X445643Y340898*
X444655Y339993*
X443750Y339006*
X442934Y337943*
X442214Y336814*
X441596Y335626*
X441083Y334389*
X440680Y333111*
X440390Y331804*
X440215Y330476*
X440157Y329331*
Y320669*
X440138Y320346*
X440070Y319835*
X439958Y319332*
X439803Y318841*
X439606Y318365*
X439367Y317909*
X439090Y317475*
X438776Y317066*
X438428Y316687*
X438048Y316339*
X437639Y316026*
X437205Y315749*
X436748Y315512*
X436272Y315315*
X435780Y315161*
X435277Y315050*
X434767Y314983*
X434252Y314961*
G37*
G36*
X719154Y833091D02*
G01X715217D01*
X714805Y833109*
X714396Y833162*
X713994Y833252*
X713601Y833375*
X713220Y833533*
X712854Y833723*
X712507Y833945*
X712180Y834196*
X711876Y834474*
X711597Y834778*
X711347Y835105*
X711125Y835453*
X710935Y835818*
X710777Y836199*
X710653Y836592*
X710564Y836995*
X710510Y837403*
X710492Y837815*
X710510Y838227*
X710564Y838635*
X710653Y839038*
X710777Y839431*
X710935Y839812*
X711125Y840177*
X711347Y840525*
X711597Y840852*
X711876Y841156*
X712180Y841434*
X712507Y841685*
X712854Y841906*
X713220Y842097*
X713601Y842254*
X713994Y842378*
X714396Y842468*
X714805Y842521*
X715217Y842539*
X719154*
X719565Y842521*
X719974Y842468*
X720376Y842378*
X720769Y842254*
X721150Y842097*
X721516Y841906*
X721863Y841685*
X722190Y841434*
X722494Y841156*
X722773Y840852*
X723024Y840525*
X723245Y840177*
X723435Y839812*
X723593Y839431*
X723717Y839038*
X723806Y838635*
X723860Y838227*
X723878Y837815*
X723860Y837403*
X723806Y836995*
X723717Y836592*
X723593Y836199*
X723435Y835818*
X723245Y835453*
X723024Y835105*
X722773Y834778*
X722494Y834474*
X722190Y834196*
X721863Y833945*
X721516Y833724*
X721150Y833533*
X720769Y833375*
X720376Y833252*
X719974Y833162*
X719565Y833109*
X719154Y833091*
G37*
G36*
X701654D02*
G01X697717D01*
X697305Y833109*
X696896Y833162*
X696494Y833252*
X696101Y833375*
X695720Y833533*
X695354Y833723*
X695007Y833945*
X694680Y834196*
X694376Y834474*
X694097Y834778*
X693847Y835105*
X693625Y835453*
X693435Y835818*
X693277Y836199*
X693153Y836592*
X693064Y836995*
X693010Y837403*
X692992Y837815*
X693010Y838227*
X693064Y838635*
X693153Y839038*
X693277Y839431*
X693435Y839812*
X693625Y840177*
X693847Y840525*
X694097Y840852*
X694376Y841156*
X694680Y841434*
X695007Y841685*
X695354Y841906*
X695720Y842097*
X696101Y842254*
X696494Y842378*
X696896Y842468*
X697305Y842521*
X697717Y842539*
X701654*
X702065Y842521*
X702474Y842468*
X702876Y842378*
X703269Y842254*
X703650Y842097*
X704016Y841906*
X704363Y841685*
X704690Y841434*
X704994Y841156*
X705273Y840852*
X705524Y840525*
X705745Y840177*
X705935Y839812*
X706093Y839431*
X706217Y839038*
X706306Y838635*
X706360Y838227*
X706378Y837815*
X706360Y837403*
X706306Y836995*
X706217Y836592*
X706093Y836199*
X705935Y835818*
X705745Y835453*
X705524Y835105*
X705273Y834778*
X704994Y834474*
X704690Y834196*
X704363Y833945*
X704016Y833724*
X703650Y833533*
X703269Y833375*
X702876Y833252*
X702474Y833162*
X702065Y833109*
X701654Y833091*
G37*
G36*
X684154D02*
G01X680217D01*
X679805Y833109*
X679396Y833162*
X678994Y833252*
X678601Y833375*
X678220Y833533*
X677854Y833723*
X677507Y833945*
X677180Y834196*
X676876Y834474*
X676597Y834778*
X676347Y835105*
X676125Y835453*
X675935Y835818*
X675777Y836199*
X675653Y836592*
X675564Y836995*
X675510Y837403*
X675492Y837815*
X675510Y838227*
X675564Y838635*
X675653Y839038*
X675777Y839431*
X675935Y839812*
X676125Y840177*
X676347Y840525*
X676597Y840852*
X676876Y841156*
X677180Y841434*
X677507Y841685*
X677854Y841906*
X678220Y842097*
X678601Y842254*
X678994Y842378*
X679396Y842468*
X679805Y842521*
X680217Y842539*
X684154*
X684565Y842521*
X684974Y842468*
X685376Y842378*
X685769Y842254*
X686150Y842097*
X686516Y841906*
X686863Y841685*
X687190Y841434*
X687494Y841156*
X687773Y840852*
X688024Y840525*
X688245Y840177*
X688435Y839812*
X688593Y839431*
X688717Y839038*
X688806Y838635*
X688860Y838227*
X688878Y837815*
X688860Y837403*
X688806Y836995*
X688717Y836592*
X688593Y836199*
X688435Y835818*
X688245Y835453*
X688024Y835105*
X687773Y834778*
X687494Y834474*
X687190Y834196*
X686863Y833945*
X686516Y833724*
X686150Y833533*
X685769Y833375*
X685376Y833252*
X684974Y833162*
X684565Y833109*
X684154Y833091*
G37*
G36*
X666654D02*
G01X662717D01*
X662305Y833109*
X661896Y833162*
X661494Y833252*
X661101Y833375*
X660720Y833533*
X660354Y833723*
X660007Y833945*
X659680Y834196*
X659376Y834474*
X659097Y834778*
X658847Y835105*
X658625Y835453*
X658435Y835818*
X658277Y836199*
X658153Y836592*
X658064Y836995*
X658010Y837403*
X657992Y837815*
X658010Y838227*
X658064Y838635*
X658153Y839038*
X658277Y839431*
X658435Y839812*
X658625Y840177*
X658847Y840525*
X659097Y840852*
X659376Y841156*
X659680Y841434*
X660007Y841685*
X660354Y841906*
X660720Y842097*
X661101Y842254*
X661494Y842378*
X661896Y842468*
X662305Y842521*
X662717Y842539*
X666654*
X667065Y842521*
X667474Y842468*
X667876Y842378*
X668269Y842254*
X668650Y842097*
X669016Y841906*
X669363Y841685*
X669690Y841434*
X669994Y841156*
X670273Y840852*
X670524Y840525*
X670745Y840177*
X670935Y839812*
X671093Y839431*
X671217Y839038*
X671306Y838635*
X671360Y838227*
X671378Y837815*
X671360Y837403*
X671306Y836995*
X671217Y836592*
X671093Y836199*
X670935Y835818*
X670745Y835453*
X670524Y835105*
X670273Y834778*
X669994Y834474*
X669690Y834196*
X669363Y833945*
X669016Y833724*
X668650Y833533*
X668269Y833375*
X667876Y833252*
X667474Y833162*
X667065Y833109*
X666654Y833091*
G37*
G36*
X721898Y833602D02*
G01X712473D01*
Y842028*
X721898Y842027*
Y833602*
G37*
G36*
X704398D02*
G01X694973D01*
Y842028*
X704398Y842027*
Y833602*
G37*
G36*
X686898D02*
G01X677473D01*
Y842028*
X686898Y842027*
Y833602*
G37*
G36*
X669398D02*
G01X659973D01*
Y842028*
X669398Y842027*
Y833602*
G37*
G54D95*
X19685Y19685D03*
Y519685D03*
Y1011811D03*
X113780Y701969D03*
X276181Y263780D03*
Y701969D03*
X438583D03*
X519685Y114173D03*
X566929Y908661D03*
X708661Y381890D03*
Y780709D03*
X787402Y19685D03*
X971654Y36614D03*
X1102362Y381890D03*
Y908661D03*
X1290551Y203937D03*
X1297244Y507087D03*
Y875591D03*
X1397638Y701969D03*
X1515748Y19685D03*
Y519685D03*
Y980315D03*
G54D103*
X138189Y11811D03*
Y137795D03*
X119291Y545276D03*
Y1016929D03*
X712185Y582815D03*
X715185Y870472D03*
Y895472D03*
Y920472D03*
Y945472D03*
X819291Y312205D03*
X838228Y408976D03*
Y534961D03*
Y660945D03*
Y786929D03*
Y912913D03*
X1212028Y652815D03*
G54D94*
X19685Y59055D03*
X1515748D03*
Y940945D03*
G54D104*
X27185Y389567D03*
Y457441D03*
X514685Y346457D03*
Y429134D03*
Y468504D03*
Y507874D03*
Y642913D03*
Y682283D03*
Y721654D03*
Y761024D03*
X605236Y94488D03*
Y133858D03*
X670965Y895630D03*
Y961004D03*
X1214685Y16929D03*
Y56299D03*
X1233189Y875591D03*
X1351299D03*
X1477283Y16929D03*
Y83858D03*
Y150787D03*
Y217717D03*
Y284646D03*
Y438976D03*
Y539764D03*
Y640551D03*
Y741339D03*
Y842126D03*
Y942913D03*
G54D99*
X138189Y71811D03*
Y197795D03*
X129291Y545276D03*
X139291D03*
X129291Y1016929D03*
X139291D03*
X148189Y11811D03*
X158189D03*
Y71811D03*
X148189D03*
Y137795D03*
X158189D03*
Y197795D03*
X148189D03*
X149291Y545276D03*
X159291D03*
X149291Y1016929D03*
X159291D03*
X168189Y11811D03*
X178189D03*
Y71811D03*
X168189D03*
Y137795D03*
X178189D03*
Y197795D03*
X168189D03*
X169291Y545276D03*
X179291D03*
X184646Y652756D03*
X177646Y677756D03*
X184646Y751181D03*
X174646Y748681D03*
X182146Y741181D03*
X177646Y776181D03*
X169291Y1016929D03*
X179291D03*
X188189Y11811D03*
X208189D03*
X198189D03*
X208189Y71811D03*
X198189D03*
X188189D03*
Y137795D03*
X208189D03*
X198189D03*
X208189Y197795D03*
X198189D03*
X188189D03*
X209291Y545276D03*
X199291D03*
X189291D03*
X191646Y627756D03*
Y726181D03*
X194646Y753681D03*
X187146Y761181D03*
X209291Y1016929D03*
X199291D03*
X189291D03*
X228189Y11811D03*
X218189D03*
X228189Y71811D03*
X218189D03*
X228189Y137795D03*
X218189D03*
X228189Y197795D03*
X218189D03*
X219291Y545276D03*
X229291D03*
X219291Y1016929D03*
X229291D03*
X238189Y11811D03*
X248189D03*
Y71811D03*
X238189D03*
Y137795D03*
X248189D03*
Y197795D03*
X238189D03*
X249291Y545276D03*
X239291D03*
X249291Y1016929D03*
X239291D03*
X278189Y11811D03*
X268189D03*
X258189D03*
X278189Y71811D03*
X268189D03*
X258189D03*
X278189Y137795D03*
X268189D03*
X258189D03*
X278189Y197795D03*
X268189D03*
X258189D03*
X269291Y545276D03*
X259291D03*
X269291Y1016929D03*
X259291D03*
X288189Y11811D03*
X298189D03*
Y71811D03*
X288189D03*
Y137795D03*
X298189D03*
Y197795D03*
X288189D03*
X308189Y11811D03*
Y71811D03*
Y137795D03*
Y197795D03*
X367717Y652756D03*
X360717Y677756D03*
X367717Y751181D03*
X360717Y776181D03*
X374717Y627756D03*
Y726181D03*
X526685Y26181D03*
X519685Y51181D03*
X512685Y76181D03*
X526685Y152165D03*
X519685Y177165D03*
X512685Y202165D03*
X526685Y836417D03*
X519685Y861417D03*
X512685Y886417D03*
X526685Y930906D03*
X519685Y955906D03*
X512685Y980906D03*
X572185Y582815D03*
Y592815D03*
X562185D03*
Y602815D03*
X572185D03*
Y612815D03*
X562185D03*
Y622815D03*
X572185D03*
Y632815D03*
X562185D03*
Y642815D03*
X572185D03*
X562185Y652815D03*
X572185D03*
Y662815D03*
X562185D03*
Y672815D03*
X572185D03*
Y682815D03*
X562185D03*
Y692815D03*
X572185D03*
X562185Y702815D03*
X572185D03*
X582185Y562815D03*
X592185Y572815D03*
Y562815D03*
X602185D03*
Y572815D03*
X582185Y712815D03*
X592185D03*
X602185D03*
X582185Y722815D03*
X592185D03*
X602185D03*
X612185Y562815D03*
Y572815D03*
X622185D03*
Y562815D03*
X612185Y712815D03*
X622185D03*
X612185Y722815D03*
X622185D03*
X632185Y562815D03*
Y572815D03*
X642185D03*
Y562815D03*
X632185Y712815D03*
X642185D03*
X632185Y722815D03*
X642185D03*
X652185Y562815D03*
Y572815D03*
X662185D03*
Y562815D03*
X672185D03*
Y572815D03*
X652185Y712815D03*
X662185D03*
X672185D03*
X652185Y722815D03*
X662185D03*
X672185D03*
X682185Y572815D03*
Y562815D03*
X692185D03*
Y572815D03*
X682185Y712815D03*
X692185D03*
X682185Y722815D03*
X692185D03*
X702185Y562815D03*
Y572815D03*
X712185Y592815D03*
Y612815D03*
Y602815D03*
Y642815D03*
Y632815D03*
Y622815D03*
Y662815D03*
Y652815D03*
Y682815D03*
Y672815D03*
Y702815D03*
Y692815D03*
X702185Y722815D03*
X715185Y860472D03*
Y885472D03*
Y910472D03*
Y935472D03*
X722185Y582815D03*
Y592815D03*
Y612815D03*
Y602815D03*
Y642815D03*
Y632815D03*
Y622815D03*
Y662815D03*
Y652815D03*
Y682815D03*
Y672815D03*
Y692815D03*
X829291Y312205D03*
X839291D03*
X849291D03*
X848228Y408976D03*
X858228D03*
Y468976D03*
X848228D03*
X838228D03*
X848228Y534961D03*
X858228D03*
Y594961D03*
X848228D03*
X838228D03*
X848228Y660945D03*
X858228D03*
Y720945D03*
X848228D03*
X838228D03*
X848228Y786929D03*
X858228D03*
Y846929D03*
X848228D03*
X838228D03*
X848228Y912913D03*
X858228D03*
Y972913D03*
X848228D03*
X838228D03*
X869291Y312205D03*
X879291D03*
X859291D03*
X868228Y408976D03*
X878228D03*
Y468976D03*
X868228D03*
Y534961D03*
X878228D03*
Y594961D03*
X868228D03*
Y660945D03*
X878228D03*
Y720945D03*
X868228D03*
Y786929D03*
X878228D03*
Y846929D03*
X868228D03*
Y912913D03*
X878228D03*
Y972913D03*
X868228D03*
X903850Y11614D03*
X896850Y36614D03*
X889850Y61614D03*
X899291Y312205D03*
X889291D03*
X888228Y408976D03*
X898228D03*
Y468976D03*
X888228D03*
Y534961D03*
X898228D03*
Y594961D03*
X888228D03*
Y660945D03*
X898228D03*
Y720945D03*
X888228D03*
Y786929D03*
X898228D03*
Y846929D03*
X888228D03*
Y912913D03*
X898228D03*
Y972913D03*
X888228D03*
X919291Y312205D03*
X909291D03*
X928228Y408976D03*
X918228D03*
X908228D03*
X928228Y468976D03*
X918228D03*
X908228D03*
X928228Y534961D03*
X918228D03*
X908228D03*
X928228Y594961D03*
X918228D03*
X908228D03*
X928228Y660945D03*
X918228D03*
X908228D03*
X928228Y720945D03*
X918228D03*
X908228D03*
X928228Y786929D03*
X918228D03*
X908228D03*
X928228Y846929D03*
X918228D03*
X908228D03*
X928228Y912913D03*
X918228D03*
X908228D03*
X928228Y972913D03*
X918228D03*
X908228D03*
X949291Y312205D03*
X939291D03*
X929291D03*
X938228Y408976D03*
X948228D03*
Y468976D03*
X938228D03*
Y534961D03*
X948228D03*
Y594961D03*
X938228D03*
Y660945D03*
X948228D03*
Y720945D03*
X938228D03*
Y786929D03*
X948228D03*
Y846929D03*
X938228D03*
Y912913D03*
X948228D03*
Y972913D03*
X938228D03*
X969291Y312205D03*
X959291D03*
X968228Y408976D03*
X958228D03*
X968228Y468976D03*
X958228D03*
X968228Y534961D03*
X958228D03*
X968228Y594961D03*
X958228D03*
X968228Y660945D03*
X958228D03*
X968228Y720945D03*
X958228D03*
X968228Y786929D03*
X958228D03*
X968228Y846929D03*
X958228D03*
X968228Y912913D03*
X958228D03*
X968228Y972913D03*
X958228D03*
X988228Y408976D03*
X998228D03*
X978228D03*
X998228Y468976D03*
X988228D03*
X978228D03*
X988228Y534961D03*
X998228D03*
X978228D03*
X998228Y594961D03*
X988228D03*
X978228D03*
X988228Y660945D03*
X998228D03*
X978228D03*
X998228Y720945D03*
X988228D03*
X978228D03*
X988228Y786929D03*
X998228D03*
X978228D03*
X998228Y846929D03*
X988228D03*
X978228D03*
X988228Y912913D03*
X998228D03*
X978228D03*
X998228Y972913D03*
X988228D03*
X978228D03*
X1008228Y408976D03*
Y468976D03*
Y534961D03*
Y594961D03*
Y660945D03*
Y720945D03*
Y786929D03*
Y846929D03*
Y912913D03*
Y972913D03*
X1039457Y61614D03*
X1053457Y11614D03*
X1046457Y36614D03*
X1226685Y131693D03*
X1219685Y156693D03*
X1212685Y181693D03*
X1226685Y226181D03*
X1219685Y251181D03*
X1212685Y276181D03*
X1222028Y652815D03*
X1245189Y783661D03*
X1238189Y808661D03*
X1231189Y833661D03*
X1245189Y917520D03*
X1238189Y942520D03*
X1231189Y967520D03*
X1297244Y440157D03*
X1290244Y465157D03*
X1297244Y574016D03*
X1290244Y599016D03*
X1304244Y415157D03*
Y549016D03*
X1363299Y783661D03*
X1356299Y808661D03*
X1349299Y833661D03*
X1363299Y917520D03*
X1356299Y942520D03*
X1349299Y967520D03*
G54D82*
X620531Y612303D03*
X622500D03*
X618563D03*
Y673327D03*
X620531D03*
X622500D03*
X646122Y612303D03*
X638248D03*
X640217D03*
X642185D03*
X644154D03*
X632343D03*
X634311D03*
X636280D03*
X628406D03*
X630374D03*
X626437D03*
X624469D03*
Y673327D03*
X626437D03*
X628406D03*
X630374D03*
X632343D03*
X634311D03*
X636280D03*
X638248D03*
X640217D03*
X642185D03*
X644154D03*
X646122D03*
X659902Y612303D03*
X665807D03*
X663839D03*
X661870D03*
X657933D03*
X653996D03*
X652028D03*
X655965D03*
X648091D03*
X650059D03*
X648091Y673327D03*
X650059D03*
X665807D03*
X657933D03*
X659902D03*
X661870D03*
X663839D03*
X653996D03*
X655965D03*
X652028D03*
G54D45*
X43485Y405315D03*
X35885D03*
X43485Y412815D03*
X35885D03*
X43485Y420315D03*
X35885D03*
X43485Y465315D03*
X35885D03*
X43485Y472815D03*
X35885D03*
X38385Y962815D03*
Y982815D03*
Y972815D03*
X45985Y962815D03*
Y982815D03*
Y972815D03*
X110885Y7815D03*
Y17815D03*
X103485Y12815D03*
X95885D03*
X110885Y37815D03*
X103485Y32815D03*
X95885D03*
X110885Y27815D03*
X103485Y22815D03*
X95885D03*
Y62815D03*
X103485D03*
X110885Y47815D03*
X103485Y52815D03*
X95885D03*
X110885Y57815D03*
X103485Y42815D03*
X95885D03*
X103485Y82815D03*
X95885D03*
X103485Y102815D03*
X95885D03*
X110885Y97815D03*
X103485Y92815D03*
X95885D03*
X110885Y87815D03*
Y132815D03*
Y152815D03*
X103485Y147815D03*
X95885D03*
X110885Y142815D03*
X103485Y137815D03*
X95885D03*
X110885Y172815D03*
X103485Y177815D03*
X95885D03*
X103485Y167815D03*
X95885D03*
X110885Y162815D03*
X103485Y157815D03*
X95885D03*
Y187815D03*
X103485D03*
X110885Y182815D03*
X103485Y207815D03*
X95885D03*
X110885Y222815D03*
X103485Y217815D03*
X95885D03*
X110885Y212815D03*
X103485Y227815D03*
X95885D03*
X118485Y7815D03*
Y17815D03*
Y37815D03*
Y27815D03*
Y47815D03*
Y57815D03*
Y97815D03*
Y87815D03*
Y132815D03*
Y152815D03*
Y142815D03*
Y172815D03*
Y162815D03*
Y182815D03*
Y222815D03*
Y212815D03*
X120885Y562815D03*
X128485D03*
X120885Y572815D03*
X128485D03*
X150885Y562815D03*
X158485D03*
X223385Y642815D03*
Y662815D03*
Y652815D03*
Y735315D03*
Y755315D03*
Y745315D03*
X230985Y642815D03*
Y662815D03*
Y652815D03*
Y735315D03*
Y755315D03*
Y745315D03*
X338385Y15315D03*
X345985D03*
X338385Y25315D03*
X345985D03*
X338385Y35315D03*
X345985D03*
Y55315D03*
X338385D03*
Y45315D03*
X345985D03*
X338385Y75315D03*
X345985D03*
X338385Y65315D03*
X345985D03*
X338385Y85315D03*
X345985D03*
X338385Y140315D03*
X345985D03*
X338385Y150315D03*
X345985D03*
Y180315D03*
X338385D03*
Y170315D03*
X345985D03*
X338385Y160315D03*
X345985D03*
X338385Y200315D03*
X345985D03*
X338385Y190315D03*
X345985D03*
X340885Y210315D03*
X360985Y40315D03*
X353385D03*
Y20315D03*
X360985D03*
X353385Y30315D03*
X360985D03*
X353385Y60315D03*
X360985D03*
X353385Y50315D03*
X360985D03*
X353385Y80315D03*
X360985D03*
X353385Y70315D03*
X360985D03*
X353385Y90315D03*
X360985D03*
X353385Y145315D03*
X360985D03*
X353385Y155315D03*
X360985D03*
Y165315D03*
X353385D03*
Y175315D03*
X360985D03*
X353385Y195315D03*
X360985D03*
X353385Y185315D03*
X360985D03*
X353385Y205315D03*
X360985D03*
X348485Y210315D03*
X353385Y215315D03*
X360985D03*
X480885Y610315D03*
X488485D03*
X503385Y820315D03*
X523485Y660315D03*
X515885D03*
X523485Y700315D03*
X515885D03*
X523485Y740315D03*
X515885D03*
X523485Y780315D03*
X515885D03*
Y810315D03*
X523485D03*
X510985Y820315D03*
X523485D03*
X515885D03*
X536200Y347500D03*
X543800D03*
X536200Y427500D03*
X543800D03*
X536200Y467500D03*
X543800D03*
X536200Y507500D03*
X543800D03*
X545985Y595315D03*
X538385D03*
X545985Y602815D03*
X538385D03*
X545985Y617815D03*
X538385D03*
Y632815D03*
X545985D03*
X538385Y642815D03*
X545985D03*
X538385Y652815D03*
X545985D03*
Y665315D03*
X538385D03*
X545985Y672815D03*
X538385D03*
Y687815D03*
X545985D03*
X548385Y760315D03*
X565985Y40315D03*
X558385D03*
Y60315D03*
X565985D03*
Y50315D03*
X558385D03*
X565985Y167815D03*
X558385D03*
X565985Y177815D03*
X558385D03*
Y187815D03*
X565985D03*
X573385Y447815D03*
X555985Y760315D03*
X573385Y822815D03*
X558385Y967815D03*
X565985D03*
Y947815D03*
X558385D03*
X565985Y957815D03*
X558385D03*
X580985Y447815D03*
X585885Y822815D03*
X593485D03*
X580985D03*
X613485Y75315D03*
X605885D03*
X613485Y115315D03*
X605885D03*
X623385Y457815D03*
Y742815D03*
X606200Y780000D03*
X613800D03*
X606200Y762500D03*
X613800D03*
X606200Y797500D03*
X613800D03*
X606200Y815000D03*
X613800D03*
X630985Y457815D03*
X630885Y517815D03*
X638485D03*
X630885Y507815D03*
X638485D03*
X630885Y527815D03*
X638485D03*
X630985Y742815D03*
X713385Y532815D03*
X695885Y877815D03*
X703485D03*
X695885Y902815D03*
X703485D03*
X695885Y927815D03*
X703485D03*
X695885Y952815D03*
X703485D03*
X720985Y532815D03*
X740985Y542815D03*
X733385D03*
X740985Y532815D03*
X733385D03*
X730985Y870315D03*
X723385D03*
X730985Y895315D03*
X723385D03*
X730985Y920315D03*
X723385D03*
X730985Y945315D03*
X723385D03*
X785885Y785315D03*
X788385Y335315D03*
X795985D03*
X788385Y350315D03*
X795985D03*
X798385Y392815D03*
X805985D03*
Y402815D03*
X798385D03*
X805985Y432815D03*
X798385D03*
X805985Y422815D03*
X798385D03*
X805985Y412815D03*
X798385D03*
X805985Y442815D03*
X798385D03*
Y467815D03*
X805985D03*
Y477815D03*
X798385D03*
X805985Y487815D03*
X798385D03*
Y520315D03*
X805985D03*
Y550315D03*
X798385D03*
X805985Y540315D03*
X798385D03*
X805985Y530315D03*
X798385D03*
X805985Y570315D03*
X798385D03*
X805985Y560315D03*
X798385D03*
X805985Y592815D03*
X798385D03*
X805985Y612815D03*
X798385D03*
X805985Y602815D03*
X798385D03*
Y650315D03*
X805985D03*
Y660315D03*
X798385D03*
X805985Y690315D03*
X798385D03*
X805985Y680315D03*
X798385D03*
X805985Y670315D03*
X798385D03*
X805985Y700315D03*
X798385D03*
X805985Y732815D03*
X798385D03*
X805985Y722815D03*
X798385D03*
X805985Y742815D03*
X798385D03*
Y780315D03*
X805985D03*
Y800315D03*
X798385D03*
X805985Y790315D03*
X798385D03*
X793485Y785315D03*
X805985Y820315D03*
X798385D03*
X805985Y810315D03*
X798385D03*
X805985Y830315D03*
X798385D03*
X805985Y865315D03*
X798385D03*
X805985Y855315D03*
X798385D03*
X805985Y915315D03*
X798385D03*
Y905315D03*
X805985D03*
Y935315D03*
X798385D03*
X805985Y925315D03*
X798385D03*
Y945315D03*
X805985D03*
Y987815D03*
X798385D03*
X805985Y977815D03*
X798385D03*
X818485Y407815D03*
X810885D03*
X818485Y397815D03*
X810885D03*
X818485Y427815D03*
X810885D03*
X818485Y417815D03*
X810885D03*
Y447815D03*
X818485D03*
Y437815D03*
X810885D03*
X818485Y472815D03*
X810885D03*
X818485Y482815D03*
X810885D03*
X818485Y525315D03*
X810885D03*
X818485Y545315D03*
X810885D03*
X818485Y535315D03*
X810885D03*
X818485Y555315D03*
X810885D03*
X818485Y565315D03*
X810885D03*
Y575315D03*
X818485D03*
Y597815D03*
X810885D03*
X818485Y607815D03*
X810885D03*
X818485Y665315D03*
X810885D03*
X818485Y655315D03*
X810885D03*
X818485Y685315D03*
X810885D03*
X818485Y675315D03*
X810885D03*
X818485Y695315D03*
X810885D03*
Y705315D03*
X818485D03*
Y727815D03*
X810885D03*
X818485Y737815D03*
X810885D03*
X818485Y805315D03*
X810885D03*
X818485Y795315D03*
X810885D03*
X818485Y825315D03*
X810885D03*
X818485Y815315D03*
X810885D03*
Y835315D03*
X818485D03*
Y850315D03*
X810885D03*
X818485Y870315D03*
X810885D03*
X818485Y860315D03*
X810885D03*
X818485Y920315D03*
X810885D03*
X818485Y910315D03*
X810885D03*
X818485Y930315D03*
X810885D03*
X818485Y940315D03*
X810885D03*
X818485Y957815D03*
X810885D03*
X818485Y950315D03*
X810885D03*
X818485Y965315D03*
X810885D03*
X818485Y982815D03*
X810885D03*
X818485Y972815D03*
X810885D03*
X850885Y30315D03*
Y40315D03*
Y50315D03*
X858485Y30315D03*
Y40315D03*
Y50315D03*
X1030885Y410315D03*
X1038485D03*
X1030885Y400315D03*
X1038485D03*
X1030885Y420315D03*
X1038485D03*
X1030885Y430315D03*
X1038485D03*
Y440315D03*
X1030885D03*
Y452815D03*
X1038485D03*
X1030885Y467815D03*
X1038485D03*
X1030885Y477815D03*
X1038485D03*
X1030885Y527815D03*
X1038485D03*
X1030885Y537815D03*
X1038485D03*
X1030885Y547815D03*
X1038485D03*
Y567815D03*
X1030885D03*
Y557815D03*
X1038485D03*
X1030885Y590315D03*
X1038485D03*
X1030885Y580315D03*
X1038485D03*
X1030885Y605315D03*
X1038485D03*
X1030885Y662815D03*
X1038485D03*
X1030885Y652815D03*
X1038485D03*
X1030885Y682815D03*
X1038485D03*
X1030885Y672815D03*
X1038485D03*
Y692815D03*
X1030885D03*
Y705315D03*
X1038485D03*
X1030885Y715315D03*
X1038485D03*
X1030885Y730315D03*
X1038485D03*
X1030885Y777815D03*
X1038485D03*
X1030885Y787815D03*
X1038485D03*
X1030885Y797815D03*
X1038485D03*
Y817815D03*
X1030885D03*
Y827815D03*
X1038485D03*
X1030885Y807815D03*
X1038485D03*
X1030885Y837815D03*
X1038485D03*
X1030885Y847815D03*
X1038485D03*
X1030885Y915315D03*
X1038485D03*
X1030885Y905315D03*
X1038485D03*
X1030885Y925315D03*
X1038485D03*
X1030885Y935315D03*
X1038485D03*
Y945315D03*
X1030885D03*
Y965315D03*
X1038485D03*
X1030885Y955315D03*
X1038485D03*
X1030885Y975315D03*
X1038485D03*
X1043385Y405315D03*
X1050985D03*
Y415315D03*
X1043385D03*
Y425315D03*
X1050985D03*
X1043385Y435315D03*
X1050985D03*
X1043385Y457815D03*
X1050985D03*
X1043385Y447815D03*
X1050985D03*
X1043385Y472815D03*
X1050985D03*
X1043385Y482815D03*
X1050985D03*
Y542815D03*
X1043385D03*
Y532815D03*
X1050985D03*
X1043385Y552815D03*
X1050985D03*
X1043385Y562815D03*
X1050985D03*
X1043385Y597815D03*
X1050985D03*
X1043385Y585315D03*
X1050985D03*
X1043385Y575315D03*
X1050985D03*
X1043385Y610315D03*
X1050985D03*
X1043385Y657815D03*
X1050985D03*
Y667815D03*
X1043385D03*
Y687815D03*
X1050985D03*
X1043385Y677815D03*
X1050985D03*
X1043385Y710315D03*
X1050985D03*
X1043385Y700315D03*
X1050985D03*
X1043385Y722815D03*
X1050985D03*
X1043385Y735315D03*
X1050985D03*
X1043385Y782815D03*
X1050985D03*
Y792815D03*
X1043385D03*
Y802815D03*
X1050985D03*
X1043385Y822815D03*
X1050985D03*
X1043385Y812815D03*
X1050985D03*
X1043385Y842815D03*
X1050985D03*
X1043385Y852815D03*
X1050985D03*
X1043385Y832815D03*
X1050985D03*
X1043385Y910315D03*
X1050985D03*
Y920315D03*
X1043385D03*
Y930315D03*
X1050985D03*
X1043385Y940315D03*
X1050985D03*
X1043385Y960315D03*
X1050985D03*
X1043385Y950315D03*
X1050985D03*
X1043385Y970315D03*
X1050985D03*
X1043385Y980315D03*
X1050985D03*
X1085885Y30315D03*
Y40315D03*
Y50315D03*
X1083385Y802815D03*
X1093485Y30315D03*
Y40315D03*
Y50315D03*
X1090985Y802815D03*
X1198485Y797815D03*
X1190885D03*
Y817815D03*
X1198485D03*
X1190885Y807815D03*
X1198485D03*
Y932815D03*
X1190885D03*
Y942815D03*
X1198485D03*
X1190885Y952815D03*
X1198485D03*
X1225885Y32815D03*
Y72815D03*
X1233485Y32815D03*
Y72815D03*
X1250885Y430315D03*
Y450315D03*
Y440315D03*
Y562815D03*
Y572815D03*
Y582815D03*
X1235885Y652815D03*
X1243485D03*
Y707815D03*
X1235885D03*
X1245885Y892815D03*
X1258485Y430315D03*
Y450315D03*
Y440315D03*
Y562815D03*
Y572815D03*
Y582815D03*
X1253485Y892815D03*
X1315985Y797815D03*
X1308385D03*
Y817815D03*
X1315985D03*
X1308385Y807815D03*
X1315985D03*
Y932815D03*
X1308385D03*
Y942815D03*
X1315985D03*
X1308385Y952815D03*
X1315985D03*
X1363385Y892815D03*
X1370985D03*
X1488385Y100315D03*
X1495985D03*
X1488385Y167815D03*
X1495985D03*
X1488385Y235315D03*
X1495985D03*
X1488385Y300315D03*
X1495985D03*
X1488385Y455315D03*
X1495985D03*
X1488385Y557815D03*
X1495985D03*
X1488385Y657815D03*
X1495985D03*
X1488385Y757815D03*
X1495985D03*
X1488385Y857815D03*
X1495985D03*
X1488385Y927815D03*
X1495985D03*
G54D83*
X611673Y619193D03*
Y623130D03*
Y621161D03*
Y629035D03*
Y625098D03*
Y627067D03*
Y631004D03*
Y632972D03*
Y634941D03*
Y636909D03*
Y638878D03*
Y640846D03*
Y642815D03*
Y644783D03*
Y646752D03*
Y648720D03*
Y650689D03*
Y652657D03*
Y654626D03*
Y656594D03*
Y658563D03*
Y660531D03*
Y662500D03*
Y664469D03*
Y666437D03*
X672697Y619193D03*
Y640846D03*
Y638878D03*
Y636909D03*
Y634941D03*
Y632972D03*
Y631004D03*
Y629035D03*
Y627067D03*
Y625098D03*
Y623130D03*
Y621161D03*
Y654626D03*
Y656594D03*
Y650689D03*
Y652657D03*
Y660531D03*
Y662500D03*
Y658563D03*
Y664469D03*
Y648720D03*
Y646752D03*
Y644783D03*
Y642815D03*
Y666437D03*
G54D81*
X403425Y83878D03*
X395945D03*
X399685Y91752D03*
X403425Y208878D03*
X395945D03*
X399685Y216752D03*
X1085925Y481378D03*
X1078445D03*
X1082185Y489252D03*
X1085925Y608878D03*
X1078445D03*
X1082185Y616752D03*
X1085925Y733878D03*
X1078445D03*
X1082185Y741752D03*
X1085925Y858878D03*
X1078445D03*
X1082185Y866752D03*
X1085925Y986378D03*
X1078445D03*
X1082185Y994252D03*
X1215925Y718878D03*
X1208445D03*
X1212185Y726752D03*
G54D100*
X27185Y405315D03*
Y397441D03*
Y421063D03*
Y413189D03*
Y473189D03*
Y465315D03*
X524685Y346457D03*
Y429134D03*
Y468504D03*
Y507874D03*
Y642913D03*
Y682283D03*
Y721654D03*
Y761024D03*
X615236Y94488D03*
Y133858D03*
X670965Y919252D03*
Y911378D03*
Y903504D03*
Y935000D03*
Y927126D03*
Y968878D03*
Y984626D03*
Y976752D03*
X1224685Y16929D03*
Y56299D03*
X1243189Y875591D03*
X1361299D03*
X1487283Y16929D03*
Y83858D03*
Y150787D03*
Y217717D03*
Y284646D03*
Y438976D03*
Y539764D03*
Y640551D03*
Y741339D03*
Y842126D03*
Y942913D03*
G54D97*
X642185Y412815D03*
Y422815D03*
X672185Y412815D03*
X662185D03*
X652185D03*
Y422815D03*
X662185D03*
G54D88*
X442618Y601181D03*
Y603740D03*
Y606299D03*
Y608858D03*
Y611417D03*
Y613976D03*
Y616535D03*
Y619094D03*
Y634449D03*
Y631890D03*
Y629331D03*
Y626772D03*
Y624213D03*
Y621654D03*
X471752Y601181D03*
Y603740D03*
Y606299D03*
Y608858D03*
Y611417D03*
Y613976D03*
Y616535D03*
Y619094D03*
Y621654D03*
Y624213D03*
Y626772D03*
Y629331D03*
Y631890D03*
Y634449D03*
G54D102*
X672185Y422815D03*
G54D98*
X35492Y912815D03*
Y947815D03*
X48878Y912815D03*
Y947815D03*
X131378Y585315D03*
X117992D03*
X131378Y620315D03*
X117992D03*
G54D89*
X506555Y587815D03*
Y592815D03*
Y597815D03*
Y602815D03*
X527815Y592815D03*
Y587815D03*
Y602815D03*
Y597815D03*
X591555Y447815D03*
Y452815D03*
Y457815D03*
Y462815D03*
X612815Y452815D03*
Y447815D03*
Y462815D03*
Y457815D03*
G54D92*
X664685Y844902D03*
Y830728D03*
X682185Y844902D03*
Y830728D03*
X717185Y844902D03*
Y830728D03*
X699685Y844902D03*
Y830728D03*
G54D90*
X506024Y615591D03*
Y625039D03*
X523346Y615591D03*
Y625039D03*
G54D44*
X34685Y926515D03*
Y934115D03*
X49685Y926515D03*
Y934115D03*
X132185Y606615D03*
Y599015D03*
X117185Y606615D03*
Y599015D03*
X177165Y706950D03*
Y699350D03*
X187008D03*
Y706950D03*
X223071D03*
Y699350D03*
X214213Y706950D03*
Y699350D03*
X357185Y606515D03*
Y614115D03*
X367185Y606515D03*
Y614115D03*
X357185Y704015D03*
Y711615D03*
X367185Y704015D03*
Y711615D03*
X377185Y614115D03*
Y606515D03*
Y711615D03*
Y704015D03*
X397185Y21515D03*
Y29115D03*
X399685Y146515D03*
Y154115D03*
X549685Y791615D03*
Y784015D03*
X567185Y496615D03*
Y489015D03*
Y816515D03*
Y824115D03*
X602185Y746615D03*
Y739015D03*
X582185Y746615D03*
Y739015D03*
X612500Y851200D03*
Y843800D03*
Y836200D03*
Y858800D03*
Y866200D03*
Y873800D03*
X642185Y401615D03*
Y394015D03*
X672185Y401615D03*
Y394015D03*
X662185Y401615D03*
Y394015D03*
X652185Y401615D03*
Y394015D03*
Y746615D03*
Y739015D03*
X667185Y746615D03*
Y739015D03*
X664685Y821615D03*
Y814015D03*
X677185Y746615D03*
Y739015D03*
X687185D03*
Y746615D03*
X682185Y821615D03*
Y814015D03*
Y869015D03*
Y876615D03*
X717185Y821615D03*
Y814015D03*
X699685Y821615D03*
Y814015D03*
X704685Y861515D03*
Y869115D03*
Y886515D03*
Y894115D03*
X702685Y911515D03*
Y919115D03*
Y936515D03*
Y944115D03*
X734685Y574015D03*
Y581615D03*
Y646515D03*
Y654115D03*
X742185Y964115D03*
Y956515D03*
X829685Y341615D03*
Y334015D03*
X819685Y341615D03*
Y334015D03*
X857185D03*
Y341615D03*
X1079685Y546515D03*
Y554115D03*
X1087185Y666515D03*
Y674115D03*
X1104685Y474015D03*
Y481615D03*
Y961515D03*
Y969115D03*
X1214685Y196515D03*
X1224685D03*
X1214685Y204115D03*
X1224685D03*
X1214685Y291515D03*
X1224685D03*
X1214685Y299115D03*
X1224685D03*
X1234685Y196515D03*
Y204115D03*
Y291515D03*
Y299115D03*
X1487500Y33700D03*
Y41300D03*
G54D96*
X669685Y866122D03*
Y879508D03*
X777185Y336122D03*
Y349508D03*
X807185Y336122D03*
Y349508D03*
G54D87*
X50551Y43248D03*
X53110D03*
X55669D03*
X58228D03*
X60787D03*
X63346D03*
X65906D03*
X50551Y72382D03*
X53110D03*
X55669D03*
X58228D03*
X60787D03*
X63346D03*
X65906D03*
X50551Y168248D03*
X53110D03*
X55669D03*
X58228D03*
X60787D03*
X63346D03*
X65906D03*
X50551Y197382D03*
X53110D03*
X55669D03*
X58228D03*
X60787D03*
X63346D03*
X65906D03*
X68465Y43248D03*
X71024D03*
X73583D03*
X76142D03*
X78701D03*
X81260D03*
X83819D03*
X68465Y72382D03*
X83819D03*
X81260D03*
X78701D03*
X76142D03*
X73583D03*
X71024D03*
X68465Y168248D03*
X71024D03*
X73583D03*
X76142D03*
X78701D03*
X81260D03*
X83819D03*
X68465Y197382D03*
X83819D03*
X81260D03*
X78701D03*
X76142D03*
X73583D03*
X71024D03*
X378051Y43248D03*
X380610D03*
X383169D03*
X385728D03*
X388287D03*
X390846D03*
X378051Y72382D03*
X380610D03*
X383169D03*
X385728D03*
X388287D03*
X390846D03*
X378051Y168248D03*
X380610D03*
X383169D03*
X385728D03*
X388287D03*
X390846D03*
X378051Y197382D03*
X380610D03*
X383169D03*
X385728D03*
X388287D03*
X390846D03*
X393406Y43248D03*
X395965D03*
X398524D03*
X401083D03*
X403642D03*
X406201D03*
X408760D03*
X411319D03*
X393406Y72382D03*
X395965D03*
X411319D03*
X408760D03*
X406201D03*
X403642D03*
X401083D03*
X398524D03*
X393406Y168248D03*
X395965D03*
X398524D03*
X401083D03*
X403642D03*
X406201D03*
X408760D03*
X411319D03*
X393406Y197382D03*
X395965D03*
X411319D03*
X408760D03*
X406201D03*
X403642D03*
X401083D03*
X398524D03*
X750551Y425748D03*
X753110D03*
X755669D03*
X758228D03*
X760787D03*
X763346D03*
X750551Y454882D03*
X753110D03*
X755669D03*
X758228D03*
X760787D03*
X763346D03*
X750551Y555748D03*
X753110D03*
X755669D03*
X758228D03*
X760787D03*
X763346D03*
X750551Y584882D03*
X753110D03*
X755669D03*
X758228D03*
X760787D03*
X763346D03*
X750551Y690748D03*
X753110D03*
X755669D03*
X758228D03*
X760787D03*
X763346D03*
X750551Y719882D03*
X753110D03*
X755669D03*
X758228D03*
X760787D03*
X763346D03*
X750551Y820748D03*
X753110D03*
X755669D03*
X758228D03*
X760787D03*
X763346D03*
X750551Y849882D03*
X753110D03*
X755669D03*
X758228D03*
X760787D03*
X763346D03*
X750551Y945748D03*
X753110D03*
X755669D03*
X758228D03*
X760787D03*
X763346D03*
X750551Y974882D03*
X753110D03*
X755669D03*
X758228D03*
X760787D03*
X763346D03*
X765906Y425748D03*
X768465D03*
X771024D03*
X773583D03*
X776142D03*
X778701D03*
X781260D03*
X783819D03*
X765906Y454882D03*
X768465D03*
X783819D03*
X781260D03*
X778701D03*
X776142D03*
X773583D03*
X771024D03*
X765906Y555748D03*
X768465D03*
X771024D03*
X773583D03*
X776142D03*
X778701D03*
X781260D03*
X783819D03*
X765906Y584882D03*
X768465D03*
X783819D03*
X781260D03*
X778701D03*
X776142D03*
X773583D03*
X771024D03*
X765906Y690748D03*
X768465D03*
X771024D03*
X773583D03*
X776142D03*
X778701D03*
X781260D03*
X783819D03*
X765906Y719882D03*
X768465D03*
X783819D03*
X781260D03*
X778701D03*
X776142D03*
X773583D03*
X771024D03*
X765906Y820748D03*
X768465D03*
X771024D03*
X773583D03*
X776142D03*
X778701D03*
X781260D03*
X783819D03*
X765906Y849882D03*
X768465D03*
X783819D03*
X781260D03*
X778701D03*
X776142D03*
X773583D03*
X771024D03*
X765906Y945748D03*
X768465D03*
X771024D03*
X773583D03*
X776142D03*
X778701D03*
X781260D03*
X783819D03*
X765906Y974882D03*
X768465D03*
X783819D03*
X781260D03*
X778701D03*
X776142D03*
X773583D03*
X771024D03*
X1060551Y440748D03*
X1063110D03*
X1060551Y469882D03*
X1063110D03*
X1060551Y568248D03*
X1063110D03*
X1060551Y597382D03*
X1063110D03*
X1060551Y693248D03*
X1063110D03*
X1060551Y722382D03*
X1063110D03*
X1060551Y818248D03*
X1063110D03*
X1060551Y847382D03*
X1063110D03*
X1060551Y945748D03*
X1063110D03*
X1060551Y974882D03*
X1063110D03*
X1065669Y440748D03*
X1068228D03*
X1070787D03*
X1073346D03*
X1075906D03*
X1078465D03*
X1081024D03*
X1083583D03*
X1086142D03*
X1065669Y469882D03*
X1068228D03*
X1070787D03*
X1073346D03*
X1075906D03*
X1078465D03*
X1086142D03*
X1083583D03*
X1081024D03*
X1065669Y568248D03*
X1068228D03*
X1070787D03*
X1073346D03*
X1075906D03*
X1078465D03*
X1081024D03*
X1083583D03*
X1086142D03*
X1065669Y597382D03*
X1068228D03*
X1070787D03*
X1073346D03*
X1075906D03*
X1078465D03*
X1086142D03*
X1083583D03*
X1081024D03*
X1065669Y693248D03*
X1068228D03*
X1070787D03*
X1073346D03*
X1075906D03*
X1078465D03*
X1081024D03*
X1083583D03*
X1086142D03*
X1065669Y722382D03*
X1068228D03*
X1070787D03*
X1073346D03*
X1075906D03*
X1078465D03*
X1086142D03*
X1083583D03*
X1081024D03*
X1065669Y818248D03*
X1068228D03*
X1070787D03*
X1073346D03*
X1075906D03*
X1078465D03*
X1081024D03*
X1083583D03*
X1086142D03*
X1065669Y847382D03*
X1068228D03*
X1070787D03*
X1073346D03*
X1075906D03*
X1078465D03*
X1086142D03*
X1083583D03*
X1081024D03*
X1065669Y945748D03*
X1068228D03*
X1070787D03*
X1073346D03*
X1075906D03*
X1078465D03*
X1081024D03*
X1083583D03*
X1086142D03*
X1065669Y974882D03*
X1068228D03*
X1070787D03*
X1073346D03*
X1075906D03*
X1078465D03*
X1086142D03*
X1083583D03*
X1081024D03*
X1088701Y440748D03*
X1091260D03*
X1093819D03*
Y469882D03*
X1091260D03*
X1088701D03*
Y568248D03*
X1091260D03*
X1093819D03*
Y597382D03*
X1091260D03*
X1088701D03*
Y693248D03*
X1091260D03*
X1093819D03*
Y722382D03*
X1091260D03*
X1088701D03*
Y818248D03*
X1091260D03*
X1093819D03*
Y847382D03*
X1091260D03*
X1088701D03*
Y945748D03*
X1091260D03*
X1093819D03*
Y974882D03*
X1091260D03*
X1088701D03*
X1190551Y678248D03*
X1193110D03*
X1195669D03*
X1198228D03*
X1200787D03*
X1203346D03*
X1190551Y707382D03*
X1193110D03*
X1195669D03*
X1198228D03*
X1200787D03*
X1203346D03*
X1205906Y678248D03*
X1208465D03*
X1211024D03*
X1213583D03*
X1216142D03*
X1218701D03*
X1221260D03*
X1223819D03*
X1205906Y707382D03*
X1208465D03*
X1223819D03*
X1221260D03*
X1218701D03*
X1216142D03*
X1213583D03*
X1211024D03*
G54D86*
X580984Y487815D03*
Y492815D03*
Y497815D03*
Y502815D03*
Y507815D03*
Y512815D03*
Y517815D03*
Y522815D03*
Y527815D03*
Y532815D03*
X618386Y502815D03*
Y497815D03*
Y492815D03*
Y487815D03*
Y522815D03*
Y517815D03*
Y512815D03*
Y507815D03*
Y532815D03*
Y527815D03*
X663484Y487815D03*
Y492815D03*
Y497815D03*
Y502815D03*
Y507815D03*
Y512815D03*
Y517815D03*
Y522815D03*
Y527815D03*
Y532815D03*
X700886Y502815D03*
Y497815D03*
Y492815D03*
Y487815D03*
Y522815D03*
Y517815D03*
Y512815D03*
Y507815D03*
Y532815D03*
Y527815D03*
G54D93*
X89764Y328740D03*
Y545276D03*
Y800394D03*
Y1016929D03*
X455906Y328740D03*
Y545276D03*
Y800394D03*
Y1016929D03*
X789764Y95669D03*
Y312205D03*
X1155906Y95669D03*
Y312205D03*
G54D91*
X712067Y740315D03*
X697303D03*
G54D85*
X562185Y768720D03*
X557185D03*
X567185D03*
X577185D03*
X572185D03*
X557185Y806909D03*
X562185D03*
X567185D03*
X572185D03*
X577185D03*
X582185Y768720D03*
X592185D03*
X587185D03*
X582185Y806909D03*
X587185D03*
X592185D03*
G54D84*
X592500Y849882D03*
X588760D03*
X596240D03*
X588760Y860118D03*
X592500D03*
X596240D03*
G54D80*
X110748Y72815D03*
Y197815D03*
X118622Y76555D03*
Y69075D03*
Y201555D03*
Y194075D03*
X196850Y699016D03*
Y706496D03*
X204724Y702756D03*
X431122Y619075D03*
Y626555D03*
X423248Y622815D03*
X806122Y451575D03*
X798248Y455315D03*
X806122Y459055D03*
Y586555D03*
Y579075D03*
X798248Y582815D03*
X806122Y709075D03*
X798248Y712815D03*
X806122Y716555D03*
Y846555D03*
Y839075D03*
X798248Y842815D03*
X803622Y961575D03*
X795748Y965315D03*
X803622Y969055D03*
G54D101*
X626673Y545315D03*
X637697D03*
G54D47*
X1472441Y1023622D03*
X1450787Y-19685D03*
X15748Y-21654D03*
G54D13*
G01X35364Y1652461D02*
X32904Y1654921D01*
X29213Y1656152D01*
X24291D01*
X20600Y1654921D01*
X18140Y1652461D01*
Y1650000D01*
X19370Y1647539D01*
X20600Y1646309D01*
X23061Y1645079D01*
X30443Y1642618D01*
X32904Y1641388D01*
X34134Y1640157D01*
X35364Y1637697D01*
Y1634006D01*
X32904Y1631545D01*
X29213Y1630315D01*
X24291D01*
X20600Y1631545D01*
X18140Y1634006D01*
X50128Y1656152D02*
X47667Y1654921D01*
X45207Y1652461D01*
X43976Y1650000D01*
X42746Y1646309D01*
Y1640157D01*
X43976Y1636467D01*
X45207Y1634006D01*
X47667Y1631545D01*
X50128Y1630315D01*
X55049D01*
X57510Y1631545D01*
X59970Y1634006D01*
X61201Y1636467D01*
X62431Y1640157D01*
Y1646309D01*
X61201Y1650000D01*
X59970Y1652461D01*
X57510Y1654921D01*
X55049Y1656152D01*
X50128D01*
X71043D02*
Y1630315D01*
Y1630315D02*
X85807D01*
X91959Y1656152D02*
Y1630315D01*
Y1656152D02*
X100571D01*
X104262Y1654921D01*
X106722Y1652461D01*
X107953Y1650000D01*
X109183Y1646309D01*
Y1640157D01*
X107953Y1636467D01*
X106722Y1634006D01*
X104262Y1631545D01*
X100571Y1630315D01*
X91959D01*
X117795Y1656152D02*
Y1630315D01*
Y1656152D02*
X133789D01*
X117795Y1643848D02*
X127638D01*
X117795Y1630315D02*
X133789D01*
X141171Y1656152D02*
Y1630315D01*
Y1656152D02*
X152244D01*
X155935Y1654921D01*
X157165Y1653691D01*
X158396Y1651230D01*
Y1648770D01*
X157165Y1646309D01*
X155935Y1645079D01*
X152244Y1643848D01*
X141171D01*
X149783D02*
X158396Y1630315D01*
X186693Y1656152D02*
Y1630315D01*
Y1656152D02*
X196535Y1630315D01*
X206378Y1656152D02*
X196535Y1630315D01*
X206378Y1656152D02*
Y1630315D01*
X222372Y1656152D02*
X212530Y1630315D01*
X222372Y1656152D02*
X232215Y1630315D01*
X216220Y1638927D02*
X228524D01*
X254360Y1652461D02*
X251900Y1654921D01*
X248209Y1656152D01*
X243287D01*
X239596Y1654921D01*
X237136Y1652461D01*
Y1650000D01*
X238366Y1647539D01*
X239596Y1646309D01*
X242057Y1645079D01*
X249439Y1642618D01*
X251900Y1641388D01*
X253130Y1640157D01*
X254360Y1637697D01*
Y1634006D01*
X251900Y1631545D01*
X248209Y1630315D01*
X243287D01*
X239596Y1631545D01*
X237136Y1634006D01*
X262972Y1656152D02*
Y1630315D01*
X280197Y1656152D02*
X262972Y1638927D01*
X269124Y1645079D02*
X280197Y1630315D01*
X325719Y1650000D02*
X324488Y1652461D01*
X322028Y1654921D01*
X319567Y1656152D01*
X314646D01*
X312185Y1654921D01*
X309724Y1652461D01*
X308494Y1650000D01*
X307264Y1646309D01*
Y1640157D01*
X308494Y1636467D01*
X309724Y1634006D01*
X312185Y1631545D01*
X314646Y1630315D01*
X319567D01*
X322028Y1631545D01*
X324488Y1634006D01*
X325719Y1636467D01*
X340482Y1656152D02*
X338022Y1654921D01*
X335561Y1652461D01*
X334331Y1650000D01*
X333100Y1646309D01*
Y1640157D01*
X334331Y1636467D01*
X335561Y1634006D01*
X338022Y1631545D01*
X340482Y1630315D01*
X345404D01*
X347864Y1631545D01*
X350325Y1634006D01*
X351555Y1636467D01*
X352785Y1640157D01*
Y1646309D01*
X351555Y1650000D01*
X350325Y1652461D01*
X347864Y1654921D01*
X345404Y1656152D01*
X340482D01*
X361398D02*
Y1630315D01*
Y1630315D02*
X376161D01*
X388465Y1656152D02*
X386004Y1654921D01*
X383543Y1652461D01*
X382313Y1650000D01*
X381083Y1646309D01*
Y1640157D01*
X382313Y1636467D01*
X383543Y1634006D01*
X386004Y1631545D01*
X388465Y1630315D01*
X393386D01*
X395846Y1631545D01*
X398307Y1634006D01*
X399537Y1636467D01*
X400768Y1640157D01*
Y1646309D01*
X399537Y1650000D01*
X398307Y1652461D01*
X395846Y1654921D01*
X393386Y1656152D01*
X388465D01*
X409380D02*
Y1630315D01*
Y1656152D02*
X420453D01*
X424144Y1654921D01*
X425374Y1653691D01*
X426604Y1651230D01*
Y1648770D01*
X425374Y1646309D01*
X424144Y1645079D01*
X420453Y1643848D01*
X409380D01*
X417992D02*
X426604Y1630315D01*
X454902Y1656152D02*
Y1630315D01*
Y1656152D02*
X465974D01*
X469665Y1654921D01*
X470896Y1653691D01*
X472126Y1651230D01*
Y1648770D01*
X470896Y1646309D01*
X469665Y1645079D01*
X465974Y1643848D01*
X454902D02*
X465974D01*
X469665Y1642618D01*
X470896Y1641388D01*
X472126Y1638927D01*
Y1635236D01*
X470896Y1632776D01*
X469665Y1631545D01*
X465974Y1630315D01*
X454902D01*
X480738Y1656152D02*
Y1630315D01*
Y1630315D02*
X495502D01*
X507805Y1656152D02*
X497963Y1630315D01*
X507805Y1656152D02*
X517648Y1630315D01*
X501654Y1638927D02*
X513957D01*
X541024Y1650000D02*
X539793Y1652461D01*
X537333Y1654921D01*
X534872Y1656152D01*
X529951D01*
X527490Y1654921D01*
X525030Y1652461D01*
X523799Y1650000D01*
X522569Y1646309D01*
Y1640157D01*
X523799Y1636467D01*
X525030Y1634006D01*
X527490Y1631545D01*
X529951Y1630315D01*
X534872D01*
X537333Y1631545D01*
X539793Y1634006D01*
X541024Y1636467D01*
X549636Y1656152D02*
Y1630315D01*
X566860Y1656152D02*
X549636Y1638927D01*
X555787Y1645079D02*
X566860Y1630315D01*
X595157Y1656152D02*
Y1630315D01*
Y1630315D02*
X609921D01*
X622224Y1656152D02*
X612382Y1630315D01*
X622224Y1656152D02*
X632067Y1630315D01*
X616073Y1638927D02*
X628376D01*
X634528Y1656152D02*
X644370Y1643848D01*
Y1630315D01*
X654213Y1656152D02*
X644370Y1643848D01*
X660364Y1656152D02*
Y1630315D01*
Y1656152D02*
X676358D01*
X660364Y1643848D02*
X670207D01*
X660364Y1630315D02*
X676358D01*
X683740Y1656152D02*
Y1630315D01*
Y1656152D02*
X694813D01*
X698504Y1654921D01*
X699734Y1653691D01*
X700965Y1651230D01*
Y1648770D01*
X699734Y1646309D01*
X698504Y1645079D01*
X694813Y1643848D01*
X683740D01*
X692352D02*
X700965Y1630315D01*
X734183Y1656152D02*
Y1630315D01*
X725571Y1656152D02*
X742795D01*
X755098D02*
X752638Y1654921D01*
X750177Y1652461D01*
X748947Y1650000D01*
X747717Y1646309D01*
Y1640157D01*
X748947Y1636467D01*
X750177Y1634006D01*
X752638Y1631545D01*
X755098Y1630315D01*
X760020D01*
X762480Y1631545D01*
X764941Y1634006D01*
X766171Y1636467D01*
X767402Y1640157D01*
Y1646309D01*
X766171Y1650000D01*
X764941Y1652461D01*
X762480Y1654921D01*
X760020Y1656152D01*
X755098D01*
X776014D02*
Y1630315D01*
Y1656152D02*
X787087D01*
X790778Y1654921D01*
X792008Y1653691D01*
X793238Y1651230D01*
Y1647539D01*
X792008Y1645079D01*
X790778Y1643848D01*
X787087Y1642618D01*
X776014D01*
G54D17*
X0Y15748D02*
G75*
G03X15748Y0I15748D01*
X0Y15748D02*
G01Y1015748D01*
X15748Y1031496D02*
G03X0Y1015748J-15748D01*
X15748Y1031496D02*
G01X480315D01*
X492126Y1019685D02*
G03X480315Y1031496I-11811D01*
X492126Y1019685D02*
G01Y1011811D01*
Y1011811D02*
G03X503937Y1000000I11811D01*
Y1000000D02*
G01X1519685D01*
X1535433Y984252D02*
G03X1519685Y1000000I-15748D01*
X1535433Y984252D02*
G01Y15748D01*
X1519685Y0D02*
G03X1535433Y15748J15748D01*
X1519685Y0D02*
G01X15748D01*
X81890Y983465D02*
G03X75984Y977953I15J-5936D01*
Y977953D02*
G01Y821654D01*
Y821654D02*
G03X81890Y816142I5921J424D01*
Y816142D02*
G01X89961D01*
X105512Y800394D02*
G03X89961Y816142I-15790J-40D01*
X105512Y800394D02*
G01Y792323D01*
Y792323D02*
G03X111417Y786614I5907J202D01*
Y786614D02*
G01X434252D01*
Y786614D02*
G03X440157Y792323I5J5904D01*
Y792323D02*
G01Y800984D01*
X455512Y816142D02*
G03X440157Y800984I-3J-15353D01*
X455512Y816142D02*
G01X463780D01*
Y816142D02*
G03X469685Y822244I-3J5912D01*
Y822244D02*
G01Y977559D01*
Y977559D02*
G03X463583Y983465I-5928J-20D01*
Y983465D02*
G01X81890D01*
X469685Y977559D02*
G03X463780Y983465I-5906D01*
X670591Y837815D02*
G03X666654Y841752I-3937D01*
Y841752D02*
G01X662717D01*
Y841752D02*
G03X658780Y837815J-3937D01*
Y837815D02*
G03X662717Y833878I3937D01*
Y833878D02*
G01X666654D01*
Y833878D02*
G03X670591Y837815J3937D01*
X666654Y841752D02*
G01X662717D01*
Y841752D02*
G03X658780Y837815J-3937D01*
Y837815D02*
G03X662717Y833878I3937D01*
Y833878D02*
G01X666654D01*
Y833878D02*
G03X670591Y837815J3937D01*
Y837815D02*
G03X666654Y841752I-3937D01*
X688091Y837815D02*
G03X684154Y841752I-3937D01*
Y841752D02*
G01X680217D01*
Y841752D02*
G03X676280Y837815J-3937D01*
Y837815D02*
G03X680217Y833878I3937D01*
Y833878D02*
G01X684154D01*
Y833878D02*
G03X688091Y837815J3937D01*
X684154Y841752D02*
G01X680217D01*
Y841752D02*
G03X676280Y837815J-3937D01*
Y837815D02*
G03X680217Y833878I3937D01*
Y833878D02*
G01X684154D01*
Y833878D02*
G03X688091Y837815J3937D01*
Y837815D02*
G03X684154Y841752I-3937D01*
X723091Y837815D02*
G03X719154Y841752I-3937D01*
Y841752D02*
G01X715217D01*
Y841752D02*
G03X711280Y837815J-3937D01*
Y837815D02*
G03X715217Y833878I3937D01*
Y833878D02*
G01X719154D01*
Y833878D02*
G03X723091Y837815J3937D01*
X719154Y841752D02*
G01X715217D01*
Y841752D02*
G03X711280Y837815J-3937D01*
Y837815D02*
G03X715217Y833878I3937D01*
Y833878D02*
G01X719154D01*
Y833878D02*
G03X723091Y837815J3937D01*
Y837815D02*
G03X719154Y841752I-3937D01*
X705591Y837815D02*
G03X701654Y841752I-3937D01*
Y841752D02*
G01X697717D01*
Y841752D02*
G03X693780Y837815J-3937D01*
Y837815D02*
G03X697717Y833878I3937D01*
Y833878D02*
G01X701654D01*
Y833878D02*
G03X705591Y837815J3937D01*
X701654Y841752D02*
G01X697717D01*
Y841752D02*
G03X693780Y837815J-3937D01*
Y837815D02*
G03X697717Y833878I3937D01*
Y833878D02*
G01X701654D01*
Y833878D02*
G03X705591Y837815J3937D01*
Y837815D02*
G03X701654Y841752I-3937D01*
G54D14*
X434252Y314961D02*
G01X434767Y314983D01*
X435277Y315050*
X435780Y315161*
X436272Y315315*
X436748Y315512*
X437205Y315749*
X437639Y316026*
X438048Y316339*
X438428Y316687*
X438776Y317066*
X439090Y317475*
X439367Y317909*
X439606Y318366*
X439803Y318841*
X439958Y319332*
X440070Y319835*
X440138Y320346*
X440157Y320669*
Y329331*
X440215Y330476*
X440390Y331804*
X440680Y333111*
X441083Y334389*
X441596Y335626*
X442214Y336814*
X442934Y337943*
X443750Y339006*
X444655Y339993*
X445642Y340898*
X446705Y341713*
X447835Y342433*
X449023Y343051*
X450261Y343563*
X451538Y343966*
X452846Y344255*
X454174Y344430*
X455512Y344488*
X463780*
X464295Y344511*
X464806Y344579*
X465309Y344690*
X465801Y344846*
X466278Y345043*
X466735Y345282*
X467170Y345559*
X467579Y345873*
X467959Y346222*
X468307Y346602*
X468621Y347012*
X468898Y347447*
X469136Y347904*
X469333Y348381*
X469487Y348873*
X469599Y349376*
X469666Y349888*
X469688Y350403*
X469685Y350591*
Y523583*
X469663Y524092*
X469596Y524598*
X469486Y525096*
X469332Y525582*
X469137Y526053*
X468902Y526506*
X468628Y526936*
X468317Y527341*
X467973Y527717*
X467597Y528061*
X467192Y528372*
X466762Y528646*
X466309Y528881*
X465838Y529077*
X465352Y529230*
X464854Y529340*
X464348Y529407*
X463839Y529429*
X455965*
X454592Y529489*
X453230Y529668*
X451889Y529966*
X450578Y530379*
X449309Y530905*
X448091Y531539*
X446932Y532277*
X445842Y533113*
X444829Y534042*
X443901Y535055*
X443065Y536144*
X442326Y537303*
X441692Y538522*
X441166Y539791*
X440753Y541101*
X440456Y542443*
X440276Y543805*
X440217Y545177*
Y553051*
X440194Y553566*
X440127Y554077*
X440015Y554580*
X439860Y555071*
X439663Y555547*
X439425Y556004*
X439149Y556438*
X438835Y556847*
X438487Y557227*
X438107Y557575*
X437698Y557889*
X437264Y558166*
X436807Y558403*
X436331Y558601*
X435839Y558755*
X435337Y558867*
X434826Y558934*
X434311Y558957*
X287402*
X286884Y558933*
X286371Y558864*
X285866Y558751*
X285372Y558594*
X284894Y558394*
X284436Y558154*
X284000Y557875*
X283590Y557558*
X283209Y557207*
X282860Y556825*
X282546Y556413*
X282269Y555976*
X282031Y555516*
X281834Y555037*
X281679Y554543*
X281568Y554037*
X281502Y553523*
X281496Y553445*
Y517520*
X281476Y517196*
X281409Y516686*
X281297Y516183*
X281142Y515692*
X280944Y515216*
X280706Y514759*
X280429Y514325*
X280115Y513917*
X279767Y513537*
X279387Y513189*
X278978Y512876*
X278543Y512600*
X278086Y512362*
X277610Y512166*
X277119Y512011*
X276616Y511900*
X276105Y511833*
X275591Y511811*
X81890*
X81372Y511787*
X80859Y511718*
X80354Y511605*
X79861Y511448*
X79383Y511248*
X78924Y511008*
X78488Y510729*
X78078Y510413*
X77697Y510062*
X77348Y509679*
X77034Y509267*
X76757Y508830*
X76519Y508370*
X76322Y507891*
X76167Y507397*
X76057Y506891*
X75990Y506377*
X75984Y506299*
Y350000*
X76044Y349486*
X76148Y348978*
X76296Y348482*
X76486Y348001*
X76718Y347538*
X76989Y347096*
X77298Y346681*
X77642Y346293*
X78018Y345938*
X78424Y345616*
X78856Y345331*
X79312Y345085*
X79787Y344879*
X80278Y344715*
X80782Y344595*
X81294Y344520*
X81811Y344489*
X81890Y344488*
X89961*
X91058Y344433*
X92424Y344257*
X93770Y343962*
X95085Y343551*
X96359Y343027*
X97582Y342395*
X98746Y341657*
X99841Y340822*
X100859Y339894*
X101792Y338880*
X102633Y337790*
X103376Y336630*
X104015Y335409*
X104546Y334138*
X104963Y332826*
X105265Y331481*
X105448Y330116*
X105512Y328740*
Y320669*
X105552Y320155*
X105637Y319647*
X105765Y319147*
X105937Y318661*
X106151Y318192*
X106404Y317743*
X106696Y317318*
X107024Y316919*
X107385Y316551*
X107777Y316216*
X108196Y315917*
X108640Y315654*
X109106Y315432*
X109589Y315251*
X110085Y315113*
X110592Y315019*
X111105Y314969*
X111417Y314961*
X434252*
X1134252Y81890D02*
G01X1134767Y81912D01*
X1135277Y81979*
X1135780Y82090*
X1136272Y82244*
X1136748Y82441*
X1137205Y82679*
X1137639Y82955*
X1138048Y83268*
X1138428Y83616*
X1138776Y83995*
X1139090Y84404*
X1139367Y84838*
X1139606Y85295*
X1139803Y85770*
X1139958Y86261*
X1140070Y86764*
X1140138Y87275*
X1140157Y87598*
Y96260*
X1140215Y97405*
X1140390Y98733*
X1140680Y100040*
X1141083Y101318*
X1141596Y102555*
X1142214Y103743*
X1142934Y104873*
X1143750Y105935*
X1144655Y106922*
X1145642Y107827*
X1146705Y108642*
X1147835Y109362*
X1149023Y109980*
X1150261Y110492*
X1151538Y110895*
X1152846Y111185*
X1154174Y111359*
X1155512Y111417*
X1163780*
X1164295Y111440*
X1164806Y111508*
X1165309Y111620*
X1165801Y111775*
X1166278Y111972*
X1166735Y112211*
X1167170Y112488*
X1167579Y112802*
X1167959Y113151*
X1168307Y113531*
X1168621Y113941*
X1168898Y114376*
X1169136Y114833*
X1169333Y115310*
X1169487Y115802*
X1169599Y116305*
X1169666Y116817*
X1169688Y117332*
X1169685Y117520*
Y290512*
X1169663Y291021*
X1169596Y291527*
X1169486Y292025*
X1169332Y292511*
X1169137Y292983*
X1168902Y293435*
X1168628Y293865*
X1168317Y294270*
X1167973Y294646*
X1167597Y294990*
X1167192Y295301*
X1166762Y295575*
X1166309Y295810*
X1165838Y296006*
X1165352Y296159*
X1164854Y296269*
X1164348Y296336*
X1163839Y296358*
X1155965*
X1154592Y296418*
X1153230Y296598*
X1151889Y296895*
X1150578Y297308*
X1149309Y297834*
X1148091Y298468*
X1146932Y299206*
X1145842Y300043*
X1144829Y300971*
X1143901Y301984*
X1143065Y303074*
X1142326Y304232*
X1141692Y305451*
X1141166Y306720*
X1140753Y308030*
X1140456Y309372*
X1140276Y310734*
X1140217Y312106*
Y319980*
X1140194Y320495*
X1140127Y321006*
X1140015Y321509*
X1139860Y322000*
X1139663Y322476*
X1139425Y322933*
X1139149Y323368*
X1138835Y323776*
X1138487Y324156*
X1138107Y324504*
X1137698Y324818*
X1137264Y325095*
X1136807Y325333*
X1136331Y325530*
X1135839Y325685*
X1135337Y325796*
X1134826Y325863*
X1134311Y325886*
X987402*
X986884Y325862*
X986371Y325793*
X985866Y325680*
X985372Y325523*
X984894Y325323*
X984436Y325083*
X984000Y324804*
X983590Y324487*
X983209Y324137*
X982860Y323754*
X982546Y323342*
X982269Y322905*
X982031Y322445*
X981834Y321966*
X981679Y321472*
X981568Y320966*
X981502Y320452*
X981496Y320374*
Y284449*
X981476Y284125*
X981409Y283615*
X981297Y283112*
X981142Y282621*
X980944Y282145*
X980706Y281688*
X980429Y281254*
X980115Y280846*
X979767Y280466*
X979387Y280119*
X978978Y279805*
X978543Y279529*
X978086Y279291*
X977610Y279095*
X977119Y278940*
X976616Y278829*
X976105Y278762*
X975591Y278740*
X781890*
X781372Y278716*
X780859Y278647*
X780354Y278534*
X779861Y278377*
X779383Y278178*
X778924Y277937*
X778488Y277658*
X778078Y277342*
X777697Y276991*
X777348Y276608*
X777034Y276197*
X776757Y275759*
X776519Y275299*
X776322Y274820*
X776167Y274326*
X776057Y273820*
X775990Y273307*
X775984Y273228*
Y116929*
X776044Y116415*
X776148Y115907*
X776296Y115411*
X776486Y114930*
X776718Y114467*
X776989Y114026*
X777298Y113610*
X777642Y113223*
X778018Y112867*
X778424Y112545*
X778856Y112260*
X779312Y112014*
X779787Y111808*
X780278Y111645*
X780782Y111524*
X781294Y111449*
X781811Y111418*
X781890Y111417*
X789961*
X791058Y111362*
X792424Y111186*
X793770Y110891*
X795085Y110481*
X796359Y109957*
X797582Y109324*
X798746Y108586*
X799841Y107751*
X800859Y106823*
X801792Y105809*
X802633Y104719*
X803376Y103559*
X804015Y102339*
X804546Y101067*
X804963Y99755*
X805265Y98411*
X805448Y97045*
X805512Y95669*
Y87598*
X805552Y87084*
X805637Y86576*
X805765Y86076*
X805937Y85590*
X806151Y85121*
X806404Y84672*
X806696Y84247*
X807024Y83849*
X807385Y83481*
X807777Y83145*
X808196Y82846*
X808640Y82584*
X809106Y82361*
X809589Y82180*
X810085Y82042*
X810592Y81948*
X811105Y81898*
X811417Y81890*
X1134252*
M02*
