G04 CAM350 V9.0 (Build 156) Date:  Tue Apr 23 15:00:35 2019 *
G04 Database: C:\1\580\100.0000580.cam *
G04 Layer 13: 1000000580-DRL *
%FSLAX25Y25*%
%MOIN*%
%SFA1.000B1.000*%

%MIA0B0*%
%IPPOS*%
%ADD13C,0.03937*%
%ADD14C,0.01969*%
%ADD15C,0.03150*%
%ADD17C,0.00394*%
%ADD29C,0.04000*%
%ADD50C,0.09843*%
%ADD51C,0.13780*%
%ADD107C,0.03543*%
%ADD109O,0.12205X0.08268*%
%LN1000000580-DRL*%
%LPD*%
G54D51*
X19685Y19685D03*
Y519685D03*
Y1011811D03*
X113780Y701969D03*
X276181Y263780D03*
Y701969D03*
X438583D03*
X519685Y114173D03*
X566929Y908661D03*
X708661Y381890D03*
Y780709D03*
X787402Y19685D03*
X971654Y36614D03*
X1102362Y381890D03*
Y908661D03*
X1290551Y203937D03*
X1297244Y507087D03*
Y875591D03*
X1397638Y701969D03*
X1515748Y19685D03*
Y519685D03*
Y980315D03*
G54D15*
X27185Y389567D03*
Y405315D03*
Y397441D03*
Y421063D03*
Y413189D03*
Y457441D03*
Y473189D03*
Y465315D03*
X524685Y346457D03*
X514685D03*
X524685Y429134D03*
X514685D03*
X524685Y468504D03*
X514685D03*
X524685Y507874D03*
X514685D03*
X524685Y642913D03*
X514685D03*
X524685Y682283D03*
X514685D03*
X524685Y721654D03*
X514685D03*
X524685Y761024D03*
X514685D03*
X615236Y94488D03*
X605236D03*
X615236Y133858D03*
X605236D03*
X670965Y895630D03*
Y919252D03*
Y911378D03*
Y903504D03*
Y935000D03*
Y927126D03*
Y968878D03*
Y961004D03*
Y984626D03*
Y976752D03*
X1224685Y16929D03*
X1214685D03*
X1224685Y56299D03*
X1214685D03*
X1243189Y875591D03*
X1233189D03*
X1361299D03*
X1351299D03*
X1477283Y16929D03*
Y83858D03*
Y150787D03*
Y217717D03*
Y284646D03*
Y438976D03*
Y539764D03*
Y640551D03*
Y741339D03*
Y842126D03*
Y942913D03*
X1487283Y16929D03*
Y83858D03*
Y150787D03*
Y217717D03*
Y284646D03*
Y438976D03*
Y539764D03*
Y640551D03*
Y741339D03*
Y842126D03*
Y942913D03*
G54D14*
X29685Y912815D03*
X34685Y922815D03*
X38385Y977590D03*
X47460Y405315D03*
X47874Y412815D03*
X47460Y420315D03*
X56437Y465315D03*
Y472815D03*
X45985Y977590D03*
X52185Y982815D03*
X61951Y993049D03*
X78701Y37623D03*
X73583Y37819D03*
X81260Y48677D03*
X76417Y49213D03*
X69635Y78346D03*
X87185Y77815D03*
X74074Y82815D03*
X69635Y125693D03*
X82677Y174016D03*
X77959Y173925D03*
X73583Y174315D03*
X68864Y173677D03*
X71667Y203294D03*
X77185Y206315D03*
X89185Y202815D03*
X87244Y207815D03*
X87402Y233858D03*
X84005Y672135D03*
X84175Y677305D03*
X84515Y687645D03*
X84345Y682475D03*
X84685Y692815D03*
X105925Y72815D03*
X109701Y82815D03*
X91910D03*
X105925Y197815D03*
X107685Y207815D03*
X112071Y620315D03*
X123228Y57874D03*
X131102Y47815D03*
X128740Y57874D03*
X127165Y52870D03*
X127697Y177815D03*
X132303Y172815D03*
X137795Y173622D03*
X123091Y182815D03*
X148831Y81287D03*
X142185Y94716D03*
X148819Y207272D03*
X150885Y557815D03*
X139685Y617815D03*
X173228Y17815D03*
Y46850D03*
X172185Y143496D03*
Y172185D03*
X164173Y219716D03*
X169291Y593084D03*
X164685Y597461D03*
X199685Y617815D03*
X209291Y565315D03*
X219291Y570315D03*
X229291Y575315D03*
X219410Y642815D03*
Y735315D03*
X239291Y580315D03*
X230985Y719265D03*
Y760415D03*
X254685Y565315D03*
X257185Y570315D03*
Y580315D03*
X254685Y575315D03*
X321685Y35315D03*
X317665Y60315D03*
X302185Y160315D03*
X320961Y185315D03*
X330935Y40315D03*
X334685Y55315D03*
X342185Y70315D03*
X329685Y65315D03*
X342185Y90315D03*
X334685Y180315D03*
X327185Y190315D03*
X342185Y195315D03*
X344685Y215315D03*
X349410Y165315D03*
X352135Y660165D03*
Y667865D03*
X384085Y134915D03*
X377185Y620315D03*
Y715590D03*
X408760Y34815D03*
X402785Y33965D03*
X397185Y17540D03*
X402185Y49315D03*
X409685Y62815D03*
X410088Y78315D03*
X399685Y142540D03*
X404460Y154115D03*
X402185Y162315D03*
X404239Y190815D03*
X409685Y205315D03*
X397185Y603631D03*
X412185Y652815D03*
X436220Y589883D03*
X437189Y634449D03*
X458978Y589747D03*
X454331Y589883D03*
X449213D03*
X442618D03*
X459685Y607874D03*
X457194Y612623D03*
X459665Y616398D03*
X452685Y640065D03*
X456685Y637815D03*
X460685Y640065D03*
X461762Y620210D03*
X448935Y630815D03*
X478007Y604308D03*
X464685Y603836D03*
X477435Y625023D03*
X480885Y620315D03*
X506555Y583539D03*
X488485Y605315D03*
X486935Y597119D03*
X503385Y825090D03*
X510909Y368605D03*
X512181Y592815D03*
X522185D03*
X522189Y587815D03*
X529479Y615591D03*
X522189Y602815D03*
X512142Y625039D03*
X515935Y654965D03*
Y672815D03*
X530657Y757815D03*
X515885Y745405D03*
X511910Y810315D03*
X554410Y60315D03*
Y187815D03*
X552185Y340315D03*
X547998Y337815D03*
X543800Y354430D03*
Y421200D03*
X552230Y436039D03*
Y522815D03*
X543461Y526591D03*
X552230Y545201D03*
X549685Y541425D03*
X537008Y548976D03*
X532185Y542815D03*
X554685Y570315D03*
X552230Y552752D03*
X554855Y575485D03*
X551845Y595315D03*
X534410D03*
Y602815D03*
Y617815D03*
X533585Y632815D03*
X534646Y642815D03*
X551507Y665324D03*
X534410Y652815D03*
X545985Y648040D03*
X549685Y687815D03*
X538385Y692590D03*
X549685Y705315D03*
X548385Y752815D03*
X554410Y967815D03*
X571135Y40315D03*
X571654Y167815D03*
X561287Y337896D03*
X556005Y343224D03*
X563556Y362815D03*
X567332Y375315D03*
X571107Y367815D03*
X556005Y432264D03*
X576709Y455315D03*
X571107Y471776D03*
X576685Y462115D03*
X574079Y487815D03*
Y502846D03*
X572035Y496615D03*
X567116Y522815D03*
X562981Y510315D03*
X563556Y505315D03*
X567116Y545201D03*
X562992Y541425D03*
X556484Y565499D03*
X558529Y561659D03*
X567185Y735315D03*
X562410Y824115D03*
X585929Y452815D03*
Y462815D03*
Y457815D03*
X599685Y487815D03*
X587890Y492815D03*
X598819Y522815D03*
X582185Y752815D03*
X587185Y775626D03*
X592185Y845815D03*
X619685Y327815D03*
X607350Y342815D03*
X619685Y375315D03*
X618441Y447815D03*
Y452815D03*
Y462815D03*
X607350Y487815D03*
X609855Y530366D03*
X605732Y547939D03*
X606960Y746615D03*
X623385Y737815D03*
X612500Y847775D03*
X607500Y849882D03*
X612500Y862697D03*
X607500Y860118D03*
X612500Y877500D03*
X634960Y457815D03*
X646776Y492815D03*
X625291Y487815D03*
Y502815D03*
X638485Y503040D03*
X626910Y507815D03*
X625000Y522815D03*
X638485Y513040D03*
X625291Y512815D03*
X637687Y536662D03*
X625291Y532815D03*
X638485Y532590D03*
X630885Y536591D03*
X647185Y746615D03*
Y739015D03*
X635240Y780433D03*
X627500Y775512D03*
X631465Y790276D03*
Y785354D03*
X635909Y911365D03*
X670390Y487815D03*
X653436Y541897D03*
X656579Y532815D03*
X655961Y551715D03*
X659035Y733965D03*
X667185Y757500D03*
X653063Y767026D03*
Y780000D03*
X658961Y844902D03*
X662386Y866122D03*
X675961Y547939D03*
X678441Y551715D03*
X694422Y694428D03*
X687185Y735040D03*
X687909Y844902D03*
X682185Y865040D03*
X707185Y444039D03*
X711508Y440264D03*
X715283Y436488D03*
X713385Y525615D03*
X707791Y527815D03*
X712067Y725315D03*
X705409Y844902D03*
X730842Y407645D03*
X734787Y402815D03*
X723461Y428937D03*
X731012Y412815D03*
X719685Y432713D03*
X727236Y423644D03*
X738563Y457815D03*
X724960Y532815D03*
X729685D03*
X739685Y555315D03*
X730082Y576341D03*
X737935Y607865D03*
X734685Y642315D03*
X723435Y844902D03*
X725685Y852815D03*
X736685Y950315D03*
X750735Y469165D03*
X757185Y477815D03*
X750535Y567915D03*
X754685Y571815D03*
X743885Y593565D03*
X743485Y613365D03*
X743885Y602565D03*
X764006Y632581D03*
X760236Y640665D03*
X752685Y659315D03*
X752660Y664840D03*
X756461Y649865D03*
X755669Y826831D03*
Y951299D03*
X742185Y968090D03*
X768878Y349508D03*
X783465Y420079D03*
X777165D03*
X777185Y431815D03*
X771024Y431950D03*
X780235Y466115D03*
X778530Y550175D03*
X783347Y550319D03*
X773583D03*
X768110Y561417D03*
X774385Y591515D03*
X768285Y628806D03*
X782535Y624615D03*
X777933Y685295D03*
X782535Y683852D03*
X773583Y685319D03*
X767262Y697401D03*
X776142Y725311D03*
X781260D03*
X787043Y723815D03*
X776135Y742941D03*
X779115Y812994D03*
X782885Y815165D03*
X774185Y815315D03*
X768267Y826397D03*
X778701Y844453D03*
X772185Y855315D03*
Y873516D03*
X787185Y932815D03*
X769485Y939471D03*
X777185Y935315D03*
X782185Y935696D03*
X772780Y935410D03*
X776142Y980311D03*
X781260D03*
X778701Y969158D03*
X794335Y455315D03*
X794410Y467815D03*
X809843D03*
X793902Y582780D03*
X788835Y588815D03*
X809960Y592815D03*
X794410D03*
X788885Y623841D03*
X809960Y722815D03*
X794685D03*
X794948Y816539D03*
X793902Y842815D03*
X787589Y850167D03*
X804685Y950315D03*
X806910Y957815D03*
X791369Y967815D03*
X806910Y965315D03*
X787280Y974882D03*
X822185Y402815D03*
X827185Y429039D03*
Y447815D03*
X812185Y442815D03*
X824016Y550315D03*
X818110Y530315D03*
X824016Y555315D03*
X814685Y660315D03*
X824685Y685315D03*
Y680315D03*
X817185Y722815D03*
X822185Y805315D03*
X823409Y810315D03*
X822460Y815315D03*
Y850315D03*
X812185Y840315D03*
X827185Y935315D03*
X822460Y940315D03*
X832185Y945315D03*
X829657Y979217D03*
X852410Y341615D03*
X834460D03*
X847185Y432815D03*
X834685Y437815D03*
X837583Y479489D03*
X838228Y545669D03*
X848835Y604437D03*
X839685Y675984D03*
Y730421D03*
X838228Y802815D03*
X847185Y857815D03*
X837185Y930315D03*
X854685Y982993D03*
X862460Y50315D03*
X864135Y520866D03*
X878235Y528417D03*
X858521Y646723D03*
X858835Y772764D03*
X881135Y654815D03*
X884453Y780315D03*
X947244Y475197D03*
X944094Y600787D03*
X944685Y727815D03*
Y852815D03*
X1008610Y687815D03*
X1009685Y802815D03*
X1014685Y807815D03*
X1012185Y822815D03*
Y832815D03*
X1009618Y940315D03*
X1026772Y440315D03*
X1022835Y435315D03*
X1026910Y567815D03*
X1022835Y562815D03*
X1026910Y692815D03*
X1027185Y817815D03*
Y827815D03*
X1042185Y905315D03*
X1026910Y945315D03*
X1042520Y410315D03*
X1055118Y405315D03*
X1055512Y400315D03*
X1063780Y415315D03*
X1064685Y462815D03*
X1042460Y537815D03*
X1054960Y532815D03*
X1059055Y527815D03*
X1062992Y542815D03*
X1063780Y589370D03*
X1064685Y662815D03*
Y713841D03*
Y787815D03*
Y835315D03*
X1055118Y920315D03*
X1042460Y915315D03*
X1050985Y905540D03*
X1062992Y963780D03*
X1054685Y975315D03*
Y985315D03*
X1081910Y50315D03*
X1088701Y427815D03*
X1083583Y435319D03*
X1076378Y460630D03*
X1086804Y464061D03*
X1068616Y460950D03*
X1072391Y457874D03*
X1088711Y534165D03*
X1079685Y542540D03*
X1084549Y561815D03*
X1068898Y588976D03*
X1072441Y585827D03*
X1075984Y582283D03*
X1087185Y582815D03*
X1072185Y667815D03*
X1077185Y672815D03*
X1082185Y680315D03*
X1082410Y666515D03*
X1072192Y710322D03*
X1077185Y710315D03*
X1081700Y710800D03*
X1086185Y703815D03*
X1069685Y790315D03*
X1074685Y795315D03*
X1078461Y810315D03*
X1084685Y823815D03*
X1069685Y832815D03*
X1074685D03*
X1078465Y830315D03*
X1087685Y841815D03*
X1087185Y832815D03*
X1073965Y894687D03*
X1077740Y898463D03*
X1081485Y940015D03*
X1075197Y959055D03*
X1073228Y963780D03*
X1069685Y959055D03*
X1088685Y966815D03*
X1085643Y969453D03*
X1092185Y422815D03*
X1094685Y480315D03*
X1090293Y461815D03*
X1099685Y474015D03*
X1104685Y485590D03*
X1092585Y544665D03*
X1093185Y616752D03*
X1104961Y616815D03*
X1092520Y604724D03*
X1109161Y604815D03*
X1093350Y624638D03*
X1091234Y628439D03*
X1093409Y632215D03*
X1090635Y620862D03*
X1093285Y645065D03*
X1093409Y650615D03*
X1101185Y663740D03*
X1097185Y667516D03*
X1089643Y730357D03*
X1109161Y730287D03*
X1093640Y734315D03*
X1092185Y712815D03*
X1105386Y741752D03*
X1093685D03*
X1097685Y766315D03*
X1101461Y770215D03*
X1090985Y798040D03*
X1092185Y866752D03*
X1109185Y855315D03*
X1092185D03*
X1109185Y870528D03*
X1104685Y957540D03*
Y975315D03*
X1124261Y624638D03*
X1112937Y628439D03*
X1115082Y632224D03*
X1112937Y620862D03*
X1128287Y655265D03*
X1116961Y659315D03*
X1124512Y750265D03*
X1121235Y758638D03*
X1120736Y754063D03*
X1113185Y741752D03*
Y866752D03*
X1193701Y474015D03*
X1185433Y577559D03*
X1201181Y622708D03*
X1193285Y641815D03*
X1201181Y656693D03*
X1192157Y648615D03*
Y659715D03*
X1196347Y658544D03*
X1202460Y797815D03*
X1186910Y817815D03*
X1202460Y932815D03*
X1186910Y953615D03*
X1214685Y192540D03*
Y287540D03*
X1225532Y666591D03*
X1218701Y667147D03*
X1214549Y672815D03*
X1219504Y730265D03*
X1208085Y741752D03*
X1209385Y762413D03*
X1237485Y72815D03*
X1234685Y208090D03*
Y303090D03*
X1237362Y677638D03*
X1247460Y707815D03*
X1229685D03*
X1262460Y450315D03*
Y582815D03*
X1319960Y797815D03*
Y932815D03*
G54D50*
X89764Y328740D03*
Y545276D03*
Y800394D03*
Y1016929D03*
X455906Y328740D03*
Y545276D03*
Y800394D03*
Y1016929D03*
X789764Y95669D03*
Y312205D03*
X1155906Y95669D03*
Y312205D03*
G54D13*
X138189Y11811D03*
Y71811D03*
Y137795D03*
Y197795D03*
X129291Y545276D03*
X139291D03*
X119291D03*
X129291Y1016929D03*
X139291D03*
X119291D03*
X148189Y11811D03*
X158189D03*
Y71811D03*
X148189D03*
Y137795D03*
X158189D03*
Y197795D03*
X148189D03*
X149291Y545276D03*
X159291D03*
X149291Y1016929D03*
X159291D03*
X168189Y11811D03*
X178189D03*
Y71811D03*
X168189D03*
Y137795D03*
X178189D03*
Y197795D03*
X168189D03*
X169291Y545276D03*
X179291D03*
X169291Y1016929D03*
X179291D03*
X188189Y11811D03*
X208189D03*
X198189D03*
X208189Y71811D03*
X198189D03*
X188189D03*
Y137795D03*
X208189D03*
X198189D03*
X208189Y197795D03*
X198189D03*
X188189D03*
X209291Y545276D03*
X199291D03*
X189291D03*
X209291Y1016929D03*
X199291D03*
X189291D03*
X228189Y11811D03*
X218189D03*
X228189Y71811D03*
X218189D03*
X228189Y137795D03*
X218189D03*
X228189Y197795D03*
X218189D03*
X219291Y545276D03*
X229291D03*
X219291Y1016929D03*
X229291D03*
X238189Y11811D03*
X248189D03*
Y71811D03*
X238189D03*
Y137795D03*
X248189D03*
Y197795D03*
X238189D03*
X249291Y545276D03*
X239291D03*
X249291Y1016929D03*
X239291D03*
X278189Y11811D03*
X268189D03*
X258189D03*
X278189Y71811D03*
X268189D03*
X258189D03*
X278189Y137795D03*
X268189D03*
X258189D03*
X278189Y197795D03*
X268189D03*
X258189D03*
X269291Y545276D03*
X259291D03*
X269291Y1016929D03*
X259291D03*
X288189Y11811D03*
X298189D03*
Y71811D03*
X288189D03*
Y137795D03*
X298189D03*
Y197795D03*
X288189D03*
X308189Y11811D03*
Y71811D03*
Y137795D03*
Y197795D03*
X712185Y582815D03*
X715185Y870472D03*
Y860472D03*
Y895472D03*
Y885472D03*
Y920472D03*
Y910472D03*
Y945472D03*
Y935472D03*
X829291Y312205D03*
X819291D03*
X839291D03*
X849291D03*
X848228Y408976D03*
X858228D03*
X838228D03*
X858228Y468976D03*
X848228D03*
X838228D03*
X848228Y534961D03*
X858228D03*
X838228D03*
X858228Y594961D03*
X848228D03*
X838228D03*
X848228Y660945D03*
X858228D03*
X838228D03*
X858228Y720945D03*
X848228D03*
X838228D03*
X848228Y786929D03*
X858228D03*
X838228D03*
X858228Y846929D03*
X848228D03*
X838228D03*
X848228Y912913D03*
X858228D03*
X838228D03*
X858228Y972913D03*
X848228D03*
X838228D03*
X869291Y312205D03*
X879291D03*
X859291D03*
X868228Y408976D03*
X878228D03*
Y468976D03*
X868228D03*
Y534961D03*
X878228D03*
Y594961D03*
X868228D03*
Y660945D03*
X878228D03*
Y720945D03*
X868228D03*
Y786929D03*
X878228D03*
Y846929D03*
X868228D03*
Y912913D03*
X878228D03*
Y972913D03*
X868228D03*
X899291Y312205D03*
X889291D03*
X888228Y408976D03*
X898228D03*
Y468976D03*
X888228D03*
Y534961D03*
X898228D03*
Y594961D03*
X888228D03*
Y660945D03*
X898228D03*
Y720945D03*
X888228D03*
Y786929D03*
X898228D03*
Y846929D03*
X888228D03*
Y912913D03*
X898228D03*
Y972913D03*
X888228D03*
X919291Y312205D03*
X909291D03*
X928228Y408976D03*
X918228D03*
X908228D03*
X928228Y468976D03*
X918228D03*
X908228D03*
X928228Y534961D03*
X918228D03*
X908228D03*
X928228Y594961D03*
X918228D03*
X908228D03*
X928228Y660945D03*
X918228D03*
X908228D03*
X928228Y720945D03*
X918228D03*
X908228D03*
X928228Y786929D03*
X918228D03*
X908228D03*
X928228Y846929D03*
X918228D03*
X908228D03*
X928228Y912913D03*
X918228D03*
X908228D03*
X928228Y972913D03*
X918228D03*
X908228D03*
X949291Y312205D03*
X939291D03*
X929291D03*
X938228Y408976D03*
X948228D03*
Y468976D03*
X938228D03*
Y534961D03*
X948228D03*
Y594961D03*
X938228D03*
Y660945D03*
X948228D03*
Y720945D03*
X938228D03*
Y786929D03*
X948228D03*
Y846929D03*
X938228D03*
Y912913D03*
X948228D03*
Y972913D03*
X938228D03*
X969291Y312205D03*
X959291D03*
X968228Y408976D03*
X958228D03*
X968228Y468976D03*
X958228D03*
X968228Y534961D03*
X958228D03*
X968228Y594961D03*
X958228D03*
X968228Y660945D03*
X958228D03*
X968228Y720945D03*
X958228D03*
X968228Y786929D03*
X958228D03*
X968228Y846929D03*
X958228D03*
X968228Y912913D03*
X958228D03*
X968228Y972913D03*
X958228D03*
X988228Y408976D03*
X998228D03*
X978228D03*
X998228Y468976D03*
X988228D03*
X978228D03*
X988228Y534961D03*
X998228D03*
X978228D03*
X998228Y594961D03*
X988228D03*
X978228D03*
X988228Y660945D03*
X998228D03*
X978228D03*
X998228Y720945D03*
X988228D03*
X978228D03*
X988228Y786929D03*
X998228D03*
X978228D03*
X998228Y846929D03*
X988228D03*
X978228D03*
X988228Y912913D03*
X998228D03*
X978228D03*
X998228Y972913D03*
X988228D03*
X978228D03*
X1008228Y408976D03*
Y468976D03*
Y534961D03*
Y594961D03*
Y660945D03*
Y720945D03*
Y786929D03*
Y846929D03*
Y912913D03*
Y972913D03*
X1212028Y652815D03*
X1222028D03*
G54D29*
X184646Y652756D03*
X177646Y677756D03*
X184646Y751181D03*
X174646Y748681D03*
X182146Y741181D03*
X177646Y776181D03*
X191646Y627756D03*
Y726181D03*
X194646Y753681D03*
X187146Y761181D03*
X367717Y652756D03*
X360717Y677756D03*
X367717Y751181D03*
X360717Y776181D03*
X374717Y627756D03*
Y726181D03*
X526685Y26181D03*
X519685Y51181D03*
X512685Y76181D03*
X526685Y152165D03*
X519685Y177165D03*
X512685Y202165D03*
X526685Y836417D03*
X519685Y861417D03*
X512685Y886417D03*
X526685Y930906D03*
X519685Y955906D03*
X512685Y980906D03*
X572185Y582815D03*
Y592815D03*
X562185D03*
Y602815D03*
X572185D03*
Y612815D03*
X562185D03*
Y622815D03*
X572185D03*
Y632815D03*
X562185D03*
Y642815D03*
X572185D03*
X562185Y652815D03*
X572185D03*
Y662815D03*
X562185D03*
Y672815D03*
X572185D03*
Y682815D03*
X562185D03*
Y692815D03*
X572185D03*
X562185Y702815D03*
X572185D03*
X582185Y562815D03*
X592185Y572815D03*
Y562815D03*
X602185D03*
Y572815D03*
X582185Y712815D03*
X592185D03*
X602185D03*
X582185Y722815D03*
X592185D03*
X602185D03*
X612185Y562815D03*
Y572815D03*
X622185D03*
Y562815D03*
X612185Y712815D03*
X622185D03*
X612185Y722815D03*
X622185D03*
X632185Y562815D03*
Y572815D03*
X642185D03*
Y562815D03*
X632185Y712815D03*
X642185D03*
X632185Y722815D03*
X642185D03*
X652185Y562815D03*
Y572815D03*
X662185D03*
Y562815D03*
X672185D03*
Y572815D03*
X652185Y712815D03*
X662185D03*
X672185D03*
X652185Y722815D03*
X662185D03*
X672185D03*
X682185Y572815D03*
Y562815D03*
X692185D03*
Y572815D03*
X682185Y712815D03*
X692185D03*
X682185Y722815D03*
X692185D03*
X702185Y562815D03*
Y572815D03*
X712185Y592815D03*
Y612815D03*
Y602815D03*
Y642815D03*
Y632815D03*
Y622815D03*
Y662815D03*
Y652815D03*
Y682815D03*
Y672815D03*
Y702815D03*
Y692815D03*
X702185Y722815D03*
X722185Y582815D03*
Y592815D03*
Y612815D03*
Y602815D03*
Y642815D03*
Y632815D03*
Y622815D03*
Y662815D03*
Y652815D03*
Y682815D03*
Y672815D03*
Y692815D03*
X903850Y11614D03*
X896850Y36614D03*
X889850Y61614D03*
X1039457D03*
X1053457Y11614D03*
X1046457Y36614D03*
X1226685Y131693D03*
X1219685Y156693D03*
X1212685Y181693D03*
X1226685Y226181D03*
X1219685Y251181D03*
X1212685Y276181D03*
X1245189Y783661D03*
X1238189Y808661D03*
X1231189Y833661D03*
X1245189Y917520D03*
X1238189Y942520D03*
X1231189Y967520D03*
X1297244Y440157D03*
X1290244Y465157D03*
X1297244Y574016D03*
X1290244Y599016D03*
X1304244Y415157D03*
Y549016D03*
X1363299Y783661D03*
X1356299Y808661D03*
X1349299Y833661D03*
X1363299Y917520D03*
X1356299Y942520D03*
X1349299Y967520D03*
G54D107*
X642185Y412815D03*
Y422815D03*
X672185Y412815D03*
X662185D03*
X652185D03*
Y422815D03*
X662185D03*
X672185D03*
G54D14*
X53150Y1031500D03*
X56299D03*
X59449D03*
X62598D03*
X65748D03*
X521654Y1000000D03*
X524803D03*
X527953D03*
X531102D03*
X534252D03*
X1421260D03*
X1424409D03*
X1427559D03*
X1430709D03*
X1433858D03*
Y0D03*
X1430709D03*
X1427559D03*
X1424409D03*
X1421260D03*
X1024409D03*
X1021260D03*
X1018110D03*
X1014961D03*
X1011811D03*
X65748D03*
X62598D03*
X59449D03*
X56299D03*
X53150D03*
G54D109*
X717185Y837815D03*
X699685D03*
X682185D03*
X664685D03*
G54D13*
G01X13465Y1384498D02*
Y1358661D01*
Y1384498D02*
X22077D01*
X25768Y1383268D01*
X28228Y1380807D01*
X29459Y1378346D01*
X30689Y1374656D01*
Y1368504D01*
X29459Y1364813D01*
X28228Y1362352D01*
X25768Y1359892D01*
X22077Y1358661D01*
X13465D01*
X39301Y1384498D02*
Y1358661D01*
Y1384498D02*
X50374D01*
X54065Y1383268D01*
X55295Y1382037D01*
X56526Y1379577D01*
Y1377116D01*
X55295Y1374656D01*
X54065Y1373425D01*
X50374Y1372195D01*
X39301D01*
X47913D02*
X56526Y1358661D01*
X65138Y1384498D02*
Y1358661D01*
X74980Y1384498D02*
Y1358661D01*
Y1358661D02*
X89744D01*
X95896Y1384498D02*
Y1358661D01*
Y1358661D02*
X110659D01*
X142648Y1384498D02*
X132805Y1358661D01*
X142648Y1384498D02*
X152490Y1358661D01*
X136496Y1367274D02*
X148799D01*
X158642Y1384498D02*
Y1358661D01*
Y1384498D02*
X175866Y1358661D01*
Y1384498D02*
Y1358661D01*
X185709Y1384498D02*
Y1358661D01*
Y1384498D02*
X194321D01*
X198012Y1383268D01*
X200472Y1380807D01*
X201703Y1378346D01*
X202933Y1374656D01*
Y1368504D01*
X201703Y1364813D01*
X200472Y1362352D01*
X198012Y1359892D01*
X194321Y1358661D01*
X185709D01*
X247224Y1380807D02*
X244764Y1383268D01*
X241073Y1384498D01*
X236152D01*
X232461Y1383268D01*
X230000Y1380807D01*
Y1378346D01*
X231230Y1375886D01*
X232461Y1374656D01*
X234921Y1373425D01*
X242303Y1370965D01*
X244764Y1369734D01*
X245994Y1368504D01*
X247224Y1366043D01*
Y1362352D01*
X244764Y1359892D01*
X241073Y1358661D01*
X236152D01*
X232461Y1359892D01*
X230000Y1362352D01*
X255837Y1384498D02*
Y1358661D01*
Y1358661D02*
X270600D01*
X282904Y1384498D02*
X280443Y1383268D01*
X277982Y1380807D01*
X276752Y1378346D01*
X275522Y1374656D01*
Y1368504D01*
X276752Y1364813D01*
X277982Y1362352D01*
X280443Y1359892D01*
X282904Y1358661D01*
X287825D01*
X290285Y1359892D01*
X292746Y1362352D01*
X293976Y1364813D01*
X295207Y1368504D01*
Y1374656D01*
X293976Y1378346D01*
X292746Y1380807D01*
X290285Y1383268D01*
X287825Y1384498D01*
X282904D01*
X308740D02*
Y1358661D01*
X300128Y1384498D02*
X317352D01*
X343189D02*
Y1358661D01*
Y1384498D02*
X351801D01*
X355492Y1383268D01*
X357953Y1380807D01*
X359183Y1378346D01*
X360413Y1374656D01*
Y1368504D01*
X359183Y1364813D01*
X357953Y1362352D01*
X355492Y1359892D01*
X351801Y1358661D01*
X343189D01*
X369026Y1384498D02*
Y1358661D01*
Y1384498D02*
X380098D01*
X383789Y1383268D01*
X385020Y1382037D01*
X386250Y1379577D01*
Y1377116D01*
X385020Y1374656D01*
X383789Y1373425D01*
X380098Y1372195D01*
X369026D01*
X377638D02*
X386250Y1358661D01*
X401014Y1384498D02*
X391171Y1358661D01*
X401014Y1384498D02*
X410856Y1358661D01*
X394862Y1367274D02*
X407165D01*
X414547Y1384498D02*
X420699Y1358661D01*
X426850Y1384498D02*
X420699Y1358661D01*
X426850Y1384498D02*
X433002Y1358661D01*
X439154Y1384498D02*
X433002Y1358661D01*
X446535Y1384498D02*
Y1358661D01*
X456378Y1384498D02*
Y1358661D01*
Y1384498D02*
X473602Y1358661D01*
Y1384498D02*
Y1358661D01*
X500669Y1378346D02*
X499439Y1380807D01*
X496978Y1383268D01*
X494518Y1384498D01*
X489596D01*
X487136Y1383268D01*
X484675Y1380807D01*
X483445Y1378346D01*
X482215Y1374656D01*
Y1368504D01*
X483445Y1364813D01*
X484675Y1362352D01*
X487136Y1359892D01*
X489596Y1358661D01*
X494518D01*
X496978Y1359892D01*
X499439Y1362352D01*
X500669Y1364813D01*
Y1368504D01*
X494518D02*
X500669D01*
X576949Y1389419D02*
X574488Y1386959D01*
X572028Y1383268D01*
X569567Y1378346D01*
X568337Y1372195D01*
Y1367274D01*
X569567Y1361122D01*
X572028Y1356201D01*
X574488Y1352510D01*
X576949Y1350049D01*
X605246Y1384498D02*
Y1358661D01*
Y1384498D02*
X621240D01*
X605246Y1372195D02*
X615089D01*
X627392Y1384498D02*
Y1358661D01*
X637234Y1384498D02*
Y1358661D01*
Y1384498D02*
X654459Y1358661D01*
Y1384498D02*
Y1358661D01*
X664301Y1384498D02*
Y1358661D01*
X690138Y1380807D02*
X687677Y1383268D01*
X683986Y1384498D01*
X679065D01*
X675374Y1383268D01*
X672913Y1380807D01*
Y1378346D01*
X674144Y1375886D01*
X675374Y1374656D01*
X677835Y1373425D01*
X685217Y1370965D01*
X687677Y1369734D01*
X688907Y1368504D01*
X690138Y1366043D01*
Y1362352D01*
X687677Y1359892D01*
X683986Y1358661D01*
X679065D01*
X675374Y1359892D01*
X672913Y1362352D01*
X698750Y1384498D02*
Y1358661D01*
X715974Y1384498D02*
Y1358661D01*
X698750Y1372195D02*
X715974D01*
X725817Y1384498D02*
Y1358661D01*
Y1384498D02*
X741811D01*
X725817Y1372195D02*
X735659D01*
X725817Y1358661D02*
X741811D01*
X749193Y1384498D02*
Y1358661D01*
Y1384498D02*
X757805D01*
X761496Y1383268D01*
X763957Y1380807D01*
X765187Y1378346D01*
X766417Y1374656D01*
Y1368504D01*
X765187Y1364813D01*
X763957Y1362352D01*
X761496Y1359892D01*
X757805Y1358661D01*
X749193D01*
X794715Y1384498D02*
Y1358661D01*
Y1384498D02*
X803327D01*
X807018Y1383268D01*
X809478Y1380807D01*
X810709Y1378346D01*
X811939Y1374656D01*
Y1368504D01*
X810709Y1364813D01*
X809478Y1362352D01*
X807018Y1359892D01*
X803327Y1358661D01*
X794715D01*
X820551Y1384498D02*
Y1358661D01*
X836545Y1384498D02*
X826703Y1358661D01*
X836545Y1384498D02*
X846388Y1358661D01*
X830394Y1367274D02*
X842697D01*
X852539Y1384498D02*
Y1358661D01*
Y1384498D02*
X862382Y1358661D01*
X872224Y1384498D02*
X862382Y1358661D01*
X872224Y1384498D02*
Y1358661D01*
X882067Y1384498D02*
Y1358661D01*
Y1384498D02*
X898061D01*
X882067Y1372195D02*
X891909D01*
X882067Y1358661D02*
X898061D01*
X910364Y1384498D02*
Y1358661D01*
X901752Y1384498D02*
X918976D01*
X925128D02*
Y1358661D01*
Y1384498D02*
X941122D01*
X925128Y1372195D02*
X934970D01*
X925128Y1358661D02*
X941122D01*
X948504Y1384498D02*
Y1358661D01*
Y1384498D02*
X959577D01*
X963268Y1383268D01*
X964498Y1382037D01*
X965728Y1379577D01*
Y1377116D01*
X964498Y1374656D01*
X963268Y1373425D01*
X959577Y1372195D01*
X948504D01*
X957116D02*
X965728Y1358661D01*
X990335Y1380807D02*
X987874Y1383268D01*
X984183Y1384498D01*
X979262D01*
X975571Y1383268D01*
X973110Y1380807D01*
Y1378346D01*
X974341Y1375886D01*
X975571Y1374656D01*
X978031Y1373425D01*
X985413Y1370965D01*
X987874Y1369734D01*
X989104Y1368504D01*
X990335Y1366043D01*
Y1362352D01*
X987874Y1359892D01*
X984183Y1358661D01*
X979262D01*
X975571Y1359892D01*
X973110Y1362352D01*
X1017402Y1389419D02*
X1019862Y1386959D01*
X1022323Y1383268D01*
X1024783Y1378346D01*
X1026014Y1372195D01*
Y1367274D01*
X1024783Y1361122D01*
X1022323Y1356201D01*
X1019862Y1352510D01*
X1017402Y1350049D01*
G01X15787Y-74281D02*
Y-100118D01*
Y-74281D02*
X25630Y-100118D01*
X35472Y-74281D02*
X25630Y-100118D01*
X35472Y-74281D02*
Y-100118D01*
X51467Y-74281D02*
X41624Y-100118D01*
X51467Y-74281D02*
X61309Y-100118D01*
X45315Y-91506D02*
X57618D01*
X72382Y-74281D02*
Y-100118D01*
X63770Y-74281D02*
X80994D01*
X87146D02*
Y-100118D01*
Y-74281D02*
X103140D01*
X87146Y-86585D02*
X96988D01*
X87146Y-100118D02*
X103140D01*
X110522Y-74281D02*
Y-100118D01*
Y-74281D02*
X121594D01*
X125285Y-75512D01*
X126516Y-76742D01*
X127746Y-79203D01*
Y-81663D01*
X126516Y-84124D01*
X125285Y-85354D01*
X121594Y-86585D01*
X110522D01*
X119134D02*
X127746Y-100118D01*
X136358Y-74281D02*
Y-100118D01*
X152352Y-74281D02*
X142510Y-100118D01*
X152352Y-74281D02*
X162195Y-100118D01*
X146201Y-91506D02*
X158504D01*
X168346Y-74281D02*
Y-100118D01*
Y-100118D02*
X183110D01*
X208947Y-74281D02*
Y-100118D01*
Y-74281D02*
X224941D01*
X208947Y-86585D02*
X218789D01*
X231093Y-74281D02*
Y-100118D01*
Y-74281D02*
X242165D01*
X245856Y-75512D01*
X247087Y-76742D01*
X248317Y-79203D01*
Y-81663D01*
X247087Y-84124D01*
X245856Y-85354D01*
X242165Y-86585D01*
X231093D01*
X239705D02*
X248317Y-100118D01*
X268002Y-74281D02*
X255699Y-91506D01*
X274154D01*
X268002Y-74281D02*
Y-100118D01*
X301220Y-80433D02*
Y-79203D01*
X302451Y-76742D01*
X303681Y-75512D01*
X306142Y-74281D01*
X311063D01*
X313524Y-75512D01*
X314754Y-76742D01*
X315984Y-79203D01*
Y-81663D01*
X314754Y-84124D01*
X312293Y-87815D01*
X299990Y-100118D01*
X317215D01*
X345512Y-74281D02*
Y-100118D01*
Y-100118D02*
X360276D01*
X372579Y-74281D02*
X362736Y-100118D01*
X372579Y-74281D02*
X382421Y-100118D01*
X366427Y-91506D02*
X378730D01*
X384882Y-74281D02*
X394724Y-86585D01*
Y-100118D01*
X404567Y-74281D02*
X394724Y-86585D01*
X410719Y-74281D02*
Y-100118D01*
Y-74281D02*
X426713D01*
X410719Y-86585D02*
X420561D01*
X410719Y-100118D02*
X426713D01*
X434094Y-74281D02*
Y-100118D01*
Y-74281D02*
X445167D01*
X448858Y-75512D01*
X450089Y-76742D01*
X451319Y-79203D01*
Y-81663D01*
X450089Y-84124D01*
X448858Y-85354D01*
X445167Y-86585D01*
X434094D01*
X442707D02*
X451319Y-100118D01*
X484537Y-74281D02*
Y-100118D01*
X475925Y-74281D02*
X493150D01*
X499301D02*
Y-100118D01*
X516526Y-74281D02*
Y-100118D01*
X499301Y-86585D02*
X516526D01*
X526368Y-74281D02*
Y-100118D01*
X553435Y-80433D02*
X552205Y-77972D01*
X549744Y-75512D01*
X547283Y-74281D01*
X542362D01*
X539902Y-75512D01*
X537441Y-77972D01*
X536211Y-80433D01*
X534980Y-84124D01*
Y-90276D01*
X536211Y-93967D01*
X537441Y-96427D01*
X539902Y-98888D01*
X542362Y-100118D01*
X547283D01*
X549744Y-98888D01*
X552205Y-96427D01*
X553435Y-93967D01*
X562047Y-74281D02*
Y-100118D01*
X579272Y-74281D02*
X562047Y-91506D01*
X568199Y-85354D02*
X579272Y-100118D01*
X587884Y-74281D02*
Y-100118D01*
Y-74281D02*
X605108Y-100118D01*
Y-74281D02*
Y-100118D01*
X614951Y-74281D02*
Y-100118D01*
Y-74281D02*
X630945D01*
X614951Y-86585D02*
X624793D01*
X614951Y-100118D02*
X630945D01*
X654321Y-77972D02*
X651860Y-75512D01*
X648169Y-74281D01*
X643248D01*
X639557Y-75512D01*
X637096Y-77972D01*
Y-80433D01*
X638327Y-82894D01*
X639557Y-84124D01*
X642018Y-85354D01*
X649400Y-87815D01*
X651860Y-89045D01*
X653091Y-90276D01*
X654321Y-92736D01*
Y-96427D01*
X651860Y-98888D01*
X648169Y-100118D01*
X643248D01*
X639557Y-98888D01*
X637096Y-96427D01*
X678927Y-77972D02*
X676467Y-75512D01*
X672776Y-74281D01*
X667854D01*
X664163Y-75512D01*
X661703Y-77972D01*
Y-80433D01*
X662933Y-82894D01*
X664163Y-84124D01*
X666624Y-85354D01*
X674006Y-87815D01*
X676467Y-89045D01*
X677697Y-90276D01*
X678927Y-92736D01*
Y-96427D01*
X676467Y-98888D01*
X672776Y-100118D01*
X667854D01*
X664163Y-98888D01*
X661703Y-96427D01*
X709685Y-79203D02*
X712146Y-77972D01*
X715837Y-74281D01*
Y-100118D01*
X733061Y-97657D02*
X731831Y-98888D01*
X733061Y-100118D01*
X734291Y-98888D01*
X733061Y-97657D01*
X758898Y-77972D02*
X757667Y-75512D01*
X753976Y-74281D01*
X751516D01*
X747825Y-75512D01*
X745364Y-79203D01*
X744134Y-85354D01*
Y-91506D01*
X745364Y-96427D01*
X747825Y-98888D01*
X751516Y-100118D01*
X752746D01*
X756437Y-98888D01*
X758898Y-96427D01*
X760128Y-92736D01*
Y-91506D01*
X758898Y-87815D01*
X756437Y-85354D01*
X752746Y-84124D01*
X751516D01*
X747825Y-85354D01*
X745364Y-87815D01*
X744134Y-91506D01*
X788425Y-82894D02*
Y-100118D01*
Y-87815D02*
X792116Y-84124D01*
X794577Y-82894D01*
X798268D01*
X800728Y-84124D01*
X801959Y-87815D01*
Y-100118D01*
Y-87815D02*
X805650Y-84124D01*
X808110Y-82894D01*
X811801D01*
X814262Y-84124D01*
X815492Y-87815D01*
Y-100118D01*
X825335Y-82894D02*
Y-100118D01*
Y-87815D02*
X829026Y-84124D01*
X831486Y-82894D01*
X835177D01*
X837638Y-84124D01*
X838868Y-87815D01*
Y-100118D01*
Y-87815D02*
X842559Y-84124D01*
X845020Y-82894D01*
X848711D01*
X851171Y-84124D01*
X852402Y-87815D01*
Y-100118D01*
X31781Y-119311D02*
X29321Y-116850D01*
X25630Y-115620D01*
X20709D01*
X17018Y-116850D01*
X14557Y-119311D01*
Y-121772D01*
X15787Y-124232D01*
X17018Y-125463D01*
X19478Y-126693D01*
X26860Y-129154D01*
X29321Y-130384D01*
X30551Y-131614D01*
X31781Y-134075D01*
Y-137766D01*
X29321Y-140226D01*
X25630Y-141457D01*
X20709D01*
X17018Y-140226D01*
X14557Y-137766D01*
X40394Y-115620D02*
Y-134075D01*
X41624Y-137766D01*
X44085Y-140226D01*
X47776Y-141457D01*
X50236D01*
X53927Y-140226D01*
X56388Y-137766D01*
X57618Y-134075D01*
Y-115620D01*
X67461D02*
Y-141457D01*
Y-115620D02*
X78533D01*
X82224Y-116850D01*
X83455Y-118081D01*
X84685Y-120541D01*
Y-123002D01*
X83455Y-125463D01*
X82224Y-126693D01*
X78533Y-127923D01*
X67461D01*
X76073D02*
X84685Y-141457D01*
X93297Y-115620D02*
Y-141457D01*
Y-115620D02*
X109291D01*
X93297Y-127923D02*
X103140D01*
X121594Y-115620D02*
X111752Y-141457D01*
X121594Y-115620D02*
X131437Y-141457D01*
X115443Y-132844D02*
X127746D01*
X154813Y-121772D02*
X153583Y-119311D01*
X151122Y-116850D01*
X148661Y-115620D01*
X143740D01*
X141280Y-116850D01*
X138819Y-119311D01*
X137589Y-121772D01*
X136358Y-125463D01*
Y-131614D01*
X137589Y-135305D01*
X138819Y-137766D01*
X141280Y-140226D01*
X143740Y-141457D01*
X148661D01*
X151122Y-140226D01*
X153583Y-137766D01*
X154813Y-135305D01*
X163425Y-115620D02*
Y-141457D01*
Y-115620D02*
X179419D01*
X163425Y-127923D02*
X173268D01*
X163425Y-141457D02*
X179419D01*
X211407Y-115620D02*
Y-141457D01*
X202795Y-115620D02*
X220020D01*
X226171D02*
Y-141457D01*
Y-115620D02*
X237244D01*
X240935Y-116850D01*
X242165Y-118081D01*
X243396Y-120541D01*
Y-123002D01*
X242165Y-125463D01*
X240935Y-126693D01*
X237244Y-127923D01*
X226171D01*
X234783D02*
X243396Y-141457D01*
X252008Y-115620D02*
Y-141457D01*
Y-115620D02*
X268002D01*
X252008Y-127923D02*
X261850D01*
X252008Y-141457D02*
X268002D01*
X281535Y-115620D02*
X271693Y-141457D01*
X281535Y-115620D02*
X291378Y-141457D01*
X275384Y-132844D02*
X287687D01*
X302451Y-115620D02*
Y-141457D01*
X293839Y-115620D02*
X311063D01*
X317215D02*
Y-141457D01*
Y-115620D02*
X327057Y-141457D01*
X336900Y-115620D02*
X327057Y-141457D01*
X336900Y-115620D02*
Y-141457D01*
X346742Y-115620D02*
Y-141457D01*
Y-115620D02*
X362736D01*
X346742Y-127923D02*
X356585D01*
X346742Y-141457D02*
X362736D01*
X370118Y-115620D02*
Y-141457D01*
Y-115620D02*
X387343Y-141457D01*
Y-115620D02*
Y-141457D01*
X402106Y-115620D02*
Y-141457D01*
X393494Y-115620D02*
X410719D01*
X456240D02*
Y-141457D01*
Y-115620D02*
X473465Y-141457D01*
Y-115620D02*
Y-141457D01*
X482077Y-115620D02*
X483307Y-116850D01*
X484537Y-115620D01*
X483307Y-114390D01*
X482077Y-115620D01*
X483307Y-124232D02*
Y-141457D01*
X505453Y-116850D02*
X491919Y-142687D01*
X526368Y-115620D02*
X516526Y-141457D01*
X526368Y-115620D02*
X536211Y-141457D01*
X520217Y-132844D02*
X532520D01*
X542362Y-124232D02*
Y-136535D01*
X543593Y-140226D01*
X546053Y-141457D01*
X549744D01*
X552205Y-140226D01*
X555896Y-136535D01*
Y-124232D02*
Y-141457D01*
X602648Y-121772D02*
X601417Y-119311D01*
X598957Y-116850D01*
X596496Y-115620D01*
X591575D01*
X589114Y-116850D01*
X586654Y-119311D01*
X585423Y-121772D01*
X584193Y-125463D01*
Y-131614D01*
X585423Y-135305D01*
X586654Y-137766D01*
X589114Y-140226D01*
X591575Y-141457D01*
X596496D01*
X598957Y-140226D01*
X601417Y-137766D01*
X602648Y-135305D01*
X611260Y-115620D02*
Y-141457D01*
X628484Y-115620D02*
Y-141457D01*
X611260Y-127923D02*
X628484D01*
X638327Y-115620D02*
Y-141457D01*
Y-115620D02*
X654321D01*
X638327Y-127923D02*
X648169D01*
X638327Y-141457D02*
X654321D01*
X661703Y-115620D02*
Y-141457D01*
Y-115620D02*
X671545Y-141457D01*
X681388Y-115620D02*
X671545Y-141457D01*
X681388Y-115620D02*
Y-141457D01*
X691230Y-115620D02*
Y-141457D01*
X718297Y-121772D02*
X717067Y-119311D01*
X714606Y-116850D01*
X712146Y-115620D01*
X707224D01*
X704764Y-116850D01*
X702303Y-119311D01*
X701073Y-121772D01*
X699843Y-125463D01*
Y-131614D01*
X701073Y-135305D01*
X702303Y-137766D01*
X704764Y-140226D01*
X707224Y-141457D01*
X712146D01*
X714606Y-140226D01*
X717067Y-137766D01*
X718297Y-135305D01*
X733061Y-115620D02*
X723219Y-141457D01*
X733061Y-115620D02*
X742904Y-141457D01*
X726909Y-132844D02*
X739213D01*
X749055Y-115620D02*
Y-141457D01*
Y-141457D02*
X763819D01*
X15787Y-156959D02*
Y-182795D01*
Y-156959D02*
X26860D01*
X30551Y-158189D01*
X31781Y-159419D01*
X33012Y-161880D01*
Y-164341D01*
X31781Y-166801D01*
X30551Y-168031D01*
X26860Y-169262D01*
X15787D02*
X26860D01*
X30551Y-170492D01*
X31781Y-171722D01*
X33012Y-174183D01*
Y-177874D01*
X31781Y-180335D01*
X30551Y-181565D01*
X26860Y-182795D01*
X15787D01*
X47776Y-156959D02*
X37933Y-182795D01*
X47776Y-156959D02*
X57618Y-182795D01*
X41624Y-174183D02*
X53927D01*
X79764Y-160650D02*
X77303Y-158189D01*
X73612Y-156959D01*
X68691D01*
X65000Y-158189D01*
X62539Y-160650D01*
Y-163110D01*
X63770Y-165571D01*
X65000Y-166801D01*
X67461Y-168031D01*
X74843Y-170492D01*
X77303Y-171722D01*
X78533Y-172953D01*
X79764Y-175413D01*
Y-179104D01*
X77303Y-181565D01*
X73612Y-182795D01*
X68691D01*
X65000Y-181565D01*
X62539Y-179104D01*
X88376Y-156959D02*
Y-182795D01*
Y-156959D02*
X104370D01*
X88376Y-169262D02*
X98219D01*
X88376Y-182795D02*
X104370D01*
X148661Y-163110D02*
X147431Y-160650D01*
X144970Y-158189D01*
X142510Y-156959D01*
X137589D01*
X135128Y-158189D01*
X132667Y-160650D01*
X131437Y-163110D01*
X130207Y-166801D01*
Y-172953D01*
X131437Y-176644D01*
X132667Y-179104D01*
X135128Y-181565D01*
X137589Y-182795D01*
X142510D01*
X144970Y-181565D01*
X147431Y-179104D01*
X148661Y-176644D01*
X163425Y-156959D02*
X160965Y-158189D01*
X158504Y-160650D01*
X157274Y-163110D01*
X156043Y-166801D01*
Y-172953D01*
X157274Y-176644D01*
X158504Y-179104D01*
X160965Y-181565D01*
X163425Y-182795D01*
X168346D01*
X170807Y-181565D01*
X173268Y-179104D01*
X174498Y-176644D01*
X175728Y-172953D01*
Y-166801D01*
X174498Y-163110D01*
X173268Y-160650D01*
X170807Y-158189D01*
X168346Y-156959D01*
X163425D01*
X184341D02*
Y-182795D01*
Y-156959D02*
X195413D01*
X199104Y-158189D01*
X200335Y-159419D01*
X201565Y-161880D01*
Y-165571D01*
X200335Y-168031D01*
X199104Y-169262D01*
X195413Y-170492D01*
X184341D01*
X210177Y-156959D02*
Y-182795D01*
Y-156959D02*
X221250D01*
X224941Y-158189D01*
X226171Y-159419D01*
X227402Y-161880D01*
Y-165571D01*
X226171Y-168031D01*
X224941Y-169262D01*
X221250Y-170492D01*
X210177D01*
X236014Y-156959D02*
Y-182795D01*
Y-156959D02*
X252008D01*
X236014Y-169262D02*
X245856D01*
X236014Y-182795D02*
X252008D01*
X259390Y-156959D02*
Y-182795D01*
Y-156959D02*
X270463D01*
X274154Y-158189D01*
X275384Y-159419D01*
X276614Y-161880D01*
Y-164341D01*
X275384Y-166801D01*
X274154Y-168031D01*
X270463Y-169262D01*
X259390D01*
X268002D02*
X276614Y-182795D01*
X306142Y-156959D02*
X319675D01*
X312293Y-166801D01*
X315984D01*
X318445Y-168031D01*
X319675Y-169262D01*
X320906Y-172953D01*
Y-175413D01*
X319675Y-179104D01*
X317215Y-181565D01*
X313524Y-182795D01*
X309833D01*
X306142Y-181565D01*
X304911Y-180335D01*
X303681Y-177874D01*
X343051Y-156959D02*
X330748D01*
X329518Y-168031D01*
X330748Y-166801D01*
X334439Y-165571D01*
X338130D01*
X341821Y-166801D01*
X344281Y-169262D01*
X345512Y-172953D01*
Y-175413D01*
X344281Y-179104D01*
X341821Y-181565D01*
X338130Y-182795D01*
X334439D01*
X330748Y-181565D01*
X329518Y-180335D01*
X328287Y-177874D01*
X373809Y-165571D02*
Y-177874D01*
X375039Y-181565D01*
X377500Y-182795D01*
X381191D01*
X383652Y-181565D01*
X387343Y-177874D01*
Y-165571D02*
Y-182795D01*
X397185Y-165571D02*
Y-182795D01*
Y-170492D02*
X400876Y-166801D01*
X403337Y-165571D01*
X407028D01*
X409488Y-166801D01*
X410719Y-170492D01*
Y-182795D01*
Y-170492D02*
X414409Y-166801D01*
X416870Y-165571D01*
X420561D01*
X423022Y-166801D01*
X424252Y-170492D01*
Y-182795D01*
X479616Y-156959D02*
X469774Y-182795D01*
X479616Y-156959D02*
X489459Y-182795D01*
X473465Y-174183D02*
X485768D01*
X495610Y-156959D02*
Y-182795D01*
Y-156959D02*
X511604D01*
X495610Y-169262D02*
X505453D01*
X522677Y-156959D02*
Y-182795D01*
X514065Y-156959D02*
X531289D01*
X537441D02*
Y-182795D01*
Y-156959D02*
X553435D01*
X537441Y-169262D02*
X547283D01*
X537441Y-182795D02*
X553435D01*
X560817Y-156959D02*
Y-182795D01*
Y-156959D02*
X571890D01*
X575581Y-158189D01*
X576811Y-159419D01*
X578041Y-161880D01*
Y-164341D01*
X576811Y-166801D01*
X575581Y-168031D01*
X571890Y-169262D01*
X560817D01*
X569429D02*
X578041Y-182795D01*
X623563Y-163110D02*
X622333Y-160650D01*
X619872Y-158189D01*
X617411Y-156959D01*
X612490D01*
X610030Y-158189D01*
X607569Y-160650D01*
X606339Y-163110D01*
X605108Y-166801D01*
Y-172953D01*
X606339Y-176644D01*
X607569Y-179104D01*
X610030Y-181565D01*
X612490Y-182795D01*
X617411D01*
X619872Y-181565D01*
X622333Y-179104D01*
X623563Y-176644D01*
Y-172953D01*
X617411D02*
X623563D01*
X638327Y-156959D02*
X628484Y-182795D01*
X638327Y-156959D02*
X648169Y-182795D01*
X632175Y-174183D02*
X644478D01*
X654321Y-156959D02*
Y-182795D01*
Y-182795D02*
X669085D01*
X671545Y-156959D02*
X681388Y-182795D01*
X691230Y-156959D02*
X681388Y-182795D01*
X703533Y-156959D02*
X693691Y-182795D01*
X703533Y-156959D02*
X713376Y-182795D01*
X697382Y-174183D02*
X709685D01*
X719528Y-156959D02*
Y-182795D01*
Y-156959D02*
X736752Y-182795D01*
Y-156959D02*
Y-182795D01*
X746594Y-156959D02*
Y-182795D01*
X773661Y-163110D02*
X772431Y-160650D01*
X769970Y-158189D01*
X767510Y-156959D01*
X762589D01*
X760128Y-158189D01*
X757667Y-160650D01*
X756437Y-163110D01*
X755207Y-166801D01*
Y-172953D01*
X756437Y-176644D01*
X757667Y-179104D01*
X760128Y-181565D01*
X762589Y-182795D01*
X767510D01*
X769970Y-181565D01*
X772431Y-179104D01*
X773661Y-176644D01*
X801959Y-156959D02*
Y-182795D01*
Y-156959D02*
X813031D01*
X816722Y-158189D01*
X817953Y-159419D01*
X819183Y-161880D01*
Y-164341D01*
X817953Y-166801D01*
X816722Y-168031D01*
X813031Y-169262D01*
X801959D02*
X813031D01*
X816722Y-170492D01*
X817953Y-171722D01*
X819183Y-174183D01*
Y-177874D01*
X817953Y-180335D01*
X816722Y-181565D01*
X813031Y-182795D01*
X801959D01*
X827795Y-156959D02*
Y-175413D01*
X829026Y-179104D01*
X831486Y-181565D01*
X835177Y-182795D01*
X837638D01*
X841329Y-181565D01*
X843789Y-179104D01*
X845020Y-175413D01*
Y-156959D01*
X854862D02*
Y-182795D01*
Y-182795D02*
X869626D01*
X893002Y-163110D02*
X891772Y-160650D01*
X889311Y-158189D01*
X886850Y-156959D01*
X881929D01*
X879469Y-158189D01*
X877008Y-160650D01*
X875778Y-163110D01*
X874547Y-166801D01*
Y-172953D01*
X875778Y-176644D01*
X877008Y-179104D01*
X879469Y-181565D01*
X881929Y-182795D01*
X886850D01*
X889311Y-181565D01*
X891772Y-179104D01*
X893002Y-176644D01*
Y-172953D01*
X886850D02*
X893002D01*
X901614Y-156959D02*
Y-182795D01*
Y-156959D02*
X917608D01*
X901614Y-169262D02*
X911457D01*
X901614Y-182795D02*
X917608D01*
X944675Y-156959D02*
Y-182795D01*
Y-156959D02*
X954518Y-182795D01*
X964360Y-156959D02*
X954518Y-182795D01*
X964360Y-156959D02*
Y-182795D01*
X974203Y-156959D02*
Y-182795D01*
X984045Y-156959D02*
Y-182795D01*
Y-156959D02*
X1001270Y-182795D01*
Y-156959D02*
Y-182795D01*
X1011112Y-156959D02*
Y-182795D01*
X1020955Y-156959D02*
Y-182795D01*
Y-156959D02*
X1030797Y-182795D01*
X1040640Y-156959D02*
X1030797Y-182795D01*
X1040640Y-156959D02*
Y-182795D01*
X1050482Y-156959D02*
Y-175413D01*
X1051713Y-179104D01*
X1054173Y-181565D01*
X1057864Y-182795D01*
X1060325D01*
X1064016Y-181565D01*
X1066476Y-179104D01*
X1067707Y-175413D01*
Y-156959D01*
X1077549D02*
Y-182795D01*
Y-156959D02*
X1087392Y-182795D01*
X1097234Y-156959D02*
X1087392Y-182795D01*
X1097234Y-156959D02*
Y-182795D01*
X1140295Y-156959D02*
X1127992D01*
X1126762Y-168031D01*
X1127992Y-166801D01*
X1131683Y-165571D01*
X1135374D01*
X1139065Y-166801D01*
X1141526Y-169262D01*
X1142756Y-172953D01*
Y-175413D01*
X1141526Y-179104D01*
X1139065Y-181565D01*
X1135374Y-182795D01*
X1131683D01*
X1127992Y-181565D01*
X1126762Y-180335D01*
X1125531Y-177874D01*
X1157520Y-156959D02*
X1153829Y-158189D01*
X1151368Y-161880D01*
X1150138Y-168031D01*
Y-171722D01*
X1151368Y-177874D01*
X1153829Y-181565D01*
X1157520Y-182795D01*
X1159980D01*
X1163671Y-181565D01*
X1166132Y-177874D01*
X1167362Y-171722D01*
Y-168031D01*
X1166132Y-161880D01*
X1163671Y-158189D01*
X1159980Y-156959D01*
X1157520D01*
X1195659Y-165571D02*
Y-177874D01*
X1196890Y-181565D01*
X1199350Y-182795D01*
X1203041D01*
X1205502Y-181565D01*
X1209193Y-177874D01*
Y-165571D02*
Y-182795D01*
X1219035Y-165571D02*
Y-182795D01*
Y-170492D02*
X1222726Y-166801D01*
X1225187Y-165571D01*
X1228878D01*
X1231339Y-166801D01*
X1232569Y-170492D01*
Y-182795D01*
Y-170492D02*
X1236260Y-166801D01*
X1238720Y-165571D01*
X1242411D01*
X1244872Y-166801D01*
X1246102Y-170492D01*
Y-182795D01*
X15787Y-198297D02*
Y-224134D01*
Y-198297D02*
X25630Y-224134D01*
X35472Y-198297D02*
X25630Y-224134D01*
X35472Y-198297D02*
Y-224134D01*
X45315Y-198297D02*
Y-224134D01*
Y-198297D02*
X61309D01*
X45315Y-210600D02*
X55157D01*
X45315Y-224134D02*
X61309D01*
X85915Y-204449D02*
X84685Y-201988D01*
X82224Y-199528D01*
X79764Y-198297D01*
X74843D01*
X72382Y-199528D01*
X69921Y-201988D01*
X68691Y-204449D01*
X67461Y-208140D01*
Y-214291D01*
X68691Y-217982D01*
X69921Y-220443D01*
X72382Y-222904D01*
X74843Y-224134D01*
X79764D01*
X82224Y-222904D01*
X84685Y-220443D01*
X85915Y-217982D01*
X94528Y-198297D02*
Y-224134D01*
X111752Y-198297D02*
Y-224134D01*
X94528Y-210600D02*
X111752D01*
X127746Y-198297D02*
X117904Y-224134D01*
X127746Y-198297D02*
X137589Y-224134D01*
X121594Y-215522D02*
X133898D01*
X143740Y-198297D02*
Y-224134D01*
Y-198297D02*
X160965Y-224134D01*
Y-198297D02*
Y-224134D01*
X170807Y-198297D02*
Y-224134D01*
X197874Y-204449D02*
X196644Y-201988D01*
X194183Y-199528D01*
X191722Y-198297D01*
X186801D01*
X184341Y-199528D01*
X181880Y-201988D01*
X180650Y-204449D01*
X179419Y-208140D01*
Y-214291D01*
X180650Y-217982D01*
X181880Y-220443D01*
X184341Y-222904D01*
X186801Y-224134D01*
X191722D01*
X194183Y-222904D01*
X196644Y-220443D01*
X197874Y-217982D01*
X212638Y-198297D02*
X202795Y-224134D01*
X212638Y-198297D02*
X222480Y-224134D01*
X206486Y-215522D02*
X218789D01*
X228632Y-198297D02*
Y-224134D01*
Y-224134D02*
X243396D01*
X265541Y-201988D02*
X263081Y-199528D01*
X259390Y-198297D01*
X254469D01*
X250778Y-199528D01*
X248317Y-201988D01*
Y-204449D01*
X249547Y-206909D01*
X250778Y-208140D01*
X253238Y-209370D01*
X260620Y-211831D01*
X263081Y-213061D01*
X264311Y-214291D01*
X265541Y-216752D01*
Y-220443D01*
X263081Y-222904D01*
X259390Y-224134D01*
X254469D01*
X250778Y-222904D01*
X248317Y-220443D01*
X298760Y-198297D02*
Y-224134D01*
X290148Y-198297D02*
X307372D01*
X319675D02*
X317215Y-199528D01*
X314754Y-201988D01*
X313524Y-204449D01*
X312293Y-208140D01*
Y-214291D01*
X313524Y-217982D01*
X314754Y-220443D01*
X317215Y-222904D01*
X319675Y-224134D01*
X324596D01*
X327057Y-222904D01*
X329518Y-220443D01*
X330748Y-217982D01*
X331978Y-214291D01*
Y-208140D01*
X330748Y-204449D01*
X329518Y-201988D01*
X327057Y-199528D01*
X324596Y-198297D01*
X319675D01*
X340591D02*
Y-224134D01*
Y-224134D02*
X355354D01*
X361506Y-198297D02*
Y-224134D01*
Y-198297D02*
X377500D01*
X361506Y-210600D02*
X371348D01*
X361506Y-224134D02*
X377500D01*
X384882Y-198297D02*
Y-224134D01*
Y-198297D02*
X395955D01*
X399646Y-199528D01*
X400876Y-200758D01*
X402106Y-203219D01*
Y-205679D01*
X400876Y-208140D01*
X399646Y-209370D01*
X395955Y-210600D01*
X384882D01*
X393494D02*
X402106Y-224134D01*
X416870Y-198297D02*
X407028Y-224134D01*
X416870Y-198297D02*
X426713Y-224134D01*
X410719Y-215522D02*
X423022D01*
X432864Y-198297D02*
Y-224134D01*
Y-198297D02*
X450089Y-224134D01*
Y-198297D02*
Y-224134D01*
X477156Y-204449D02*
X475925Y-201988D01*
X473465Y-199528D01*
X471004Y-198297D01*
X466083D01*
X463622Y-199528D01*
X461161Y-201988D01*
X459931Y-204449D01*
X458701Y-208140D01*
Y-214291D01*
X459931Y-217982D01*
X461161Y-220443D01*
X463622Y-222904D01*
X466083Y-224134D01*
X471004D01*
X473465Y-222904D01*
X475925Y-220443D01*
X477156Y-217982D01*
X485768Y-198297D02*
Y-224134D01*
Y-198297D02*
X501762D01*
X485768Y-210600D02*
X495610D01*
X485768Y-224134D02*
X501762D01*
X525138Y-201988D02*
X522677Y-199528D01*
X518986Y-198297D01*
X514065D01*
X510374Y-199528D01*
X507913Y-201988D01*
Y-204449D01*
X509144Y-206909D01*
X510374Y-208140D01*
X512835Y-209370D01*
X520217Y-211831D01*
X522677Y-213061D01*
X523907Y-214291D01*
X525138Y-216752D01*
Y-220443D01*
X522677Y-222904D01*
X518986Y-224134D01*
X514065D01*
X510374Y-222904D01*
X507913Y-220443D01*
X564508Y-201988D02*
Y-224134D01*
X553435Y-213061D02*
X575581D01*
X597726Y-199528D02*
X584193Y-225364D01*
X612490Y-213061D02*
X634636D01*
X670315Y-198297D02*
X666624Y-199528D01*
X664163Y-203219D01*
X662933Y-209370D01*
Y-213061D01*
X664163Y-219213D01*
X666624Y-222904D01*
X670315Y-224134D01*
X672776D01*
X676467Y-222904D01*
X678927Y-219213D01*
X680157Y-213061D01*
Y-209370D01*
X678927Y-203219D01*
X676467Y-199528D01*
X672776Y-198297D01*
X670315D01*
X690000Y-221673D02*
X688770Y-222904D01*
X690000Y-224134D01*
X691230Y-222904D01*
X690000Y-221673D01*
X703533Y-203219D02*
X705994Y-201988D01*
X709685Y-198297D01*
Y-224134D01*
X725679Y-206909D02*
Y-224134D01*
Y-211831D02*
X729370Y-208140D01*
X731831Y-206909D01*
X735522D01*
X737982Y-208140D01*
X739213Y-211831D01*
Y-224134D01*
Y-211831D02*
X742904Y-208140D01*
X745364Y-206909D01*
X749055D01*
X751516Y-208140D01*
X752746Y-211831D01*
Y-224134D01*
X762589Y-206909D02*
Y-224134D01*
Y-211831D02*
X766280Y-208140D01*
X768740Y-206909D01*
X772431D01*
X774892Y-208140D01*
X776122Y-211831D01*
Y-224134D01*
Y-211831D02*
X779813Y-208140D01*
X782274Y-206909D01*
X785965D01*
X788425Y-208140D01*
X789656Y-211831D01*
Y-224134D01*
X15787Y-239636D02*
Y-265472D01*
X25630Y-239636D02*
Y-265472D01*
Y-239636D02*
X36703D01*
X40394Y-240866D01*
X41624Y-242096D01*
X42854Y-244557D01*
Y-248248D01*
X41624Y-250709D01*
X40394Y-251939D01*
X36703Y-253169D01*
X25630D01*
X68691Y-245787D02*
X67461Y-243327D01*
X65000Y-240866D01*
X62539Y-239636D01*
X57618D01*
X55157Y-240866D01*
X52697Y-243327D01*
X51467Y-245787D01*
X50236Y-249478D01*
Y-255630D01*
X51467Y-259321D01*
X52697Y-261781D01*
X55157Y-264242D01*
X57618Y-265472D01*
X62539D01*
X65000Y-264242D01*
X67461Y-261781D01*
X68691Y-259321D01*
X77303Y-254400D02*
X99449D01*
X115443Y-239636D02*
X105600Y-265472D01*
X115443Y-239636D02*
X125285Y-265472D01*
X109291Y-256860D02*
X121594D01*
X131437Y-254400D02*
X153583D01*
X178189Y-243327D02*
X176959Y-240866D01*
X173268Y-239636D01*
X170807D01*
X167116Y-240866D01*
X164656Y-244557D01*
X163425Y-250709D01*
Y-256860D01*
X164656Y-261781D01*
X167116Y-264242D01*
X170807Y-265472D01*
X172037D01*
X175728Y-264242D01*
X178189Y-261781D01*
X179419Y-258091D01*
Y-256860D01*
X178189Y-253169D01*
X175728Y-250709D01*
X172037Y-249478D01*
X170807D01*
X167116Y-250709D01*
X164656Y-253169D01*
X163425Y-256860D01*
X194183Y-239636D02*
X190492Y-240866D01*
X188031Y-244557D01*
X186801Y-250709D01*
Y-254400D01*
X188031Y-260551D01*
X190492Y-264242D01*
X194183Y-265472D01*
X196644D01*
X200335Y-264242D01*
X202795Y-260551D01*
X204026Y-254400D01*
Y-250709D01*
X202795Y-244557D01*
X200335Y-240866D01*
X196644Y-239636D01*
X194183D01*
X218789D02*
X215098Y-240866D01*
X212638Y-244557D01*
X211407Y-250709D01*
Y-254400D01*
X212638Y-260551D01*
X215098Y-264242D01*
X218789Y-265472D01*
X221250D01*
X224941Y-264242D01*
X227402Y-260551D01*
X228632Y-254400D01*
Y-250709D01*
X227402Y-244557D01*
X224941Y-240866D01*
X221250Y-239636D01*
X218789D01*
X254469Y-245787D02*
X253238Y-243327D01*
X250778Y-240866D01*
X248317Y-239636D01*
X243396D01*
X240935Y-240866D01*
X238474Y-243327D01*
X237244Y-245787D01*
X236014Y-249478D01*
Y-255630D01*
X237244Y-259321D01*
X238474Y-261781D01*
X240935Y-264242D01*
X243396Y-265472D01*
X248317D01*
X250778Y-264242D01*
X253238Y-261781D01*
X254469Y-259321D01*
Y-255630D01*
X248317D02*
X254469D01*
X299990Y-245787D02*
X298760Y-243327D01*
X296299Y-240866D01*
X293839Y-239636D01*
X288917D01*
X286457Y-240866D01*
X283996Y-243327D01*
X282766Y-245787D01*
X281535Y-249478D01*
Y-255630D01*
X282766Y-259321D01*
X283996Y-261781D01*
X286457Y-264242D01*
X288917Y-265472D01*
X293839D01*
X296299Y-264242D01*
X298760Y-261781D01*
X299990Y-259321D01*
X308602Y-239636D02*
Y-265472D01*
Y-265472D02*
X323366D01*
X335669Y-239636D02*
X325827Y-265472D01*
X335669Y-239636D02*
X345512Y-265472D01*
X329518Y-256860D02*
X341821D01*
X367657Y-243327D02*
X365197Y-240866D01*
X361506Y-239636D01*
X356585D01*
X352894Y-240866D01*
X350433Y-243327D01*
Y-245787D01*
X351663Y-248248D01*
X352894Y-249478D01*
X355354Y-250709D01*
X362736Y-253169D01*
X365197Y-254400D01*
X366427Y-255630D01*
X367657Y-258091D01*
Y-261781D01*
X365197Y-264242D01*
X361506Y-265472D01*
X356585D01*
X352894Y-264242D01*
X350433Y-261781D01*
X392264Y-243327D02*
X389803Y-240866D01*
X386112Y-239636D01*
X381191D01*
X377500Y-240866D01*
X375039Y-243327D01*
Y-245787D01*
X376270Y-248248D01*
X377500Y-249478D01*
X379961Y-250709D01*
X387343Y-253169D01*
X389803Y-254400D01*
X391033Y-255630D01*
X392264Y-258091D01*
Y-261781D01*
X389803Y-264242D01*
X386112Y-265472D01*
X381191D01*
X377500Y-264242D01*
X375039Y-261781D01*
X420561Y-245787D02*
Y-244557D01*
X421791Y-242096D01*
X423022Y-240866D01*
X425482Y-239636D01*
X430404D01*
X432864Y-240866D01*
X434094Y-242096D01*
X435325Y-244557D01*
Y-247018D01*
X434094Y-249478D01*
X431634Y-253169D01*
X419331Y-265472D01*
X436555D01*
G54D17*
X0Y15748D02*
G75*
G03X15748Y0I15748D01*
X0Y15748D02*
G01Y1015748D01*
X15748Y1031496D02*
G03X0Y1015748J-15748D01*
X15748Y1031496D02*
G01X480315D01*
X492126Y1019685D02*
G03X480315Y1031496I-11811D01*
X492126Y1019685D02*
G01Y1011811D01*
Y1011811D02*
G03X503937Y1000000I11811D01*
Y1000000D02*
G01X1519685D01*
X1535433Y984252D02*
G03X1519685Y1000000I-15748D01*
X1535433Y984252D02*
G01Y15748D01*
X1519685Y0D02*
G03X1535433Y15748J15748D01*
X1519685Y0D02*
G01X15748D01*
X81890Y983465D02*
G03X75984Y977953I15J-5936D01*
Y977953D02*
G01Y821654D01*
Y821654D02*
G03X81890Y816142I5921J424D01*
Y816142D02*
G01X89961D01*
X105512Y800394D02*
G03X89961Y816142I-15790J-40D01*
X105512Y800394D02*
G01Y792323D01*
Y792323D02*
G03X111417Y786614I5907J202D01*
Y786614D02*
G01X434252D01*
Y786614D02*
G03X440157Y792323I5J5904D01*
Y792323D02*
G01Y800984D01*
X455512Y816142D02*
G03X440157Y800984I-3J-15353D01*
X455512Y816142D02*
G01X463780D01*
Y816142D02*
G03X469685Y822244I-3J5912D01*
Y822244D02*
G01Y977559D01*
Y977559D02*
G03X463583Y983465I-5928J-20D01*
Y983465D02*
G01X81890D01*
X469685Y977559D02*
G03X463780Y983465I-5906D01*
X434252Y314961D02*
G01X434767Y314983D01*
X435277Y315050*
X435780Y315161*
X436272Y315315*
X436748Y315512*
X437205Y315749*
X437639Y316026*
X438048Y316339*
X438428Y316687*
X438776Y317066*
X439090Y317475*
X439367Y317909*
X439606Y318366*
X439803Y318841*
X439958Y319332*
X440070Y319835*
X440138Y320346*
X440157Y320669*
Y329331*
X440215Y330476*
X440390Y331804*
X440680Y333111*
X441083Y334389*
X441596Y335626*
X442214Y336814*
X442934Y337943*
X443750Y339006*
X444655Y339993*
X445642Y340898*
X446705Y341713*
X447835Y342433*
X449023Y343051*
X450261Y343563*
X451538Y343966*
X452846Y344255*
X454174Y344430*
X455512Y344488*
X463780*
X464295Y344511*
X464806Y344579*
X465309Y344690*
X465801Y344846*
X466278Y345043*
X466735Y345282*
X467170Y345559*
X467579Y345873*
X467959Y346222*
X468307Y346602*
X468621Y347012*
X468898Y347447*
X469136Y347904*
X469333Y348381*
X469487Y348873*
X469599Y349376*
X469666Y349888*
X469688Y350403*
X469685Y350591*
Y523583*
X469663Y524092*
X469596Y524598*
X469486Y525096*
X469332Y525582*
X469137Y526053*
X468902Y526506*
X468628Y526936*
X468317Y527341*
X467973Y527717*
X467597Y528061*
X467192Y528372*
X466762Y528646*
X466309Y528881*
X465838Y529077*
X465352Y529230*
X464854Y529340*
X464348Y529407*
X463839Y529429*
X455965*
X454592Y529489*
X453230Y529668*
X451889Y529966*
X450578Y530379*
X449309Y530905*
X448091Y531539*
X446932Y532277*
X445842Y533113*
X444829Y534042*
X443901Y535055*
X443065Y536144*
X442326Y537303*
X441692Y538522*
X441166Y539791*
X440753Y541101*
X440456Y542443*
X440276Y543805*
X440217Y545177*
Y553051*
X440194Y553566*
X440127Y554077*
X440015Y554580*
X439860Y555071*
X439663Y555547*
X439425Y556004*
X439149Y556438*
X438835Y556847*
X438487Y557227*
X438107Y557575*
X437698Y557889*
X437264Y558166*
X436807Y558403*
X436331Y558601*
X435839Y558755*
X435337Y558867*
X434826Y558934*
X434311Y558957*
X287402*
X286884Y558933*
X286371Y558864*
X285866Y558751*
X285372Y558594*
X284894Y558394*
X284436Y558154*
X284000Y557875*
X283590Y557558*
X283209Y557207*
X282860Y556825*
X282546Y556413*
X282269Y555976*
X282031Y555516*
X281834Y555037*
X281679Y554543*
X281568Y554037*
X281502Y553523*
X281496Y553445*
Y543307*
Y517520*
X281476Y517196*
X281409Y516686*
X281297Y516183*
X281142Y515692*
X280944Y515216*
X280706Y514759*
X280429Y514325*
X280115Y513917*
X279767Y513537*
X279387Y513189*
X278978Y512876*
X278543Y512600*
X278086Y512362*
X277610Y512166*
X277119Y512011*
X276616Y511900*
X276105Y511833*
X275591Y511811*
X81890*
X81372Y511787*
X80859Y511718*
X80354Y511605*
X79861Y511448*
X79383Y511248*
X78924Y511008*
X78488Y510729*
X78078Y510413*
X77697Y510062*
X77348Y509679*
X77034Y509267*
X76757Y508830*
X76519Y508370*
X76322Y507891*
X76167Y507397*
X76057Y506891*
X75990Y506377*
X75984Y506299*
Y350000*
X76044Y349486*
X76148Y348978*
X76296Y348482*
X76486Y348001*
X76718Y347538*
X76989Y347096*
X77298Y346681*
X77642Y346293*
X78018Y345938*
X78424Y345616*
X78856Y345331*
X79312Y345085*
X79787Y344879*
X80278Y344715*
X80782Y344595*
X81294Y344520*
X81811Y344489*
X81890Y344488*
X89961*
X91058Y344433*
X92424Y344257*
X93770Y343962*
X95085Y343551*
X96359Y343027*
X97582Y342395*
X98746Y341657*
X99841Y340822*
X100859Y339894*
X101792Y338880*
X102633Y337790*
X103376Y336630*
X104015Y335409*
X104546Y334138*
X104963Y332826*
X105265Y331481*
X105448Y330116*
X105512Y328740*
Y320669*
X105552Y320155*
X105637Y319647*
X105765Y319147*
X105937Y318661*
X106151Y318192*
X106404Y317743*
X106696Y317318*
X107024Y316919*
X107385Y316551*
X107777Y316216*
X108196Y315917*
X108640Y315654*
X109106Y315432*
X109589Y315251*
X110085Y315113*
X110592Y315019*
X111105Y314969*
X111417Y314961*
X434252*
X1134252Y81890D02*
G01X1134767Y81912D01*
X1135277Y81979*
X1135780Y82090*
X1136272Y82244*
X1136748Y82441*
X1137205Y82679*
X1137639Y82955*
X1138048Y83268*
X1138428Y83616*
X1138776Y83995*
X1139090Y84404*
X1139367Y84838*
X1139606Y85295*
X1139803Y85770*
X1139958Y86261*
X1140070Y86764*
X1140138Y87275*
X1140157Y87598*
Y96260*
X1140215Y97405*
X1140390Y98733*
X1140680Y100040*
X1141083Y101318*
X1141596Y102555*
X1142214Y103743*
X1142934Y104873*
X1143750Y105935*
X1144655Y106922*
X1145642Y107827*
X1146705Y108642*
X1147835Y109362*
X1149023Y109980*
X1150261Y110492*
X1151538Y110895*
X1152846Y111185*
X1154174Y111359*
X1155512Y111417*
X1163780*
X1164295Y111440*
X1164806Y111508*
X1165309Y111620*
X1165801Y111775*
X1166278Y111972*
X1166735Y112211*
X1167170Y112488*
X1167579Y112802*
X1167959Y113151*
X1168307Y113531*
X1168621Y113941*
X1168898Y114376*
X1169136Y114833*
X1169333Y115310*
X1169487Y115802*
X1169599Y116305*
X1169666Y116817*
X1169688Y117332*
X1169685Y117520*
Y290512*
X1169663Y291021*
X1169596Y291527*
X1169486Y292025*
X1169332Y292511*
X1169137Y292983*
X1168902Y293435*
X1168628Y293865*
X1168317Y294270*
X1167973Y294646*
X1167597Y294990*
X1167192Y295301*
X1166762Y295575*
X1166309Y295810*
X1165838Y296006*
X1165352Y296159*
X1164854Y296269*
X1164348Y296336*
X1163839Y296358*
X1155965*
X1154592Y296418*
X1153230Y296598*
X1151889Y296895*
X1150578Y297308*
X1149309Y297834*
X1148091Y298468*
X1146932Y299206*
X1145842Y300043*
X1144829Y300971*
X1143901Y301984*
X1143065Y303074*
X1142326Y304232*
X1141692Y305451*
X1141166Y306720*
X1140753Y308030*
X1140456Y309372*
X1140276Y310734*
X1140217Y312106*
Y319980*
X1140194Y320495*
X1140127Y321006*
X1140015Y321509*
X1139860Y322000*
X1139663Y322476*
X1139425Y322933*
X1139149Y323368*
X1138835Y323776*
X1138487Y324156*
X1138107Y324504*
X1137698Y324818*
X1137264Y325095*
X1136807Y325333*
X1136331Y325530*
X1135839Y325685*
X1135337Y325796*
X1134826Y325863*
X1134311Y325886*
X987402*
X986884Y325862*
X986371Y325793*
X985866Y325680*
X985372Y325523*
X984894Y325323*
X984436Y325083*
X984000Y324804*
X983590Y324487*
X983209Y324137*
X982860Y323754*
X982546Y323342*
X982269Y322905*
X982031Y322445*
X981834Y321966*
X981679Y321472*
X981568Y320966*
X981502Y320452*
X981496Y320374*
Y310236*
Y284449*
X981476Y284125*
X981409Y283615*
X981297Y283112*
X981142Y282621*
X980944Y282145*
X980706Y281688*
X980429Y281254*
X980115Y280846*
X979767Y280466*
X979387Y280119*
X978978Y279805*
X978543Y279529*
X978086Y279291*
X977610Y279095*
X977119Y278940*
X976616Y278829*
X976105Y278762*
X975591Y278740*
X781890*
X781372Y278716*
X780859Y278647*
X780354Y278534*
X779861Y278377*
X779383Y278178*
X778924Y277937*
X778488Y277658*
X778078Y277342*
X777697Y276991*
X777348Y276608*
X777034Y276197*
X776757Y275759*
X776519Y275299*
X776322Y274820*
X776167Y274326*
X776057Y273820*
X775990Y273307*
X775984Y273228*
Y116929*
X776044Y116415*
X776148Y115907*
X776296Y115411*
X776486Y114930*
X776718Y114467*
X776989Y114026*
X777298Y113610*
X777642Y113223*
X778018Y112867*
X778424Y112545*
X778856Y112260*
X779312Y112014*
X779787Y111808*
X780278Y111645*
X780782Y111524*
X781294Y111449*
X781811Y111418*
X781890Y111417*
X789961*
X791058Y111362*
X792424Y111186*
X793770Y110891*
X795085Y110481*
X796359Y109957*
X797582Y109324*
X798746Y108586*
X799841Y107751*
X800859Y106823*
X801792Y105809*
X802633Y104719*
X803376Y103559*
X804015Y102339*
X804546Y101067*
X804963Y99755*
X805265Y98411*
X805448Y97045*
X805512Y95669*
Y87598*
X805552Y87084*
X805637Y86576*
X805765Y86076*
X805937Y85590*
X806151Y85121*
X806404Y84672*
X806696Y84247*
X807024Y83849*
X807385Y83481*
X807777Y83145*
X808196Y82846*
X808640Y82584*
X809106Y82361*
X809589Y82180*
X810085Y82042*
X810592Y81948*
X811105Y81898*
X811417Y81890*
X1134252*
M02*
