  0
SECTION
  2
HEADER
  9
$ACADVER
  1
AC1009
  9
$INSBASE
 10
0.0
 20
0.0
 30
0.0
  9
$EXTMIN
 10
-59.0
 20
-15.9841625464
 30
0.0
  9
$EXTMAX
 10
390.82842712474621
 20
292.81258967114621
 30
0.0
  9
$LIMMIN
 10
0.0
 20
0.0
  9
$LIMMAX
 10
420.0
 20
297.0
  9
$ORTHOMODE
 70
     1
  9
$REGENMODE
 70
     1
  9
$FILLMODE
 70
     1
  9
$QTEXTMODE
 70
     0
  9
$MIRRTEXT
 70
     0
  9
$DRAGMODE
 70
     2
  9
$LTSCALE
 40
23.100000000000001
  9
$OSMODE
 70
  3071
  9
$ATTMODE
 70
     1
  9
$TEXTSIZE
 40
0.2
  9
$TRACEWID
 40
0.05
  9
$TEXTSTYLE
  7
STANDARD
  9
$CLAYER
  8
0
  9
$CELTYPE
  6
BYLAYER
  9
$CECOLOR
 62
   256
  9
$DIMSCALE
 40
1.0
  9
$DIMASZ
 40
2.0
  9
$DIMEXO
 40
0.15
  9
$DIMDLI
 40
15.960000000000001
  9
$DIMRND
 40
0.0
  9
$DIMDLE
 40
0.0
  9
$DIMEXE
 40
0.125
  9
$DIMTP
 40
0.0
  9
$DIMTM
 40
0.0
  9
$DIMTXT
 40
2.5
  9
$DIMCEN
 40
3.7799999999999989
  9
$DIMTSZ
 40
0.0
  9
$DIMTOL
 70
     0
  9
$DIMLIM
 70
     0
  9
$DIMTIH
 70
     1
  9
$DIMTOH
 70
     1
  9
$DIMSE1
 70
     0
  9
$DIMSE2
 70
     0
  9
$DIMTAD
 70
     0
  9
$DIMZIN
 70
     0
  9
$DIMBLK
  1

  9
$DIMASO
 70
     1
  9
$DIMSHO
 70
     1
  9
$DIMPOST
  1

  9
$DIMAPOST
  1

  9
$DIMALT
 70
     0
  9
$DIMALTD
 70
     2
  9
$DIMALTF
 40
25.399999999999999
  9
$DIMLFAC
 40
1.0
  9
$DIMTOFL
 70
     0
  9
$DIMTVP
 40
0.0
  9
$DIMTIX
 70
     0
  9
$DIMSOXD
 70
     0
  9
$DIMSAH
 70
     0
  9
$DIMBLK1
  1

  9
$DIMBLK2
  1

  9
$DIMSTYLE
  2
STANDARD
  9
$DIMCLRD
 70
     0
  9
$DIMCLRE
 70
     0
  9
$DIMCLRT
 70
     0
  9
$DIMTFAC
 40
1.0
  9
$DIMGAP
 40
0.625
  9
$LUNITS
 70
     2
  9
$LUPREC
 70
     4
  9
$SKETCHINC
 40
0.1
  9
$FILLETRAD
 40
0.0
  9
$AUNITS
 70
     0
  9
$AUPREC
 70
     0
  9
$MENU
  1
.
  9
$ELEVATION
 40
0.0
  9
$PELEVATION
 40
0.0
  9
$THICKNESS
 40
0.0
  9
$LIMCHECK
 70
     0
  9
$BLIPMODE
 70
     0
  9
$CHAMFERA
 40
0.0
  9
$CHAMFERB
 40
0.0
  9
$SKPOLY
 70
     0
  9
$TDCREATE
 40
2458088.720951817
  9
$TDUPDATE
 40
2458088.7218935648
  9
$TDINDWG
 40
0.0009423264
  9
$TDUSRTIMER
 40
0.0009423264
  9
$USRTIMER
 70
     1
  9
$ANGBASE
 50
0.0
  9
$ANGDIR
 70
     0
  9
$PDMODE
 70
     3
  9
$PDSIZE
 40
0.3125
  9
$PLINEWID
 40
0.0
  9
$COORDS
 70
     0
  9
$SPLFRAME
 70
     0
  9
$SPLINETYPE
 70
     6
  9
$SPLINESEGS
 70
     8
  9
$ATTDIA
 70
     0
  9
$ATTREQ
 70
     1
  9
$HANDLING
 70
     1
  9
$HANDSEED
  5
421
  9
$SURFTAB1
 70
     6
  9
$SURFTAB2
 70
     6
  9
$SURFTYPE
 70
     6
  9
$SURFU
 70
     6
  9
$SURFV
 70
     6
  9
$UCSNAME
  2

  9
$UCSORG
 10
0.0
 20
0.0
 30
0.0
  9
$UCSXDIR
 10
1.0
 20
0.0
 30
0.0
  9
$UCSYDIR
 10
0.0
 20
1.0
 30
0.0
  9
$PUCSNAME
  2

  9
$PUCSORG
 10
0.0
 20
0.0
 30
0.0
  9
$PUCSXDIR
 10
1.0
 20
0.0
 30
0.0
  9
$PUCSYDIR
 10
0.0
 20
1.0
 30
0.0
  9
$USERI1
 70
     0
  9
$USERI2
 70
     0
  9
$USERI3
 70
     0
  9
$USERI4
 70
     0
  9
$USERI5
 70
     0
  9
$USERR1
 40
0.0
  9
$USERR2
 40
0.0
  9
$USERR3
 40
0.0
  9
$USERR4
 40
0.0
  9
$USERR5
 40
0.0
  9
$WORLDVIEW
 70
     1
  9
$SHADEDGE
 70
     3
  9
$SHADEDIF
 70
    70
  9
$TILEMODE
 70
     1
  9
$MAXACTVP
 70
    64
  9
$PLIMCHECK
 70
     0
  9
$PEXTMIN
 10
1.0000000000000000E+020
 20
1.0000000000000000E+020
 30
1.0000000000000000E+020
  9
$PEXTMAX
 10
-1.0000000000000000E+020
 20
-1.0000000000000000E+020
 30
-1.0000000000000000E+020
  9
$PLIMMIN
 10
0.0
 20
0.0
  9
$PLIMMAX
 10
12.0
 20
9.0
  9
$UNITMODE
 70
     0
  9
$VISRETAIN
 70
     1
  9
$PLINEGEN
 70
     0
  9
$PSLTSCALE
 70
     1
  0
ENDSEC
  0
SECTION
  2
TABLES
  0
TABLE
  2
VPORT
 70
     2
  0
VPORT
  2
*ACTIVE
 70
     0
 10
0.0
 20
0.0
 11
1.0
 21
1.0
 12
223.68567282390219
 22
-4.4358168789250376
 13
0.0
 23
0.0
 14
1.0
 24
1.0
 15
0.0
 25
0.0
 16
0.0
 26
0.0
 36
1.0
 17
0.0
 27
0.0
 37
0.0
 40
629.59450167606883
 41
2.5749656121045388
 42
50.0
 43
0.0
 44
0.0
 50
0.0
 51
0.0
 71
     0
 72
   100
 73
     1
 74
     1
 75
     0
 76
     0
 77
     0
 78
     0
  0
ENDTAB
  0
TABLE
  2
LTYPE
 70
     6
  0
LTYPE
  2
CONTINUOUS
 70
     0
  3
Solid line
 72
    65
 73
     0
 40
0.0
  0
ENDTAB
  0
TABLE
  2
LAYER
 70
    21
  0
LAYER
  2
0
 70
     0
 62
     7
  6
CONTINUOUS
  0
ENDTAB
  0
TABLE
  2
STYLE
 70
     2
  0
STYLE
  2
STANDARD
 70
     0
 40
0.0
 41
0.8
 50
0.0
 71
     0
 42
0.2
  3
txt
  4

  0
ENDTAB
  0
TABLE
  2
VIEW
 70
     0
  0
ENDTAB
  0
TABLE
  2
UCS
 70
     0
  0
ENDTAB
  0
TABLE
  2
APPID
 70
     1
  0
APPID
  2
ACAD
 70
     0
  0
ENDTAB
  0
TABLE
  2
DIMSTYLE
 70
     1
  0
DIMSTYLE
  2
STANDARD
 70
     0
  3

  4

  5

  6

  7

 40
1.0
 41
2.0
 42
0.15
 43
0.38
 44
0.125
 45
0.0
 46
0.0
 47
0.01
 48
0.01
140
2.5
141
0.09
142
0.0
143
25.399999999999999
144
1.0
145
0.0
146
1.0
147
0.625
 71
     0
 72
     0
 73
     1
 74
     1
 75
     0
 76
     0
 77
     0
 78
     8
170
     0
171
     2
172
     0
173
     0
174
     0
175
     0
176
     0
177
     0
178
     0
  0
ENDTAB
  0
ENDSEC
  0
SECTION
  2
BLOCKS
  0
BLOCK
  8
0
  2
$MODEL_SPACE
 70
     0
 10
0.0
 20
0.0
 30
0.0
  3
$MODEL_SPACE
  1

  0
ENDBLK
  5
21
  8
0
  0
BLOCK
 67
     1
  8
0
  2
$PAPER_SPACE
 70
     0
 10
0.0
 20
0.0
 30
0.0
  3
$PAPER_SPACE
  1

  0
ENDBLK
  5
1D
 67
     1
  8
0
  0
ENDSEC
  0
SECTION
  2
ENTITIES
  0
LINE
  5
213
  8
0
  6
CONTINUOUS
 62
     7
 10
0.0
 20
258.0
 30
0.0
 11
0.0
 21
4.0
 31
0.0
  0
LINE
  5
214
  8
0
  6
CONTINUOUS
 62
     7
 10
19.289999999999988
 20
248.30000000000001
 30
0.0
 11
19.289999999999988
 21
208.80000000000001
 31
0.0
  0
LINE
  5
215
  8
0
  6
CONTINUOUS
 62
     7
 10
19.289999999999988
 20
128.5
 30
0.0
 11
19.289999999999988
 21
89.0
 31
0.0
  0
LINE
  5
216
  8
0
  6
CONTINUOUS
 62
     7
 10
26.789999999999999
 20
203.30000000000001
 30
0.0
 11
26.789999999999999
 21
201.30000000000001
 31
0.0
  0
LINE
  5
217
  8
0
  6
CONTINUOUS
 62
     7
 10
26.789999999999999
 20
83.499999999999986
 30
0.0
 11
26.789999999999999
 21
81.5
 31
0.0
  0
LINE
  5
218
  8
0
  6
CONTINUOUS
 62
     7
 10
4.0
 20
0.0
 30
0.0
 11
386.0
 21
0.0
 31
0.0
  0
LINE
  5
219
  8
0
  6
CONTINUOUS
 62
     7
 10
206.09
 20
20.800000000000001
 30
0.0
 11
288.08999999999997
 21
20.800000000000001
 31
0.0
  0
LINE
  5
21A
  8
0
  6
CONTINUOUS
 62
     7
 10
198.58999999999989
 20
28.300000000000001
 30
0.0
 11
200.59
 21
28.300000000000001
 31
0.0
  0
LINE
  5
21B
  8
0
  6
CONTINUOUS
 62
     7
 10
293.58999999999997
 20
28.300000000000001
 30
0.0
 11
295.58999999999997
 21
28.300000000000001
 31
0.0
  0
LINE
  5
21C
  8
0
  6
CONTINUOUS
 62
     7
 10
111.79000000000001
 20
81.5
 30
0.0
 11
111.79000000000001
 21
83.499999999999986
 31
0.0
  0
LINE
  5
21D
  8
0
  6
CONTINUOUS
 62
     7
 10
111.79000000000001
 20
201.30000000000001
 30
0.0
 11
111.79000000000001
 21
203.30000000000001
 31
0.0
  0
LINE
  5
21E
  8
0
  6
CONTINUOUS
 62
     7
 10
119.29000000000001
 20
89.0
 30
0.0
 11
119.29000000000001
 21
128.5
 31
0.0
  0
LINE
  5
21F
  8
0
  6
CONTINUOUS
 62
     7
 10
119.29000000000001
 20
208.80000000000001
 30
0.0
 11
119.29000000000001
 21
248.30000000000001
 31
0.0
  0
LINE
  5
220
  8
0
  6
CONTINUOUS
 62
     7
 10
125.0
 20
257.0
 30
0.0
 11
125.0
 21
259.0
 31
0.0
  0
LINE
  5
221
  8
0
  6
CONTINUOUS
 62
     7
 10
295.58999999999997
 20
70.799999999999997
 30
0.0
 11
198.58999999999989
 21
70.799999999999997
 31
0.0
  0
LINE
  5
222
  8
0
  6
CONTINUOUS
 62
     7
 10
28.289999999999999
 20
80.0
 30
0.0
 11
110.29000000000001
 21
80.0
 31
0.0
  0
LINE
  5
223
  8
0
  6
CONTINUOUS
 62
     7
 10
20.789999999999999
 20
87.5
 30
0.0
 11
22.789999999999988
 21
87.5
 31
0.0
  0
LINE
  5
224
  8
0
  6
CONTINUOUS
 62
     7
 10
115.79000000000001
 20
87.5
 30
0.0
 11
117.79000000000001
 21
87.5
 31
0.0
  0
LINE
  5
225
  8
0
  6
CONTINUOUS
 62
     7
 10
197.09
 20
69.299999999999983
 30
0.0
 11
197.09
 21
29.800000000000001
 31
0.0
  0
LINE
  5
226
  8
0
  6
CONTINUOUS
 62
     7
 10
20.789999999999999
 20
130.0
 30
0.0
 11
117.79000000000001
 21
130.0
 31
0.0
  0
LINE
  5
227
  8
0
  6
CONTINUOUS
 62
     7
 10
204.59
 20
24.300000000000011
 30
0.0
 11
204.59
 21
22.300000000000001
 31
0.0
  0
LINE
  5
228
  8
0
  6
CONTINUOUS
 62
     7
 10
28.289999999999999
 20
199.80000000000001
 30
0.0
 11
110.29000000000001
 21
199.80000000000001
 31
0.0
  0
LINE
  5
229
  8
0
  6
CONTINUOUS
 62
     7
 10
20.789999999999999
 20
207.30000000000001
 30
0.0
 11
22.789999999999988
 21
207.30000000000001
 31
0.0
  0
LINE
  5
22A
  8
0
  6
CONTINUOUS
 62
     7
 10
115.79000000000001
 20
207.30000000000001
 30
0.0
 11
117.79000000000001
 21
207.30000000000001
 31
0.0
  0
LINE
  5
22B
  8
0
  6
CONTINUOUS
 62
     7
 10
289.58999999999997
 20
22.300000000000001
 30
0.0
 11
289.58999999999997
 21
24.300000000000011
 31
0.0
  0
LINE
  5
22C
  8
0
  6
CONTINUOUS
 62
     7
 10
297.08999999999997
 20
29.800000000000001
 30
0.0
 11
297.08999999999997
 21
69.299999999999983
 31
0.0
  0
LINE
  5
22D
  8
0
  6
CONTINUOUS
 62
     7
 10
20.789999999999999
 20
249.80000000000001
 30
0.0
 11
117.79000000000001
 21
249.80000000000001
 31
0.0
  0
LINE
  5
22E
  8
0
  6
CONTINUOUS
 62
     7
 10
386.0
 20
254.0
 30
0.0
 11
128.0
 21
254.0
 31
0.0
  0
LINE
  5
22F
  8
0
  6
CONTINUOUS
 62
     7
 10
122.0
 20
262.0
 30
0.0
 11
4.0
 21
262.0
 31
0.0
  0
LINE
  5
230
  8
0
  6
CONTINUOUS
 62
     7
 10
390.0
 20
4.0
 30
0.0
 11
390.0
 21
250.0
 31
0.0
  0
ARC
  5
231
  8
0
  6
CONTINUOUS
 62
     7
 10
4.0
 20
4.0
 30
0.0
 40
4.0
 50
180.0
 51
270.0
  0
CIRCLE
  5
232
  8
0
  6
CONTINUOUS
 62
     7
 10
5.0
 20
5.0
 30
0.0
 40
1.75
  0
CIRCLE
  5
233
  8
0
  6
CONTINUOUS
 62
     7
 10
40.189999999999998
 20
18.219999999999999
 30
0.0
 40
0.5
  0
CIRCLE
  5
234
  8
0
  6
CONTINUOUS
 62
     7
 10
37.649999999999991
 20
18.219999999999999
 30
0.0
 40
0.5
  0
CIRCLE
  5
235
  8
0
  6
CONTINUOUS
 62
     7
 10
35.109999999999992
 20
18.219999999999999
 30
0.0
 40
0.5
  0
CIRCLE
  5
236
  8
0
  6
CONTINUOUS
 62
     7
 10
35.109999999999992
 20
2.979999999999996
 30
0.0
 40
0.5
  0
CIRCLE
  5
237
  8
0
  6
CONTINUOUS
 62
     7
 10
37.649999999999991
 20
2.979999999999996
 30
0.0
 40
0.5
  0
CIRCLE
  5
238
  8
0
  6
CONTINUOUS
 62
     7
 10
40.189999999999998
 20
2.979999999999996
 30
0.0
 40
0.5
  0
CIRCLE
  5
239
  8
0
  6
CONTINUOUS
 62
     7
 10
35.109999999999992
 20
50.219999999999999
 30
0.0
 40
0.5
  0
CIRCLE
  5
23A
  8
0
  6
CONTINUOUS
 62
     7
 10
37.649999999999991
 20
50.219999999999999
 30
0.0
 40
0.5
  0
CIRCLE
  5
23B
  8
0
  6
CONTINUOUS
 62
     7
 10
40.189999999999998
 20
50.219999999999999
 30
0.0
 40
0.5
  0
CIRCLE
  5
23C
  8
0
  6
CONTINUOUS
 62
     7
 10
40.189999999999998
 20
34.980000000000011
 30
0.0
 40
0.5
  0
CIRCLE
  5
23D
  8
0
  6
CONTINUOUS
 62
     7
 10
37.649999999999991
 20
34.980000000000011
 30
0.0
 40
0.5
  0
CIRCLE
  5
23E
  8
0
  6
CONTINUOUS
 62
     7
 10
35.109999999999992
 20
34.980000000000011
 30
0.0
 40
0.5
  0
CIRCLE
  5
23F
  8
0
  6
CONTINUOUS
 62
     7
 10
42.72999999999999
 20
2.979999999999996
 30
0.0
 40
0.5
  0
CIRCLE
  5
240
  8
0
  6
CONTINUOUS
 62
     7
 10
45.270000000000003
 20
2.979999999999996
 30
0.0
 40
0.5
  0
CIRCLE
  5
241
  8
0
  6
CONTINUOUS
 62
     7
 10
47.809999999999988
 20
2.979999999999996
 30
0.0
 40
0.5
  0
CIRCLE
  5
242
  8
0
  6
CONTINUOUS
 62
     7
 10
50.350000000000001
 20
2.979999999999996
 30
0.0
 40
0.5
  0
CIRCLE
  5
243
  8
0
  6
CONTINUOUS
 62
     7
 10
52.889999999999993
 20
2.979999999999996
 30
0.0
 40
0.5
  0
CIRCLE
  5
244
  8
0
  6
CONTINUOUS
 62
     7
 10
55.429999999999993
 20
2.979999999999996
 30
0.0
 40
0.5
  0
CIRCLE
  5
245
  8
0
  6
CONTINUOUS
 62
     7
 10
57.969999999999992
 20
2.979999999999996
 30
0.0
 40
0.5
  0
CIRCLE
  5
246
  8
0
  6
CONTINUOUS
 62
     7
 10
57.969999999999992
 20
18.219999999999999
 30
0.0
 40
0.5
  0
CIRCLE
  5
247
  8
0
  6
CONTINUOUS
 62
     7
 10
55.429999999999993
 20
18.219999999999999
 30
0.0
 40
0.5
  0
CIRCLE
  5
248
  8
0
  6
CONTINUOUS
 62
     7
 10
52.889999999999993
 20
18.219999999999999
 30
0.0
 40
0.5
  0
CIRCLE
  5
249
  8
0
  6
CONTINUOUS
 62
     7
 10
50.350000000000001
 20
18.219999999999999
 30
0.0
 40
0.5
  0
CIRCLE
  5
24A
  8
0
  6
CONTINUOUS
 62
     7
 10
47.809999999999988
 20
18.219999999999999
 30
0.0
 40
0.5
  0
CIRCLE
  5
24B
  8
0
  6
CONTINUOUS
 62
     7
 10
45.270000000000003
 20
18.219999999999999
 30
0.0
 40
0.5
  0
CIRCLE
  5
24C
  8
0
  6
CONTINUOUS
 62
     7
 10
42.72999999999999
 20
18.219999999999999
 30
0.0
 40
0.5
  0
CIRCLE
  5
24D
  8
0
  6
CONTINUOUS
 62
     7
 10
60.509999999999991
 20
2.979999999999996
 30
0.0
 40
0.5
  0
CIRCLE
  5
24E
  8
0
  6
CONTINUOUS
 62
     7
 10
63.04999999999999
 20
2.979999999999996
 30
0.0
 40
0.5
  0
CIRCLE
  5
24F
  8
0
  6
CONTINUOUS
 62
     7
 10
65.589999999999989
 20
2.979999999999996
 30
0.0
 40
0.5
  0
CIRCLE
  5
250
  8
0
  6
CONTINUOUS
 62
     7
 10
68.129999999999995
 20
2.979999999999996
 30
0.0
 40
0.5
  0
CIRCLE
  5
251
  8
0
  6
CONTINUOUS
 62
     7
 10
70.669999999999987
 20
2.979999999999996
 30
0.0
 40
0.5
  0
CIRCLE
  5
252
  8
0
  6
CONTINUOUS
 62
     7
 10
73.209999999999994
 20
2.979999999999996
 30
0.0
 40
0.5
  0
CIRCLE
  5
253
  8
0
  6
CONTINUOUS
 62
     7
 10
75.75
 20
2.979999999999996
 30
0.0
 40
0.5
  0
CIRCLE
  5
254
  8
0
  6
CONTINUOUS
 62
     7
 10
78.289999999999992
 20
2.979999999999996
 30
0.0
 40
0.5
  0
CIRCLE
  5
255
  8
0
  6
CONTINUOUS
 62
     7
 10
78.289999999999992
 20
18.219999999999999
 30
0.0
 40
0.5
  0
CIRCLE
  5
256
  8
0
  6
CONTINUOUS
 62
     7
 10
75.75
 20
18.219999999999999
 30
0.0
 40
0.5
  0
CIRCLE
  5
257
  8
0
  6
CONTINUOUS
 62
     7
 10
73.209999999999994
 20
18.219999999999999
 30
0.0
 40
0.5
  0
CIRCLE
  5
258
  8
0
  6
CONTINUOUS
 62
     7
 10
70.669999999999987
 20
18.219999999999999
 30
0.0
 40
0.5
  0
CIRCLE
  5
259
  8
0
  6
CONTINUOUS
 62
     7
 10
68.129999999999995
 20
18.219999999999999
 30
0.0
 40
0.5
  0
CIRCLE
  5
25A
  8
0
  6
CONTINUOUS
 62
     7
 10
65.589999999999989
 20
18.219999999999999
 30
0.0
 40
0.5
  0
CIRCLE
  5
25B
  8
0
  6
CONTINUOUS
 62
     7
 10
63.04999999999999
 20
18.219999999999999
 30
0.0
 40
0.5
  0
CIRCLE
  5
25C
  8
0
  6
CONTINUOUS
 62
     7
 10
60.509999999999991
 20
18.219999999999999
 30
0.0
 40
0.5
  0
CIRCLE
  5
25D
  8
0
  6
CONTINUOUS
 62
     7
 10
57.969999999999992
 20
34.980000000000011
 30
0.0
 40
0.5
  0
CIRCLE
  5
25E
  8
0
  6
CONTINUOUS
 62
     7
 10
55.429999999999993
 20
34.980000000000011
 30
0.0
 40
0.5
  0
CIRCLE
  5
25F
  8
0
  6
CONTINUOUS
 62
     7
 10
52.889999999999993
 20
34.980000000000011
 30
0.0
 40
0.5
  0
CIRCLE
  5
260
  8
0
  6
CONTINUOUS
 62
     7
 10
50.350000000000001
 20
34.980000000000011
 30
0.0
 40
0.5
  0
CIRCLE
  5
261
  8
0
  6
CONTINUOUS
 62
     7
 10
47.809999999999988
 20
34.980000000000011
 30
0.0
 40
0.5
  0
CIRCLE
  5
262
  8
0
  6
CONTINUOUS
 62
     7
 10
45.270000000000003
 20
34.980000000000011
 30
0.0
 40
0.5
  0
CIRCLE
  5
263
  8
0
  6
CONTINUOUS
 62
     7
 10
42.72999999999999
 20
34.980000000000011
 30
0.0
 40
0.5
  0
CIRCLE
  5
264
  8
0
  6
CONTINUOUS
 62
     7
 10
42.72999999999999
 20
50.219999999999999
 30
0.0
 40
0.5
  0
CIRCLE
  5
265
  8
0
  6
CONTINUOUS
 62
     7
 10
45.270000000000003
 20
50.219999999999999
 30
0.0
 40
0.5
  0
CIRCLE
  5
266
  8
0
  6
CONTINUOUS
 62
     7
 10
47.809999999999988
 20
50.219999999999999
 30
0.0
 40
0.5
  0
CIRCLE
  5
267
  8
0
  6
CONTINUOUS
 62
     7
 10
50.350000000000001
 20
50.219999999999999
 30
0.0
 40
0.5
  0
CIRCLE
  5
268
  8
0
  6
CONTINUOUS
 62
     7
 10
52.889999999999993
 20
50.219999999999999
 30
0.0
 40
0.5
  0
CIRCLE
  5
269
  8
0
  6
CONTINUOUS
 62
     7
 10
55.429999999999993
 20
50.219999999999999
 30
0.0
 40
0.5
  0
CIRCLE
  5
26A
  8
0
  6
CONTINUOUS
 62
     7
 10
57.969999999999992
 20
50.219999999999999
 30
0.0
 40
0.5
  0
CIRCLE
  5
26B
  8
0
  6
CONTINUOUS
 62
     7
 10
78.289999999999992
 20
34.980000000000011
 30
0.0
 40
0.5
  0
CIRCLE
  5
26C
  8
0
  6
CONTINUOUS
 62
     7
 10
75.75
 20
34.980000000000011
 30
0.0
 40
0.5
  0
CIRCLE
  5
26D
  8
0
  6
CONTINUOUS
 62
     7
 10
73.209999999999994
 20
34.980000000000011
 30
0.0
 40
0.5
  0
CIRCLE
  5
26E
  8
0
  6
CONTINUOUS
 62
     7
 10
70.669999999999987
 20
34.980000000000011
 30
0.0
 40
0.5
  0
CIRCLE
  5
26F
  8
0
  6
CONTINUOUS
 62
     7
 10
68.129999999999995
 20
34.980000000000011
 30
0.0
 40
0.5
  0
CIRCLE
  5
270
  8
0
  6
CONTINUOUS
 62
     7
 10
65.589999999999989
 20
34.980000000000011
 30
0.0
 40
0.5
  0
CIRCLE
  5
271
  8
0
  6
CONTINUOUS
 62
     7
 10
63.04999999999999
 20
34.980000000000011
 30
0.0
 40
0.5
  0
CIRCLE
  5
272
  8
0
  6
CONTINUOUS
 62
     7
 10
60.509999999999991
 20
34.980000000000011
 30
0.0
 40
0.5
  0
CIRCLE
  5
273
  8
0
  6
CONTINUOUS
 62
     7
 10
60.509999999999991
 20
50.219999999999999
 30
0.0
 40
0.5
  0
CIRCLE
  5
274
  8
0
  6
CONTINUOUS
 62
     7
 10
63.04999999999999
 20
50.219999999999999
 30
0.0
 40
0.5
  0
CIRCLE
  5
275
  8
0
  6
CONTINUOUS
 62
     7
 10
65.589999999999989
 20
50.219999999999999
 30
0.0
 40
0.5
  0
CIRCLE
  5
276
  8
0
  6
CONTINUOUS
 62
     7
 10
68.129999999999995
 20
50.219999999999999
 30
0.0
 40
0.5
  0
CIRCLE
  5
277
  8
0
  6
CONTINUOUS
 62
     7
 10
70.669999999999987
 20
50.219999999999999
 30
0.0
 40
0.5
  0
CIRCLE
  5
278
  8
0
  6
CONTINUOUS
 62
     7
 10
73.209999999999994
 20
50.219999999999999
 30
0.0
 40
0.5
  0
CIRCLE
  5
279
  8
0
  6
CONTINUOUS
 62
     7
 10
75.75
 20
50.219999999999999
 30
0.0
 40
0.5
  0
CIRCLE
  5
27A
  8
0
  6
CONTINUOUS
 62
     7
 10
78.289999999999992
 20
50.219999999999999
 30
0.0
 40
0.5
  0
ARC
  5
27B
  8
0
  6
CONTINUOUS
 62
     7
 10
22.789999999999988
 20
83.499999999999986
 30
0.0
 40
4.0
 50
0.0
 51
90.0
  0
CIRCLE
  5
27C
  8
0
  6
CONTINUOUS
 62
     7
 10
70.149999999999991
 20
67.0
 30
0.0
 40
1.75
  0
ARC
  5
27D
  8
0
  6
CONTINUOUS
 62
     7
 10
28.289999999999999
 20
81.5
 30
0.0
 40
1.5
 50
180.0
 51
270.0
  0
ARC
  5
27E
  8
0
  6
CONTINUOUS
 62
     7
 10
20.789999999999999
 20
89.0
 30
0.0
 40
1.5
 50
180.0
 51
270.0
  0
ARC
  5
27F
  8
0
  6
CONTINUOUS
 62
     7
 10
20.789999999999999
 20
128.5
 30
0.0
 40
1.5
 50
90.0
 51
180.0
  0
CIRCLE
  5
280
  8
0
  6
CONTINUOUS
 62
     7
 10
22.789999999999988
 20
83.499999999999986
 30
0.0
 40
1.25
  0
CIRCLE
  5
281
  8
0
  6
CONTINUOUS
 62
     7
 10
133.77799999999999
 20
6.6499999999999977
 30
0.0
 40
0.5
  0
CIRCLE
  5
282
  8
0
  6
CONTINUOUS
 62
     7
 10
132.0
 20
13.0
 30
0.0
 40
0.5
  0
CIRCLE
  5
283
  8
0
  6
CONTINUOUS
 62
     7
 10
130.22200000000001
 20
19.350000000000001
 30
0.0
 40
0.5
  0
CIRCLE
  5
284
  8
0
  6
CONTINUOUS
 62
     7
 10
132.0
 20
29.0
 30
0.0
 40
1.75
  0
CIRCLE
  5
285
  8
0
  6
CONTINUOUS
 62
     7
 10
130.22200000000001
 20
51.350000000000009
 30
0.0
 40
0.5
  0
CIRCLE
  5
286
  8
0
  6
CONTINUOUS
 62
     7
 10
132.0
 20
45.0
 30
0.0
 40
0.5
  0
CIRCLE
  5
287
  8
0
  6
CONTINUOUS
 62
     7
 10
133.77799999999999
 20
38.650000000000013
 30
0.0
 40
0.5
  0
CIRCLE
  5
288
  8
0
  6
CONTINUOUS
 62
     7
 10
156.2699999999999
 20
24.0
 30
0.0
 40
0.5
  0
CIRCLE
  5
289
  8
0
  6
CONTINUOUS
 62
     7
 10
153.72999999999999
 20
24.0
 30
0.0
 40
0.5
  0
CIRCLE
  5
28A
  8
0
  6
CONTINUOUS
 62
     7
 10
156.2699999999999
 20
34.0
 30
0.0
 40
0.5
  0
CIRCLE
  5
28B
  8
0
  6
CONTINUOUS
 62
     7
 10
153.72999999999999
 20
34.0
 30
0.0
 40
0.5
  0
ARC
  5
28C
  8
0
  6
CONTINUOUS
 62
     7
 10
115.79000000000001
 20
83.499999999999986
 30
0.0
 40
4.0
 50
90.0
 51
180.0
  0
ARC
  5
28D
  8
0
  6
CONTINUOUS
 62
     7
 10
110.29000000000001
 20
81.5
 30
0.0
 40
1.5
 50
270.0
 51
0.0
  0
ARC
  5
28E
  8
0
  6
CONTINUOUS
 62
     7
 10
117.79000000000001
 20
89.0
 30
0.0
 40
1.5
 50
270.0
 51
0.0
  0
CIRCLE
  5
28F
  8
0
  6
CONTINUOUS
 62
     7
 10
115.79000000000001
 20
83.499999999999986
 30
0.0
 40
1.25
  0
CIRCLE
  5
290
  8
0
  6
CONTINUOUS
 62
     7
 10
133.2699999999999
 20
88.0
 30
0.0
 40
0.5
  0
CIRCLE
  5
291
  8
0
  6
CONTINUOUS
 62
     7
 10
130.72999999999999
 20
88.0
 30
0.0
 40
0.5
  0
ARC
  5
292
  8
0
  6
CONTINUOUS
 62
     7
 10
117.79000000000001
 20
128.5
 30
0.0
 40
1.5
 50
0.0
 51
90.0
  0
CIRCLE
  5
293
  8
0
  6
CONTINUOUS
 62
     7
 10
133.2699999999999
 20
129.0
 30
0.0
 40
0.5
  0
CIRCLE
  5
294
  8
0
  6
CONTINUOUS
 62
     7
 10
130.72999999999999
 20
129.0
 30
0.0
 40
0.5
  0
CIRCLE
  5
295
  8
0
  6
CONTINUOUS
 62
     7
 10
133.2699999999999
 20
119.0
 30
0.0
 40
0.5
  0
CIRCLE
  5
296
  8
0
  6
CONTINUOUS
 62
     7
 10
130.72999999999999
 20
119.0
 30
0.0
 40
0.5
  0
CIRCLE
  5
297
  8
0
  6
CONTINUOUS
 62
     7
 10
133.2699999999999
 20
109.0
 30
0.0
 40
0.5
  0
CIRCLE
  5
298
  8
0
  6
CONTINUOUS
 62
     7
 10
130.72999999999999
 20
109.0
 30
0.0
 40
0.5
  0
CIRCLE
  5
299
  8
0
  6
CONTINUOUS
 62
     7
 10
180.0
 20
97.0
 30
0.0
 40
1.75
  0
CIRCLE
  5
29A
  8
0
  6
CONTINUOUS
 62
     7
 10
5.0
 20
132.0
 30
0.0
 40
1.75
  0
CIRCLE
  5
29B
  8
0
  6
CONTINUOUS
 62
     7
 10
22.789999999999988
 20
138.5
 30
0.0
 40
1.25
  0
CIRCLE
  5
29C
  8
0
  6
CONTINUOUS
 62
     7
 10
48.069999999999993
 20
138.5
 30
0.0
 40
0.5
  0
CIRCLE
  5
29D
  8
0
  6
CONTINUOUS
 62
     7
 10
45.529999999999987
 20
138.5
 30
0.0
 40
0.5
  0
CIRCLE
  5
29E
  8
0
  6
CONTINUOUS
 62
     7
 10
42.989999999999988
 20
138.5
 30
0.0
 40
0.5
  0
CIRCLE
  5
29F
  8
0
  6
CONTINUOUS
 62
     7
 10
40.449999999999989
 20
138.5
 30
0.0
 40
0.5
  0
CIRCLE
  5
2A0
  8
0
  6
CONTINUOUS
 62
     7
 10
37.909999999999997
 20
138.5
 30
0.0
 40
0.5
  0
CIRCLE
  5
2A1
  8
0
  6
CONTINUOUS
 62
     7
 10
35.36999999999999
 20
138.5
 30
0.0
 40
0.5
  0
CIRCLE
  5
2A2
  8
0
  6
CONTINUOUS
 62
     7
 10
32.829999999999998
 20
138.5
 30
0.0
 40
0.5
  0
CIRCLE
  5
2A3
  8
0
  6
CONTINUOUS
 62
     7
 10
30.289999999999999
 20
138.5
 30
0.0
 40
0.5
  0
CIRCLE
  5
2A4
  8
0
  6
CONTINUOUS
 62
     7
 10
28.899999999999999
 20
178.30000000000001
 30
0.0
 40
1.75
  0
CIRCLE
  5
2A5
  8
0
  6
CONTINUOUS
 62
     7
 10
46.899999999999991
 20
190.80000000000001
 30
0.0
 40
0.5
  0
CIRCLE
  5
2A6
  8
0
  6
CONTINUOUS
 62
     7
 10
45.121999999999993
 20
172.15000000000001
 30
0.0
 40
0.5
  0
CIRCLE
  5
2A7
  8
0
  6
CONTINUOUS
 62
     7
 10
46.899999999999991
 20
165.80000000000001
 30
0.0
 40
0.5
  0
CIRCLE
  5
2A8
  8
0
  6
CONTINUOUS
 62
     7
 10
46.264999999999993
 20
188.25999999999999
 30
0.0
 40
0.5
  0
CIRCLE
  5
2A9
  8
0
  6
CONTINUOUS
 62
     7
 10
44.359999999999992
 20
190.16499999999999
 30
0.0
 40
0.5
  0
CIRCLE
  5
2AA
  8
0
  6
CONTINUOUS
 62
     7
 10
47.534999999999989
 20
193.34
 30
0.0
 40
0.5
  0
CIRCLE
  5
2AB
  8
0
  6
CONTINUOUS
 62
     7
 10
68.389999999999986
 20
138.5
 30
0.0
 40
0.5
  0
CIRCLE
  5
2AC
  8
0
  6
CONTINUOUS
 62
     7
 10
65.849999999999994
 20
138.5
 30
0.0
 40
0.5
  0
CIRCLE
  5
2AD
  8
0
  6
CONTINUOUS
 62
     7
 10
63.309999999999988
 20
138.5
 30
0.0
 40
0.5
  0
CIRCLE
  5
2AE
  8
0
  6
CONTINUOUS
 62
     7
 10
60.769999999999989
 20
138.5
 30
0.0
 40
0.5
  0
CIRCLE
  5
2AF
  8
0
  6
CONTINUOUS
 62
     7
 10
58.22999999999999
 20
138.5
 30
0.0
 40
0.5
  0
CIRCLE
  5
2B0
  8
0
  6
CONTINUOUS
 62
     7
 10
55.689999999999991
 20
138.5
 30
0.0
 40
0.5
  0
CIRCLE
  5
2B1
  8
0
  6
CONTINUOUS
 62
     7
 10
53.149999999999991
 20
138.5
 30
0.0
 40
0.5
  0
CIRCLE
  5
2B2
  8
0
  6
CONTINUOUS
 62
     7
 10
50.609999999999992
 20
138.5
 30
0.0
 40
0.5
  0
CIRCLE
  5
2B3
  8
0
  6
CONTINUOUS
 62
     7
 10
48.67799999999999
 20
159.44999999999999
 30
0.0
 40
0.5
  0
CIRCLE
  5
2B4
  8
0
  6
CONTINUOUS
 62
     7
 10
70.149999999999991
 20
178.30000000000001
 30
0.0
 40
1.75
  0
CIRCLE
  5
2B5
  8
0
  6
CONTINUOUS
 62
     7
 10
48.67799999999999
 20
184.44999999999999
 30
0.0
 40
0.5
  0
CIRCLE
  5
2B6
  8
0
  6
CONTINUOUS
 62
     7
 10
49.439999999999991
 20
191.435
 30
0.0
 40
0.5
  0
CIRCLE
  5
2B7
  8
0
  6
CONTINUOUS
 62
     7
 10
91.621999999999986
 20
172.15000000000001
 30
0.0
 40
0.5
  0
ARC
  5
2B8
  8
0
  6
CONTINUOUS
 62
     7
 10
22.789999999999988
 20
203.30000000000001
 30
0.0
 40
4.0
 50
0.0
 51
90.0
  0
ARC
  5
2B9
  8
0
  6
CONTINUOUS
 62
     7
 10
28.289999999999999
 20
201.30000000000001
 30
0.0
 40
1.5
 50
180.0
 51
270.0
  0
ARC
  5
2BA
  8
0
  6
CONTINUOUS
 62
     7
 10
20.789999999999999
 20
208.80000000000001
 30
0.0
 40
1.5
 50
180.0
 51
270.0
  0
CIRCLE
  5
2BB
  8
0
  6
CONTINUOUS
 62
     7
 10
22.789999999999988
 20
203.30000000000001
 30
0.0
 40
1.25
  0
CIRCLE
  5
2BC
  8
0
  6
CONTINUOUS
 62
     7
 10
45.121999999999993
 20
197.15000000000001
 30
0.0
 40
0.5
  0
ARC
  5
2BD
  8
0
  6
CONTINUOUS
 62
     7
 10
20.789999999999999
 20
248.30000000000001
 30
0.0
 40
1.5
 50
90.0
 51
180.0
  0
ARC
  5
2BE
  8
0
  6
CONTINUOUS
 62
     7
 10
4.0
 20
258.0
 30
0.0
 40
4.0
 50
90.0
 51
180.0
  0
CIRCLE
  5
2BF
  8
0
  6
CONTINUOUS
 62
     7
 10
5.0
 20
257.0
 30
0.0
 40
1.75
  0
CIRCLE
  5
2C0
  8
0
  6
CONTINUOUS
 62
     7
 10
22.789999999999988
 20
258.30000000000001
 30
0.0
 40
1.25
  0
CIRCLE
  5
2C1
  8
0
  6
CONTINUOUS
 62
     7
 10
30.289999999999999
 20
258.30000000000001
 30
0.0
 40
0.5
  0
CIRCLE
  5
2C2
  8
0
  6
CONTINUOUS
 62
     7
 10
32.829999999999998
 20
258.30000000000001
 30
0.0
 40
0.5
  0
CIRCLE
  5
2C3
  8
0
  6
CONTINUOUS
 62
     7
 10
35.36999999999999
 20
258.30000000000001
 30
0.0
 40
0.5
  0
CIRCLE
  5
2C4
  8
0
  6
CONTINUOUS
 62
     7
 10
37.909999999999997
 20
258.30000000000001
 30
0.0
 40
0.5
  0
CIRCLE
  5
2C5
  8
0
  6
CONTINUOUS
 62
     7
 10
40.449999999999989
 20
258.30000000000001
 30
0.0
 40
0.5
  0
CIRCLE
  5
2C6
  8
0
  6
CONTINUOUS
 62
     7
 10
42.989999999999988
 20
258.30000000000001
 30
0.0
 40
0.5
  0
CIRCLE
  5
2C7
  8
0
  6
CONTINUOUS
 62
     7
 10
45.529999999999987
 20
258.30000000000001
 30
0.0
 40
0.5
  0
CIRCLE
  5
2C8
  8
0
  6
CONTINUOUS
 62
     7
 10
91.621999999999986
 20
197.15000000000001
 30
0.0
 40
0.5
  0
CIRCLE
  5
2C9
  8
0
  6
CONTINUOUS
 62
     7
 10
48.069999999999993
 20
258.30000000000001
 30
0.0
 40
0.5
  0
CIRCLE
  5
2CA
  8
0
  6
CONTINUOUS
 62
     7
 10
50.609999999999992
 20
258.30000000000001
 30
0.0
 40
0.5
  0
CIRCLE
  5
2CB
  8
0
  6
CONTINUOUS
 62
     7
 10
53.149999999999991
 20
258.30000000000001
 30
0.0
 40
0.5
  0
CIRCLE
  5
2CC
  8
0
  6
CONTINUOUS
 62
     7
 10
55.689999999999991
 20
258.30000000000001
 30
0.0
 40
0.5
  0
CIRCLE
  5
2CD
  8
0
  6
CONTINUOUS
 62
     7
 10
58.22999999999999
 20
258.30000000000001
 30
0.0
 40
0.5
  0
CIRCLE
  5
2CE
  8
0
  6
CONTINUOUS
 62
     7
 10
60.769999999999989
 20
258.30000000000001
 30
0.0
 40
0.5
  0
CIRCLE
  5
2CF
  8
0
  6
CONTINUOUS
 62
     7
 10
63.309999999999988
 20
258.30000000000001
 30
0.0
 40
0.5
  0
CIRCLE
  5
2D0
  8
0
  6
CONTINUOUS
 62
     7
 10
68.389999999999986
 20
258.30000000000001
 30
0.0
 40
0.5
  0
CIRCLE
  5
2D1
  8
0
  6
CONTINUOUS
 62
     7
 10
65.849999999999994
 20
258.30000000000001
 30
0.0
 40
0.5
  0
CIRCLE
  5
2D2
  8
0
  6
CONTINUOUS
 62
     7
 10
95.177999999999983
 20
159.44999999999999
 30
0.0
 40
0.5
  0
CIRCLE
  5
2D3
  8
0
  6
CONTINUOUS
 62
     7
 10
93.400000000000006
 20
165.80000000000001
 30
0.0
 40
0.5
  0
CIRCLE
  5
2D4
  8
0
  6
CONTINUOUS
 62
     7
 10
111.40000000000001
 20
178.30000000000001
 30
0.0
 40
1.75
  0
CIRCLE
  5
2D5
  8
0
  6
CONTINUOUS
 62
     7
 10
93.400000000000006
 20
190.80000000000001
 30
0.0
 40
0.5
  0
CIRCLE
  5
2D6
  8
0
  6
CONTINUOUS
 62
     7
 10
95.177999999999983
 20
184.44999999999999
 30
0.0
 40
0.5
  0
CIRCLE
  5
2D7
  8
0
  6
CONTINUOUS
 62
     7
 10
115.79000000000001
 20
138.5
 30
0.0
 40
1.25
  0
CIRCLE
  5
2D8
  8
0
  6
CONTINUOUS
 62
     7
 10
130.72999999999999
 20
163.30000000000001
 30
0.0
 40
0.5
  0
CIRCLE
  5
2D9
  8
0
  6
CONTINUOUS
 62
     7
 10
133.2699999999999
 20
163.30000000000001
 30
0.0
 40
0.5
  0
CIRCLE
  5
2DA
  8
0
  6
CONTINUOUS
 62
     7
 10
130.72999999999999
 20
193.30000000000001
 30
0.0
 40
0.5
  0
CIRCLE
  5
2DB
  8
0
  6
CONTINUOUS
 62
     7
 10
133.2699999999999
 20
193.30000000000001
 30
0.0
 40
0.5
  0
CIRCLE
  5
2DC
  8
0
  6
CONTINUOUS
 62
     7
 10
133.2699999999999
 20
183.30000000000001
 30
0.0
 40
0.5
  0
CIRCLE
  5
2DD
  8
0
  6
CONTINUOUS
 62
     7
 10
130.72999999999999
 20
183.30000000000001
 30
0.0
 40
0.5
  0
CIRCLE
  5
2DE
  8
0
  6
CONTINUOUS
 62
     7
 10
133.2699999999999
 20
173.30000000000001
 30
0.0
 40
0.5
  0
CIRCLE
  5
2DF
  8
0
  6
CONTINUOUS
 62
     7
 10
130.72999999999999
 20
173.30000000000001
 30
0.0
 40
0.5
  0
ARC
  5
2E0
  8
0
  6
CONTINUOUS
 62
     7
 10
115.79000000000001
 20
203.30000000000001
 30
0.0
 40
4.0
 50
90.0
 51
180.0
  0
ARC
  5
2E1
  8
0
  6
CONTINUOUS
 62
     7
 10
110.29000000000001
 20
201.30000000000001
 30
0.0
 40
1.5
 50
270.0
 51
0.0
  0
ARC
  5
2E2
  8
0
  6
CONTINUOUS
 62
     7
 10
117.79000000000001
 20
208.80000000000001
 30
0.0
 40
1.5
 50
270.0
 51
0.0
  0
CIRCLE
  5
2E3
  8
0
  6
CONTINUOUS
 62
     7
 10
115.79000000000001
 20
203.30000000000001
 30
0.0
 40
1.25
  0
CIRCLE
  5
2E4
  8
0
  6
CONTINUOUS
 62
     7
 10
130.22200000000001
 20
225.15000000000001
 30
0.0
 40
0.5
  0
CIRCLE
  5
2E5
  8
0
  6
CONTINUOUS
 62
     7
 10
132.0
 20
218.80000000000001
 30
0.0
 40
0.5
  0
CIRCLE
  5
2E6
  8
0
  6
CONTINUOUS
 62
     7
 10
133.77799999999999
 20
212.44999999999999
 30
0.0
 40
0.5
  0
ARC
  5
2E7
  8
0
  6
CONTINUOUS
 62
     7
 10
128.0
 20
257.0
 30
0.0
 40
3.0
 50
180.0
 51
270.0
  0
ARC
  5
2E8
  8
0
  6
CONTINUOUS
 62
     7
 10
122.0
 20
259.0
 30
0.0
 40
3.0
 50
0.0
 51
90.0
  0
CIRCLE
  5
2E9
  8
0
  6
CONTINUOUS
 62
     7
 10
144.0
 20
230.80000000000001
 30
0.0
 40
1.75
  0
ARC
  5
2EA
  8
0
  6
CONTINUOUS
 62
     7
 10
117.79000000000001
 20
248.30000000000001
 30
0.0
 40
1.5
 50
0.0
 51
90.0
  0
CIRCLE
  5
2EB
  8
0
  6
CONTINUOUS
 62
     7
 10
115.79000000000001
 20
258.30000000000001
 30
0.0
 40
1.25
  0
CIRCLE
  5
2EC
  8
0
  6
CONTINUOUS
 62
     7
 10
130.22200000000001
 20
249.15000000000001
 30
0.0
 40
0.5
  0
CIRCLE
  5
2ED
  8
0
  6
CONTINUOUS
 62
     7
 10
132.0
 20
242.80000000000001
 30
0.0
 40
0.5
  0
CIRCLE
  5
2EE
  8
0
  6
CONTINUOUS
 62
     7
 10
133.77799999999999
 20
236.44999999999999
 30
0.0
 40
0.5
  0
CIRCLE
  5
2EF
  8
0
  6
CONTINUOUS
 62
     7
 10
180.0
 20
198.30000000000001
 30
0.0
 40
1.75
  0
CIRCLE
  5
2F0
  8
0
  6
CONTINUOUS
 62
     7
 10
200.0
 20
5.0
 30
0.0
 40
1.75
  0
CIRCLE
  5
2F1
  8
0
  6
CONTINUOUS
 62
     7
 10
229.578
 20
2.9499999999999948
 30
0.0
 40
0.5
  0
CIRCLE
  5
2F2
  8
0
  6
CONTINUOUS
 62
     7
 10
227.80000000000001
 20
9.2999999999999972
 30
0.0
 40
0.5
  0
CIRCLE
  5
2F3
  8
0
  6
CONTINUOUS
 62
     7
 10
226.02199999999999
 20
15.65
 30
0.0
 40
0.5
  0
ARC
  5
2F4
  8
0
  6
CONTINUOUS
 62
     7
 10
200.59
 20
24.300000000000011
 30
0.0
 40
4.0
 50
0.0
 51
90.0
  0
ARC
  5
2F5
  8
0
  6
CONTINUOUS
 62
     7
 10
206.09
 20
22.300000000000001
 30
0.0
 40
1.5
 50
180.0
 51
270.0
  0
ARC
  5
2F6
  8
0
  6
CONTINUOUS
 62
     7
 10
198.58999999999989
 20
29.800000000000001
 30
0.0
 40
1.5
 50
180.0
 51
270.0
  0
CIRCLE
  5
2F7
  8
0
  6
CONTINUOUS
 62
     7
 10
200.59
 20
24.300000000000011
 30
0.0
 40
1.25
  0
CIRCLE
  5
2F8
  8
0
  6
CONTINUOUS
 62
     7
 10
246.80000000000001
 20
9.2999999999999972
 30
0.0
 40
1.75
  0
CIRCLE
  5
2F9
  8
0
  6
CONTINUOUS
 62
     7
 10
264.02199999999999
 20
15.65
 30
0.0
 40
0.5
  0
CIRCLE
  5
2FA
  8
0
  6
CONTINUOUS
 62
     7
 10
265.80000000000001
 20
9.2999999999999972
 30
0.0
 40
0.5
  0
CIRCLE
  5
2FB
  8
0
  6
CONTINUOUS
 62
     7
 10
267.57799999999997
 20
2.9499999999999948
 30
0.0
 40
0.5
  0
ARC
  5
2FC
  8
0
  6
CONTINUOUS
 62
     7
 10
288.08999999999997
 20
22.300000000000001
 30
0.0
 40
1.5
 50
270.0
 51
0.0
  0
ARC
  5
2FD
  8
0
  6
CONTINUOUS
 62
     7
 10
198.58999999999989
 20
69.299999999999983
 30
0.0
 40
1.5
 50
90.0
 51
180.0
  0
CIRCLE
  5
2FE
  8
0
  6
CONTINUOUS
 62
     7
 10
200.59
 20
79.299999999999983
 30
0.0
 40
1.25
  0
CIRCLE
  5
2FF
  8
0
  6
CONTINUOUS
 62
     7
 10
218.25
 20
79.299999999999983
 30
0.0
 40
0.5
  0
CIRCLE
  5
300
  8
0
  6
CONTINUOUS
 62
     7
 10
215.71000000000001
 20
79.299999999999983
 30
0.0
 40
0.5
  0
CIRCLE
  5
301
  8
0
  6
CONTINUOUS
 62
     7
 10
213.16999999999999
 20
79.299999999999983
 30
0.0
 40
0.5
  0
CIRCLE
  5
302
  8
0
  6
CONTINUOUS
 62
     7
 10
210.63
 20
79.299999999999983
 30
0.0
 40
0.5
  0
CIRCLE
  5
303
  8
0
  6
CONTINUOUS
 62
     7
 10
208.09
 20
79.299999999999983
 30
0.0
 40
0.5
  0
CIRCLE
  5
304
  8
0
  6
CONTINUOUS
 62
     7
 10
238.56999999999999
 20
79.299999999999983
 30
0.0
 40
0.5
  0
CIRCLE
  5
305
  8
0
  6
CONTINUOUS
 62
     7
 10
236.03
 20
79.299999999999983
 30
0.0
 40
0.5
  0
CIRCLE
  5
306
  8
0
  6
CONTINUOUS
 62
     7
 10
233.49000000000001
 20
79.299999999999983
 30
0.0
 40
0.5
  0
CIRCLE
  5
307
  8
0
  6
CONTINUOUS
 62
     7
 10
230.94999999999999
 20
79.299999999999983
 30
0.0
 40
0.5
  0
CIRCLE
  5
308
  8
0
  6
CONTINUOUS
 62
     7
 10
228.41
 20
79.299999999999983
 30
0.0
 40
0.5
  0
CIRCLE
  5
309
  8
0
  6
CONTINUOUS
 62
     7
 10
225.87
 20
79.299999999999983
 30
0.0
 40
0.5
  0
CIRCLE
  5
30A
  8
0
  6
CONTINUOUS
 62
     7
 10
223.33000000000001
 20
79.299999999999983
 30
0.0
 40
0.5
  0
CIRCLE
  5
30B
  8
0
  6
CONTINUOUS
 62
     7
 10
220.78999999999999
 20
79.299999999999983
 30
0.0
 40
0.5
  0
CIRCLE
  5
30C
  8
0
  6
CONTINUOUS
 62
     7
 10
212.91
 20
103.88
 30
0.0
 40
0.5
  0
CIRCLE
  5
30D
  8
0
  6
CONTINUOUS
 62
     7
 10
215.44999999999999
 20
103.88
 30
0.0
 40
0.5
  0
CIRCLE
  5
30E
  8
0
  6
CONTINUOUS
 62
     7
 10
217.99000000000001
 20
103.88
 30
0.0
 40
0.5
  0
CIRCLE
  5
30F
  8
0
  6
CONTINUOUS
 62
     7
 10
220.53
 20
103.88
 30
0.0
 40
0.5
  0
CIRCLE
  5
310
  8
0
  6
CONTINUOUS
 62
     7
 10
223.06999999999999
 20
103.88
 30
0.0
 40
0.5
  0
CIRCLE
  5
311
  8
0
  6
CONTINUOUS
 62
     7
 10
223.06999999999999
 20
119.12
 30
0.0
 40
0.5
  0
CIRCLE
  5
312
  8
0
  6
CONTINUOUS
 62
     7
 10
220.53
 20
119.12
 30
0.0
 40
0.5
  0
CIRCLE
  5
313
  8
0
  6
CONTINUOUS
 62
     7
 10
217.99000000000001
 20
119.12
 30
0.0
 40
0.5
  0
CIRCLE
  5
314
  8
0
  6
CONTINUOUS
 62
     7
 10
215.44999999999999
 20
119.12
 30
0.0
 40
0.5
  0
CIRCLE
  5
315
  8
0
  6
CONTINUOUS
 62
     7
 10
212.91
 20
119.12
 30
0.0
 40
0.5
  0
CIRCLE
  5
316
  8
0
  6
CONTINUOUS
 62
     7
 10
225.61000000000001
 20
103.88
 30
0.0
 40
0.5
  0
CIRCLE
  5
317
  8
0
  6
CONTINUOUS
 62
     7
 10
228.15000000000001
 20
103.88
 30
0.0
 40
0.5
  0
CIRCLE
  5
318
  8
0
  6
CONTINUOUS
 62
     7
 10
230.69
 20
103.88
 30
0.0
 40
0.5
  0
CIRCLE
  5
319
  8
0
  6
CONTINUOUS
 62
     7
 10
233.22999999999999
 20
103.88
 30
0.0
 40
0.5
  0
CIRCLE
  5
31A
  8
0
  6
CONTINUOUS
 62
     7
 10
235.77000000000001
 20
103.88
 30
0.0
 40
0.5
  0
CIRCLE
  5
31B
  8
0
  6
CONTINUOUS
 62
     7
 10
238.31
 20
103.88
 30
0.0
 40
0.5
  0
CIRCLE
  5
31C
  8
0
  6
CONTINUOUS
 62
     7
 10
238.31
 20
119.12
 30
0.0
 40
0.5
  0
CIRCLE
  5
31D
  8
0
  6
CONTINUOUS
 62
     7
 10
235.77000000000001
 20
119.12
 30
0.0
 40
0.5
  0
CIRCLE
  5
31E
  8
0
  6
CONTINUOUS
 62
     7
 10
233.22999999999999
 20
119.12
 30
0.0
 40
0.5
  0
CIRCLE
  5
31F
  8
0
  6
CONTINUOUS
 62
     7
 10
230.69
 20
119.12
 30
0.0
 40
0.5
  0
CIRCLE
  5
320
  8
0
  6
CONTINUOUS
 62
     7
 10
228.15000000000001
 20
119.12
 30
0.0
 40
0.5
  0
CIRCLE
  5
321
  8
0
  6
CONTINUOUS
 62
     7
 10
225.61000000000001
 20
119.12
 30
0.0
 40
0.5
  0
CIRCLE
  5
322
  8
0
  6
CONTINUOUS
 62
     7
 10
246.19
 20
79.299999999999983
 30
0.0
 40
0.5
  0
CIRCLE
  5
323
  8
0
  6
CONTINUOUS
 62
     7
 10
243.65000000000001
 20
79.299999999999983
 30
0.0
 40
0.5
  0
CIRCLE
  5
324
  8
0
  6
CONTINUOUS
 62
     7
 10
241.11000000000001
 20
79.299999999999983
 30
0.0
 40
0.5
  0
CIRCLE
  5
325
  8
0
  6
CONTINUOUS
 62
     7
 10
240.84999999999999
 20
103.88
 30
0.0
 40
0.5
  0
CIRCLE
  5
326
  8
0
  6
CONTINUOUS
 62
     7
 10
243.38999999999999
 20
103.88
 30
0.0
 40
0.5
  0
CIRCLE
  5
327
  8
0
  6
CONTINUOUS
 62
     7
 10
245.93000000000001
 20
103.88
 30
0.0
 40
0.5
  0
CIRCLE
  5
328
  8
0
  6
CONTINUOUS
 62
     7
 10
248.47
 20
103.88
 30
0.0
 40
0.5
  0
CIRCLE
  5
329
  8
0
  6
CONTINUOUS
 62
     7
 10
251.00999999999999
 20
103.88
 30
0.0
 40
0.5
  0
CIRCLE
  5
32A
  8
0
  6
CONTINUOUS
 62
     7
 10
253.55000000000001
 20
103.88
 30
0.0
 40
0.5
  0
CIRCLE
  5
32B
  8
0
  6
CONTINUOUS
 62
     7
 10
256.08999999999997
 20
103.88
 30
0.0
 40
0.5
  0
CIRCLE
  5
32C
  8
0
  6
CONTINUOUS
 62
     7
 10
256.08999999999997
 20
119.12
 30
0.0
 40
0.5
  0
CIRCLE
  5
32D
  8
0
  6
CONTINUOUS
 62
     7
 10
253.55000000000001
 20
119.12
 30
0.0
 40
0.5
  0
CIRCLE
  5
32E
  8
0
  6
CONTINUOUS
 62
     7
 10
251.00999999999999
 20
119.12
 30
0.0
 40
0.5
  0
CIRCLE
  5
32F
  8
0
  6
CONTINUOUS
 62
     7
 10
248.47
 20
119.12
 30
0.0
 40
0.5
  0
CIRCLE
  5
330
  8
0
  6
CONTINUOUS
 62
     7
 10
245.93000000000001
 20
119.12
 30
0.0
 40
0.5
  0
CIRCLE
  5
331
  8
0
  6
CONTINUOUS
 62
     7
 10
243.38999999999999
 20
119.12
 30
0.0
 40
0.5
  0
CIRCLE
  5
332
  8
0
  6
CONTINUOUS
 62
     7
 10
240.84999999999999
 20
119.12
 30
0.0
 40
0.5
  0
CIRCLE
  5
333
  8
0
  6
CONTINUOUS
 62
     7
 10
280.0
 20
97.0
 30
0.0
 40
1.75
  0
ARC
  5
334
  8
0
  6
CONTINUOUS
 62
     7
 10
293.58999999999997
 20
24.300000000000011
 30
0.0
 40
4.0
 50
90.0
 51
180.0
  0
ARC
  5
335
  8
0
  6
CONTINUOUS
 62
     7
 10
295.58999999999997
 20
29.800000000000001
 30
0.0
 40
1.5
 50
270.0
 51
0.0
  0
CIRCLE
  5
336
  8
0
  6
CONTINUOUS
 62
     7
 10
293.58999999999997
 20
24.300000000000011
 30
0.0
 40
1.25
  0
CIRCLE
  5
337
  8
0
  6
CONTINUOUS
 62
     7
 10
311.57799999999997
 20
33.45000000000001
 30
0.0
 40
0.5
  0
CIRCLE
  5
338
  8
0
  6
CONTINUOUS
 62
     7
 10
311.06999999999999
 20
4.2999999999999972
 30
0.0
 40
0.5
  0
CIRCLE
  5
339
  8
0
  6
CONTINUOUS
 62
     7
 10
308.52999999999997
 20
4.2999999999999972
 30
0.0
 40
0.5
  0
CIRCLE
  5
33A
  8
0
  6
CONTINUOUS
 62
     7
 10
311.06999999999999
 20
14.300000000000001
 30
0.0
 40
0.5
  0
CIRCLE
  5
33B
  8
0
  6
CONTINUOUS
 62
     7
 10
308.52999999999997
 20
14.300000000000001
 30
0.0
 40
0.5
  0
CIRCLE
  5
33C
  8
0
  6
CONTINUOUS
 62
     7
 10
327.80000000000001
 20
51.79999999999999
 30
0.0
 40
1.75
  0
CIRCLE
  5
33D
  8
0
  6
CONTINUOUS
 62
     7
 10
309.80000000000001
 20
63.79999999999999
 30
0.0
 40
0.5
  0
CIRCLE
  5
33E
  8
0
  6
CONTINUOUS
 62
     7
 10
311.57799999999997
 20
57.449999999999989
 30
0.0
 40
0.5
  0
CIRCLE
  5
33F
  8
0
  6
CONTINUOUS
 62
     7
 10
309.80000000000001
 20
39.799999999999997
 30
0.0
 40
0.5
  0
CIRCLE
  5
340
  8
0
  6
CONTINUOUS
 62
     7
 10
308.02199999999999
 20
46.150000000000013
 30
0.0
 40
0.5
  0
ARC
  5
341
  8
0
  6
CONTINUOUS
 62
     7
 10
386.0
 20
4.0
 30
0.0
 40
4.0
 50
270.0
 51
0.0
  0
CIRCLE
  5
342
  8
0
  6
CONTINUOUS
 62
     7
 10
385.0
 20
5.0
 30
0.0
 40
1.75
  0
CIRCLE
  5
343
  8
0
  6
CONTINUOUS
 62
     7
 10
377.76999999999998
 20
4.2999999999999972
 30
0.0
 40
0.5
  0
CIRCLE
  5
344
  8
0
  6
CONTINUOUS
 62
     7
 10
375.2299999999999
 20
4.2999999999999972
 30
0.0
 40
0.5
  0
CIRCLE
  5
345
  8
0
  6
CONTINUOUS
 62
     7
 10
377.76999999999998
 20
21.300000000000001
 30
0.0
 40
0.5
  0
CIRCLE
  5
346
  8
0
  6
CONTINUOUS
 62
     7
 10
375.2299999999999
 20
21.300000000000001
 30
0.0
 40
0.5
  0
CIRCLE
  5
347
  8
0
  6
CONTINUOUS
 62
     7
 10
377.76999999999998
 20
55.299999999999997
 30
0.0
 40
0.5
  0
CIRCLE
  5
348
  8
0
  6
CONTINUOUS
 62
     7
 10
375.2299999999999
 20
55.299999999999997
 30
0.0
 40
0.5
  0
CIRCLE
  5
349
  8
0
  6
CONTINUOUS
 62
     7
 10
377.76999999999998
 20
38.299999999999997
 30
0.0
 40
0.5
  0
CIRCLE
  5
34A
  8
0
  6
CONTINUOUS
 62
     7
 10
375.2299999999999
 20
38.299999999999997
 30
0.0
 40
0.5
  0
ARC
  5
34B
  8
0
  6
CONTINUOUS
 62
     7
 10
295.58999999999997
 20
69.299999999999983
 30
0.0
 40
1.5
 50
0.0
 51
90.0
  0
CIRCLE
  5
34C
  8
0
  6
CONTINUOUS
 62
     7
 10
293.58999999999997
 20
79.299999999999983
 30
0.0
 40
1.25
  0
CIRCLE
  5
34D
  8
0
  6
CONTINUOUS
 62
     7
 10
308.02199999999999
 20
70.149999999999991
 30
0.0
 40
0.5
  0
CIRCLE
  5
34E
  8
0
  6
CONTINUOUS
 62
     7
 10
329.5
 20
128.80000000000001
 30
0.0
 40
1.75
  0
CIRCLE
  5
34F
  8
0
  6
CONTINUOUS
 62
     7
 10
327.72199999999998
 20
118.15000000000001
 30
0.0
 40
0.5
  0
CIRCLE
  5
350
  8
0
  6
CONTINUOUS
 62
     7
 10
329.5
 20
111.8
 30
0.0
 40
0.5
  0
CIRCLE
  5
351
  8
0
  6
CONTINUOUS
 62
     7
 10
331.27800000000002
 20
105.45
 30
0.0
 40
0.5
  0
CIRCLE
  5
352
  8
0
  6
CONTINUOUS
 62
     7
 10
377.76999999999998
 20
72.299999999999997
 30
0.0
 40
0.5
  0
CIRCLE
  5
353
  8
0
  6
CONTINUOUS
 62
     7
 10
375.2299999999999
 20
72.299999999999997
 30
0.0
 40
0.5
  0
CIRCLE
  5
354
  8
0
  6
CONTINUOUS
 62
     7
 10
377.76999999999998
 20
111.5
 30
0.0
 40
0.5
  0
CIRCLE
  5
355
  8
0
  6
CONTINUOUS
 62
     7
 10
375.2299999999999
 20
111.5
 30
0.0
 40
0.5
  0
CIRCLE
  5
356
  8
0
  6
CONTINUOUS
 62
     7
 10
200.0
 20
132.0
 30
0.0
 40
0.75
  0
CIRCLE
  5
357
  8
0
  6
CONTINUOUS
 62
     7
 10
225.61000000000001
 20
135.88
 30
0.0
 40
0.5
  0
CIRCLE
  5
358
  8
0
  6
CONTINUOUS
 62
     7
 10
223.06999999999999
 20
135.88
 30
0.0
 40
0.5
  0
CIRCLE
  5
359
  8
0
  6
CONTINUOUS
 62
     7
 10
220.53
 20
135.88
 30
0.0
 40
0.5
  0
CIRCLE
  5
35A
  8
0
  6
CONTINUOUS
 62
     7
 10
217.99000000000001
 20
135.88
 30
0.0
 40
0.5
  0
CIRCLE
  5
35B
  8
0
  6
CONTINUOUS
 62
     7
 10
215.44999999999999
 20
135.88
 30
0.0
 40
0.5
  0
CIRCLE
  5
35C
  8
0
  6
CONTINUOUS
 62
     7
 10
212.91
 20
135.88
 30
0.0
 40
0.5
  0
CIRCLE
  5
35D
  8
0
  6
CONTINUOUS
 62
     7
 10
212.91
 20
151.12
 30
0.0
 40
0.5
  0
CIRCLE
  5
35E
  8
0
  6
CONTINUOUS
 62
     7
 10
215.44999999999999
 20
151.12
 30
0.0
 40
0.5
  0
CIRCLE
  5
35F
  8
0
  6
CONTINUOUS
 62
     7
 10
217.99000000000001
 20
151.12
 30
0.0
 40
0.5
  0
CIRCLE
  5
360
  8
0
  6
CONTINUOUS
 62
     7
 10
220.53
 20
151.12
 30
0.0
 40
0.5
  0
CIRCLE
  5
361
  8
0
  6
CONTINUOUS
 62
     7
 10
223.06999999999999
 20
151.12
 30
0.0
 40
0.5
  0
CIRCLE
  5
362
  8
0
  6
CONTINUOUS
 62
     7
 10
225.61000000000001
 20
151.12
 30
0.0
 40
0.5
  0
CIRCLE
  5
363
  8
0
  6
CONTINUOUS
 62
     7
 10
217.99000000000001
 20
167.88
 30
0.0
 40
0.5
  0
CIRCLE
  5
364
  8
0
  6
CONTINUOUS
 62
     7
 10
215.44999999999999
 20
167.88
 30
0.0
 40
0.5
  0
CIRCLE
  5
365
  8
0
  6
CONTINUOUS
 62
     7
 10
212.91
 20
167.88
 30
0.0
 40
0.5
  0
CIRCLE
  5
366
  8
0
  6
CONTINUOUS
 62
     7
 10
217.99000000000001
 20
183.12
 30
0.0
 40
0.5
  0
CIRCLE
  5
367
  8
0
  6
CONTINUOUS
 62
     7
 10
215.44999999999999
 20
183.12
 30
0.0
 40
0.5
  0
CIRCLE
  5
368
  8
0
  6
CONTINUOUS
 62
     7
 10
212.91
 20
183.12
 30
0.0
 40
0.5
  0
CIRCLE
  5
369
  8
0
  6
CONTINUOUS
 62
     7
 10
225.61000000000001
 20
167.88
 30
0.0
 40
0.5
  0
CIRCLE
  5
36A
  8
0
  6
CONTINUOUS
 62
     7
 10
223.06999999999999
 20
167.88
 30
0.0
 40
0.5
  0
CIRCLE
  5
36B
  8
0
  6
CONTINUOUS
 62
     7
 10
220.53
 20
167.88
 30
0.0
 40
0.5
  0
CIRCLE
  5
36C
  8
0
  6
CONTINUOUS
 62
     7
 10
225.61000000000001
 20
183.12
 30
0.0
 40
0.5
  0
CIRCLE
  5
36D
  8
0
  6
CONTINUOUS
 62
     7
 10
223.06999999999999
 20
183.12
 30
0.0
 40
0.5
  0
CIRCLE
  5
36E
  8
0
  6
CONTINUOUS
 62
     7
 10
220.53
 20
183.12
 30
0.0
 40
0.5
  0
CIRCLE
  5
36F
  8
0
  6
CONTINUOUS
 62
     7
 10
240.84999999999999
 20
135.88
 30
0.0
 40
0.5
  0
CIRCLE
  5
370
  8
0
  6
CONTINUOUS
 62
     7
 10
238.31
 20
135.88
 30
0.0
 40
0.5
  0
CIRCLE
  5
371
  8
0
  6
CONTINUOUS
 62
     7
 10
235.77000000000001
 20
135.88
 30
0.0
 40
0.5
  0
CIRCLE
  5
372
  8
0
  6
CONTINUOUS
 62
     7
 10
233.22999999999999
 20
135.88
 30
0.0
 40
0.5
  0
CIRCLE
  5
373
  8
0
  6
CONTINUOUS
 62
     7
 10
230.69
 20
135.88
 30
0.0
 40
0.5
  0
CIRCLE
  5
374
  8
0
  6
CONTINUOUS
 62
     7
 10
228.15000000000001
 20
135.88
 30
0.0
 40
0.5
  0
CIRCLE
  5
375
  8
0
  6
CONTINUOUS
 62
     7
 10
228.15000000000001
 20
151.12
 30
0.0
 40
0.5
  0
CIRCLE
  5
376
  8
0
  6
CONTINUOUS
 62
     7
 10
230.69
 20
151.12
 30
0.0
 40
0.5
  0
CIRCLE
  5
377
  8
0
  6
CONTINUOUS
 62
     7
 10
233.22999999999999
 20
151.12
 30
0.0
 40
0.5
  0
CIRCLE
  5
378
  8
0
  6
CONTINUOUS
 62
     7
 10
235.77000000000001
 20
151.12
 30
0.0
 40
0.5
  0
CIRCLE
  5
379
  8
0
  6
CONTINUOUS
 62
     7
 10
238.31
 20
151.12
 30
0.0
 40
0.5
  0
CIRCLE
  5
37A
  8
0
  6
CONTINUOUS
 62
     7
 10
240.84999999999999
 20
151.12
 30
0.0
 40
0.5
  0
CIRCLE
  5
37B
  8
0
  6
CONTINUOUS
 62
     7
 10
256.08999999999997
 20
135.88
 30
0.0
 40
0.5
  0
CIRCLE
  5
37C
  8
0
  6
CONTINUOUS
 62
     7
 10
253.55000000000001
 20
135.88
 30
0.0
 40
0.5
  0
CIRCLE
  5
37D
  8
0
  6
CONTINUOUS
 62
     7
 10
251.00999999999999
 20
135.88
 30
0.0
 40
0.5
  0
CIRCLE
  5
37E
  8
0
  6
CONTINUOUS
 62
     7
 10
248.47
 20
135.88
 30
0.0
 40
0.5
  0
CIRCLE
  5
37F
  8
0
  6
CONTINUOUS
 62
     7
 10
245.93000000000001
 20
135.88
 30
0.0
 40
0.5
  0
CIRCLE
  5
380
  8
0
  6
CONTINUOUS
 62
     7
 10
243.38999999999999
 20
135.88
 30
0.0
 40
0.5
  0
CIRCLE
  5
381
  8
0
  6
CONTINUOUS
 62
     7
 10
243.38999999999999
 20
151.12
 30
0.0
 40
0.5
  0
CIRCLE
  5
382
  8
0
  6
CONTINUOUS
 62
     7
 10
245.93000000000001
 20
151.12
 30
0.0
 40
0.5
  0
CIRCLE
  5
383
  8
0
  6
CONTINUOUS
 62
     7
 10
248.47
 20
151.12
 30
0.0
 40
0.5
  0
CIRCLE
  5
384
  8
0
  6
CONTINUOUS
 62
     7
 10
251.00999999999999
 20
151.12
 30
0.0
 40
0.5
  0
CIRCLE
  5
385
  8
0
  6
CONTINUOUS
 62
     7
 10
253.55000000000001
 20
151.12
 30
0.0
 40
0.5
  0
CIRCLE
  5
386
  8
0
  6
CONTINUOUS
 62
     7
 10
256.08999999999997
 20
151.12
 30
0.0
 40
0.5
  0
CIRCLE
  5
387
  8
0
  6
CONTINUOUS
 62
     7
 10
240.84999999999999
 20
167.88
 30
0.0
 40
0.5
  0
CIRCLE
  5
388
  8
0
  6
CONTINUOUS
 62
     7
 10
238.31
 20
167.88
 30
0.0
 40
0.5
  0
CIRCLE
  5
389
  8
0
  6
CONTINUOUS
 62
     7
 10
235.77000000000001
 20
167.88
 30
0.0
 40
0.5
  0
CIRCLE
  5
38A
  8
0
  6
CONTINUOUS
 62
     7
 10
233.22999999999999
 20
167.88
 30
0.0
 40
0.5
  0
CIRCLE
  5
38B
  8
0
  6
CONTINUOUS
 62
     7
 10
230.69
 20
167.88
 30
0.0
 40
0.5
  0
CIRCLE
  5
38C
  8
0
  6
CONTINUOUS
 62
     7
 10
228.15000000000001
 20
167.88
 30
0.0
 40
0.5
  0
CIRCLE
  5
38D
  8
0
  6
CONTINUOUS
 62
     7
 10
240.84999999999999
 20
183.12
 30
0.0
 40
0.5
  0
CIRCLE
  5
38E
  8
0
  6
CONTINUOUS
 62
     7
 10
238.31
 20
183.12
 30
0.0
 40
0.5
  0
CIRCLE
  5
38F
  8
0
  6
CONTINUOUS
 62
     7
 10
235.77000000000001
 20
183.12
 30
0.0
 40
0.5
  0
CIRCLE
  5
390
  8
0
  6
CONTINUOUS
 62
     7
 10
233.22999999999999
 20
183.12
 30
0.0
 40
0.5
  0
CIRCLE
  5
391
  8
0
  6
CONTINUOUS
 62
     7
 10
230.69
 20
183.12
 30
0.0
 40
0.5
  0
CIRCLE
  5
392
  8
0
  6
CONTINUOUS
 62
     7
 10
228.15000000000001
 20
183.12
 30
0.0
 40
0.5
  0
CIRCLE
  5
393
  8
0
  6
CONTINUOUS
 62
     7
 10
256.08999999999997
 20
167.88
 30
0.0
 40
0.5
  0
CIRCLE
  5
394
  8
0
  6
CONTINUOUS
 62
     7
 10
253.55000000000001
 20
167.88
 30
0.0
 40
0.5
  0
CIRCLE
  5
395
  8
0
  6
CONTINUOUS
 62
     7
 10
251.00999999999999
 20
167.88
 30
0.0
 40
0.5
  0
CIRCLE
  5
396
  8
0
  6
CONTINUOUS
 62
     7
 10
248.47
 20
167.88
 30
0.0
 40
0.5
  0
CIRCLE
  5
397
  8
0
  6
CONTINUOUS
 62
     7
 10
245.93000000000001
 20
167.88
 30
0.0
 40
0.5
  0
CIRCLE
  5
398
  8
0
  6
CONTINUOUS
 62
     7
 10
243.38999999999999
 20
167.88
 30
0.0
 40
0.5
  0
CIRCLE
  5
399
  8
0
  6
CONTINUOUS
 62
     7
 10
256.08999999999997
 20
183.12
 30
0.0
 40
0.5
  0
CIRCLE
  5
39A
  8
0
  6
CONTINUOUS
 62
     7
 10
253.55000000000001
 20
183.12
 30
0.0
 40
0.5
  0
CIRCLE
  5
39B
  8
0
  6
CONTINUOUS
 62
     7
 10
251.00999999999999
 20
183.12
 30
0.0
 40
0.5
  0
CIRCLE
  5
39C
  8
0
  6
CONTINUOUS
 62
     7
 10
248.47
 20
183.12
 30
0.0
 40
0.5
  0
CIRCLE
  5
39D
  8
0
  6
CONTINUOUS
 62
     7
 10
245.93000000000001
 20
183.12
 30
0.0
 40
0.5
  0
CIRCLE
  5
39E
  8
0
  6
CONTINUOUS
 62
     7
 10
243.38999999999999
 20
183.12
 30
0.0
 40
0.5
  0
CIRCLE
  5
39F
  8
0
  6
CONTINUOUS
 62
     7
 10
228.15000000000001
 20
199.88
 30
0.0
 40
0.5
  0
CIRCLE
  5
3A0
  8
0
  6
CONTINUOUS
 62
     7
 10
225.61000000000001
 20
199.88
 30
0.0
 40
0.5
  0
CIRCLE
  5
3A1
  8
0
  6
CONTINUOUS
 62
     7
 10
223.06999999999999
 20
199.88
 30
0.0
 40
0.5
  0
CIRCLE
  5
3A2
  8
0
  6
CONTINUOUS
 62
     7
 10
220.53
 20
199.88
 30
0.0
 40
0.5
  0
CIRCLE
  5
3A3
  8
0
  6
CONTINUOUS
 62
     7
 10
217.99000000000001
 20
199.88
 30
0.0
 40
0.5
  0
CIRCLE
  5
3A4
  8
0
  6
CONTINUOUS
 62
     7
 10
215.44999999999999
 20
199.88
 30
0.0
 40
0.5
  0
CIRCLE
  5
3A5
  8
0
  6
CONTINUOUS
 62
     7
 10
212.91
 20
199.88
 30
0.0
 40
0.5
  0
CIRCLE
  5
3A6
  8
0
  6
CONTINUOUS
 62
     7
 10
212.91
 20
215.12
 30
0.0
 40
0.5
  0
CIRCLE
  5
3A7
  8
0
  6
CONTINUOUS
 62
     7
 10
215.44999999999999
 20
215.12
 30
0.0
 40
0.5
  0
CIRCLE
  5
3A8
  8
0
  6
CONTINUOUS
 62
     7
 10
217.99000000000001
 20
215.12
 30
0.0
 40
0.5
  0
CIRCLE
  5
3A9
  8
0
  6
CONTINUOUS
 62
     7
 10
220.53
 20
215.12
 30
0.0
 40
0.5
  0
CIRCLE
  5
3AA
  8
0
  6
CONTINUOUS
 62
     7
 10
223.06999999999999
 20
215.12
 30
0.0
 40
0.5
  0
CIRCLE
  5
3AB
  8
0
  6
CONTINUOUS
 62
     7
 10
225.61000000000001
 20
215.12
 30
0.0
 40
0.5
  0
CIRCLE
  5
3AC
  8
0
  6
CONTINUOUS
 62
     7
 10
228.15000000000001
 20
215.12
 30
0.0
 40
0.5
  0
CIRCLE
  5
3AD
  8
0
  6
CONTINUOUS
 62
     7
 10
245.93000000000001
 20
199.88
 30
0.0
 40
0.5
  0
CIRCLE
  5
3AE
  8
0
  6
CONTINUOUS
 62
     7
 10
243.38999999999999
 20
199.88
 30
0.0
 40
0.5
  0
CIRCLE
  5
3AF
  8
0
  6
CONTINUOUS
 62
     7
 10
240.84999999999999
 20
199.88
 30
0.0
 40
0.5
  0
CIRCLE
  5
3B0
  8
0
  6
CONTINUOUS
 62
     7
 10
238.31
 20
199.88
 30
0.0
 40
0.5
  0
CIRCLE
  5
3B1
  8
0
  6
CONTINUOUS
 62
     7
 10
235.77000000000001
 20
199.88
 30
0.0
 40
0.5
  0
CIRCLE
  5
3B2
  8
0
  6
CONTINUOUS
 62
     7
 10
233.22999999999999
 20
199.88
 30
0.0
 40
0.5
  0
CIRCLE
  5
3B3
  8
0
  6
CONTINUOUS
 62
     7
 10
230.69
 20
199.88
 30
0.0
 40
0.5
  0
CIRCLE
  5
3B4
  8
0
  6
CONTINUOUS
 62
     7
 10
230.69
 20
215.12
 30
0.0
 40
0.5
  0
CIRCLE
  5
3B5
  8
0
  6
CONTINUOUS
 62
     7
 10
233.22999999999999
 20
215.12
 30
0.0
 40
0.5
  0
CIRCLE
  5
3B6
  8
0
  6
CONTINUOUS
 62
     7
 10
235.77000000000001
 20
215.12
 30
0.0
 40
0.5
  0
CIRCLE
  5
3B7
  8
0
  6
CONTINUOUS
 62
     7
 10
238.31
 20
215.12
 30
0.0
 40
0.5
  0
CIRCLE
  5
3B8
  8
0
  6
CONTINUOUS
 62
     7
 10
240.84999999999999
 20
215.12
 30
0.0
 40
0.5
  0
CIRCLE
  5
3B9
  8
0
  6
CONTINUOUS
 62
     7
 10
243.38999999999999
 20
215.12
 30
0.0
 40
0.5
  0
CIRCLE
  5
3BA
  8
0
  6
CONTINUOUS
 62
     7
 10
245.93000000000001
 20
215.12
 30
0.0
 40
0.5
  0
CIRCLE
  5
3BB
  8
0
  6
CONTINUOUS
 62
     7
 10
212.91
 20
231.88
 30
0.0
 40
0.5
  0
CIRCLE
  5
3BC
  8
0
  6
CONTINUOUS
 62
     7
 10
215.44999999999999
 20
231.88
 30
0.0
 40
0.5
  0
CIRCLE
  5
3BD
  8
0
  6
CONTINUOUS
 62
     7
 10
217.99000000000001
 20
231.88
 30
0.0
 40
0.5
  0
CIRCLE
  5
3BE
  8
0
  6
CONTINUOUS
 62
     7
 10
220.53
 20
231.88
 30
0.0
 40
0.5
  0
CIRCLE
  5
3BF
  8
0
  6
CONTINUOUS
 62
     7
 10
223.06999999999999
 20
231.88
 30
0.0
 40
0.5
  0
CIRCLE
  5
3C0
  8
0
  6
CONTINUOUS
 62
     7
 10
225.61000000000001
 20
231.88
 30
0.0
 40
0.5
  0
CIRCLE
  5
3C1
  8
0
  6
CONTINUOUS
 62
     7
 10
228.15000000000001
 20
231.88
 30
0.0
 40
0.5
  0
CIRCLE
  5
3C2
  8
0
  6
CONTINUOUS
 62
     7
 10
228.15000000000001
 20
247.12
 30
0.0
 40
0.5
  0
CIRCLE
  5
3C3
  8
0
  6
CONTINUOUS
 62
     7
 10
225.61000000000001
 20
247.12
 30
0.0
 40
0.5
  0
CIRCLE
  5
3C4
  8
0
  6
CONTINUOUS
 62
     7
 10
223.06999999999999
 20
247.12
 30
0.0
 40
0.5
  0
CIRCLE
  5
3C5
  8
0
  6
CONTINUOUS
 62
     7
 10
220.53
 20
247.12
 30
0.0
 40
0.5
  0
CIRCLE
  5
3C6
  8
0
  6
CONTINUOUS
 62
     7
 10
217.99000000000001
 20
247.12
 30
0.0
 40
0.5
  0
CIRCLE
  5
3C7
  8
0
  6
CONTINUOUS
 62
     7
 10
215.44999999999999
 20
247.12
 30
0.0
 40
0.5
  0
CIRCLE
  5
3C8
  8
0
  6
CONTINUOUS
 62
     7
 10
212.91
 20
247.12
 30
0.0
 40
0.5
  0
CIRCLE
  5
3C9
  8
0
  6
CONTINUOUS
 62
     7
 10
230.69
 20
231.88
 30
0.0
 40
0.5
  0
CIRCLE
  5
3CA
  8
0
  6
CONTINUOUS
 62
     7
 10
233.22999999999999
 20
231.88
 30
0.0
 40
0.5
  0
CIRCLE
  5
3CB
  8
0
  6
CONTINUOUS
 62
     7
 10
235.77000000000001
 20
231.88
 30
0.0
 40
0.5
  0
CIRCLE
  5
3CC
  8
0
  6
CONTINUOUS
 62
     7
 10
238.31
 20
231.88
 30
0.0
 40
0.5
  0
CIRCLE
  5
3CD
  8
0
  6
CONTINUOUS
 62
     7
 10
240.84999999999999
 20
231.88
 30
0.0
 40
0.5
  0
CIRCLE
  5
3CE
  8
0
  6
CONTINUOUS
 62
     7
 10
243.38999999999999
 20
231.88
 30
0.0
 40
0.5
  0
CIRCLE
  5
3CF
  8
0
  6
CONTINUOUS
 62
     7
 10
245.93000000000001
 20
231.88
 30
0.0
 40
0.5
  0
CIRCLE
  5
3D0
  8
0
  6
CONTINUOUS
 62
     7
 10
245.93000000000001
 20
247.12
 30
0.0
 40
0.5
  0
CIRCLE
  5
3D1
  8
0
  6
CONTINUOUS
 62
     7
 10
243.38999999999999
 20
247.12
 30
0.0
 40
0.5
  0
CIRCLE
  5
3D2
  8
0
  6
CONTINUOUS
 62
     7
 10
240.84999999999999
 20
247.12
 30
0.0
 40
0.5
  0
CIRCLE
  5
3D3
  8
0
  6
CONTINUOUS
 62
     7
 10
238.31
 20
247.12
 30
0.0
 40
0.5
  0
CIRCLE
  5
3D4
  8
0
  6
CONTINUOUS
 62
     7
 10
235.77000000000001
 20
247.12
 30
0.0
 40
0.5
  0
CIRCLE
  5
3D5
  8
0
  6
CONTINUOUS
 62
     7
 10
233.22999999999999
 20
247.12
 30
0.0
 40
0.5
  0
CIRCLE
  5
3D6
  8
0
  6
CONTINUOUS
 62
     7
 10
230.69
 20
247.12
 30
0.0
 40
0.5
  0
CIRCLE
  5
3D7
  8
0
  6
CONTINUOUS
 62
     7
 10
256.08999999999997
 20
199.88
 30
0.0
 40
0.5
  0
CIRCLE
  5
3D8
  8
0
  6
CONTINUOUS
 62
     7
 10
253.55000000000001
 20
199.88
 30
0.0
 40
0.5
  0
CIRCLE
  5
3D9
  8
0
  6
CONTINUOUS
 62
     7
 10
251.00999999999999
 20
199.88
 30
0.0
 40
0.5
  0
CIRCLE
  5
3DA
  8
0
  6
CONTINUOUS
 62
     7
 10
248.47
 20
199.88
 30
0.0
 40
0.5
  0
CIRCLE
  5
3DB
  8
0
  6
CONTINUOUS
 62
     7
 10
248.47
 20
215.12
 30
0.0
 40
0.5
  0
CIRCLE
  5
3DC
  8
0
  6
CONTINUOUS
 62
     7
 10
251.00999999999999
 20
215.12
 30
0.0
 40
0.5
  0
CIRCLE
  5
3DD
  8
0
  6
CONTINUOUS
 62
     7
 10
253.55000000000001
 20
215.12
 30
0.0
 40
0.5
  0
CIRCLE
  5
3DE
  8
0
  6
CONTINUOUS
 62
     7
 10
256.08999999999997
 20
215.12
 30
0.0
 40
0.5
  0
CIRCLE
  5
3DF
  8
0
  6
CONTINUOUS
 62
     7
 10
280.0
 20
230.80000000000001
 30
0.0
 40
1.75
  0
CIRCLE
  5
3E0
  8
0
  6
CONTINUOUS
 62
     7
 10
248.47
 20
231.88
 30
0.0
 40
0.5
  0
CIRCLE
  5
3E1
  8
0
  6
CONTINUOUS
 62
     7
 10
251.00999999999999
 20
231.88
 30
0.0
 40
0.5
  0
CIRCLE
  5
3E2
  8
0
  6
CONTINUOUS
 62
     7
 10
253.55000000000001
 20
231.88
 30
0.0
 40
0.5
  0
CIRCLE
  5
3E3
  8
0
  6
CONTINUOUS
 62
     7
 10
256.08999999999997
 20
231.88
 30
0.0
 40
0.5
  0
CIRCLE
  5
3E4
  8
0
  6
CONTINUOUS
 62
     7
 10
256.08999999999997
 20
247.12
 30
0.0
 40
0.5
  0
CIRCLE
  5
3E5
  8
0
  6
CONTINUOUS
 62
     7
 10
253.55000000000001
 20
247.12
 30
0.0
 40
0.5
  0
CIRCLE
  5
3E6
  8
0
  6
CONTINUOUS
 62
     7
 10
251.00999999999999
 20
247.12
 30
0.0
 40
0.5
  0
CIRCLE
  5
3E7
  8
0
  6
CONTINUOUS
 62
     7
 10
248.47
 20
247.12
 30
0.0
 40
0.5
  0
CIRCLE
  5
3E8
  8
0
  6
CONTINUOUS
 62
     7
 10
327.72199999999998
 20
152.15000000000001
 30
0.0
 40
0.5
  0
CIRCLE
  5
3E9
  8
0
  6
CONTINUOUS
 62
     7
 10
329.5
 20
145.80000000000001
 30
0.0
 40
0.5
  0
CIRCLE
  5
3EA
  8
0
  6
CONTINUOUS
 62
     7
 10
331.27800000000002
 20
139.44999999999999
 30
0.0
 40
0.5
  0
CIRCLE
  5
3EB
  8
0
  6
CONTINUOUS
 62
     7
 10
355.0
 20
178.30000000000001
 30
0.0
 40
1.75
  0
CIRCLE
  5
3EC
  8
0
  6
CONTINUOUS
 62
     7
 10
385.0
 20
132.0
 30
0.0
 40
1.75
  0
CIRCLE
  5
3ED
  8
0
  6
CONTINUOUS
 62
     7
 10
377.76999999999998
 20
137.09999999999999
 30
0.0
 40
0.5
  0
CIRCLE
  5
3EE
  8
0
  6
CONTINUOUS
 62
     7
 10
375.2299999999999
 20
137.09999999999999
 30
0.0
 40
0.5
  0
CIRCLE
  5
3EF
  8
0
  6
CONTINUOUS
 62
     7
 10
377.76999999999998
 20
162.69999999999999
 30
0.0
 40
0.5
  0
CIRCLE
  5
3F0
  8
0
  6
CONTINUOUS
 62
     7
 10
375.2299999999999
 20
162.69999999999999
 30
0.0
 40
0.5
  0
CIRCLE
  5
3F1
  8
0
  6
CONTINUOUS
 62
     7
 10
377.76999999999998
 20
188.30000000000001
 30
0.0
 40
0.5
  0
CIRCLE
  5
3F2
  8
0
  6
CONTINUOUS
 62
     7
 10
375.2299999999999
 20
188.30000000000001
 30
0.0
 40
0.5
  0
CIRCLE
  5
3F3
  8
0
  6
CONTINUOUS
 62
     7
 10
316.27800000000002
 20
199.05000000000001
 30
0.0
 40
0.5
  0
CIRCLE
  5
3F4
  8
0
  6
CONTINUOUS
 62
     7
 10
314.5
 20
205.40000000000001
 30
0.0
 40
0.5
  0
CIRCLE
  5
3F5
  8
0
  6
CONTINUOUS
 62
     7
 10
312.72199999999998
 20
211.75
 30
0.0
 40
0.5
  0
CIRCLE
  5
3F6
  8
0
  6
CONTINUOUS
 62
     7
 10
315.76999999999998
 20
222.40000000000001
 30
0.0
 40
0.5
  0
CIRCLE
  5
3F7
  8
0
  6
CONTINUOUS
 62
     7
 10
313.23000000000002
 20
222.40000000000001
 30
0.0
 40
0.5
  0
CIRCLE
  5
3F8
  8
0
  6
CONTINUOUS
 62
     7
 10
344.5
 20
205.40000000000001
 30
0.0
 40
0.5
  0
CIRCLE
  5
3F9
  8
0
  6
CONTINUOUS
 62
     7
 10
346.27799999999991
 20
199.05000000000001
 30
0.0
 40
0.5
  0
CIRCLE
  5
3FA
  8
0
  6
CONTINUOUS
 62
     7
 10
329.5
 20
222.40000000000001
 30
0.0
 40
1.75
  0
CIRCLE
  5
3FB
  8
0
  6
CONTINUOUS
 62
     7
 10
342.72199999999998
 20
211.75
 30
0.0
 40
0.5
  0
CIRCLE
  5
3FC
  8
0
  6
CONTINUOUS
 62
     7
 10
345.76999999999998
 20
222.40000000000001
 30
0.0
 40
0.5
  0
CIRCLE
  5
3FD
  8
0
  6
CONTINUOUS
 62
     7
 10
343.23000000000002
 20
222.40000000000001
 30
0.0
 40
0.5
  0
CIRCLE
  5
3FE
  8
0
  6
CONTINUOUS
 62
     7
 10
342.72199999999998
 20
245.75
 30
0.0
 40
0.5
  0
CIRCLE
  5
3FF
  8
0
  6
CONTINUOUS
 62
     7
 10
344.5
 20
239.40000000000001
 30
0.0
 40
0.5
  0
CIRCLE
  5
400
  8
0
  6
CONTINUOUS
 62
     7
 10
346.27799999999991
 20
233.05000000000001
 30
0.0
 40
0.5
  0
CIRCLE
  5
401
  8
0
  6
CONTINUOUS
 62
     7
 10
312.72199999999998
 20
245.75
 30
0.0
 40
0.5
  0
CIRCLE
  5
402
  8
0
  6
CONTINUOUS
 62
     7
 10
314.5
 20
239.40000000000001
 30
0.0
 40
0.5
  0
CIRCLE
  5
403
  8
0
  6
CONTINUOUS
 62
     7
 10
316.27800000000002
 20
233.05000000000001
 30
0.0
 40
0.5
  0
CIRCLE
  5
404
  8
0
  6
CONTINUOUS
 62
     7
 10
377.76999999999998
 20
213.90000000000001
 30
0.0
 40
0.5
  0
CIRCLE
  5
405
  8
0
  6
CONTINUOUS
 62
     7
 10
375.2299999999999
 20
213.90000000000001
 30
0.0
 40
0.5
  0
ARC
  5
406
  8
0
  6
CONTINUOUS
 62
     7
 10
386.0
 20
250.0
 30
0.0
 40
4.0
 50
0.0
 51
90.0
  0
CIRCLE
  5
407
  8
0
  6
CONTINUOUS
 62
     7
 10
385.0
 20
249.0
 30
0.0
 40
1.75
  0
CIRCLE
  5
408
  8
0
  6
CONTINUOUS
 62
     7
 10
377.76999999999998
 20
239.5
 30
0.0
 40
0.5
  0
CIRCLE
  5
409
  8
0
  6
CONTINUOUS
 62
     7
 10
375.2299999999999
 20
239.5
 30
0.0
 40
0.5
  0
ENDSEC
  0
EOF
